<?xml version="1.0" encoding="UTF-8" standalone="no"?>
<!--part of the matt icon theme by sixsixfive released under CC0 (https://creativecommons.org/publicdomain/zero/1.0/) on openclipart-->

<svg
   viewBox="0 0 265 140"
   id="svg3072"
   version="1.1"
   inkscape:version="1.4 (1:1.4+202410161351+e7c3feb100)"
   width="265"
   height="140"
   sodipodi:docname="230v.svg"
   xml:space="preserve"
   inkscape:export-filename="230v.png"
   inkscape:export-xdpi="96"
   inkscape:export-ydpi="96"
   xmlns:inkscape="http://www.inkscape.org/namespaces/inkscape"
   xmlns:sodipodi="http://sodipodi.sourceforge.net/DTD/sodipodi-0.dtd"
   xmlns="http://www.w3.org/2000/svg"
   xmlns:svg="http://www.w3.org/2000/svg"><sodipodi:namedview
     pagecolor="#ffffff"
     bordercolor="#666666"
     borderopacity="1"
     objecttolerance="10"
     gridtolerance="10"
     guidetolerance="10"
     inkscape:pageopacity="0"
     inkscape:pageshadow="2"
     inkscape:window-width="1920"
     inkscape:window-height="1002"
     id="namedview3108"
     showgrid="false"
     inkscape:zoom="1.9369712"
     inkscape:cx="78.731165"
     inkscape:cy="53.950208"
     inkscape:window-x="0"
     inkscape:window-y="0"
     inkscape:window-maximized="1"
     inkscape:current-layer="svg3072"
     inkscape:showpageshadow="2"
     inkscape:pagecheckerboard="0"
     inkscape:deskcolor="#d1d1d1" /><metadata
     id="metadata3110" /><defs
     id="0">
	
	
	
	
	
	
	
	
	
	
	
	
	
	
	
</defs><rect
     style="vector-effect:non-scaling-stroke;fill:#3c474d;fill-opacity:1;stroke-width:0.376198;stroke-linecap:round;stroke-linejoin:round;-inkscape-stroke:hairline"
     id="rect2"
     width="265"
     height="140"
     x="0"
     y="0" /><g
     id="g9"
     transform="matrix(1.1262951,0,0,1.1262951,-16.731899,-7.3217254)"><text
       xml:space="preserve"
       style="font-weight:300;font-size:21.1244px;font-family:Roboto;-inkscape-font-specification:'Roboto, Light';text-align:start;writing-mode:lr-tb;direction:ltr;text-anchor:start;fill:#00d4aa;fill-opacity:1;stroke:#00d4aa;stroke-width:1.54086;stroke-linecap:round;stroke-linejoin:round;stroke-dasharray:none;stroke-opacity:1"
       x="108.23479"
       y="103.95977"
       id="text3"><tspan
         sodipodi:role="line"
         id="tspan3"
         x="108.23479"
         y="103.95977"
         style="stroke-width:1.54086">230V</tspan></text><path
       id="path3"
       style="fill:#00d4aa;fill-opacity:1;stroke:#00d4aa;stroke-width:0.867394;stroke-linecap:round;stroke-linejoin:round;stroke-dasharray:none;stroke-opacity:1"
       d="m 114.38476,33.136719 c -3.13295,0 -5.70898,2.576028 -5.70898,5.708984 v 36.228516 c 0,3.132957 2.57602,5.708984 5.70898,5.708984 h 36.22657 c 3.13296,0 5.70898,-2.576027 5.70898,-5.708984 V 38.845703 c 0,-3.132956 -2.57602,-5.708984 -5.70898,-5.708984 z m 0,3.417969 h 36.22657 c 1.29904,0 2.29297,0.991972 2.29297,2.291015 v 36.228516 c 0,1.299043 -0.99393,2.291016 -2.29297,2.291016 h -36.22657 c -1.29904,0 -2.29297,-0.991973 -2.29297,-2.291016 V 38.845703 c 0,-1.299043 0.99393,-2.291015 2.29297,-2.291015 z M 132.5,43.921875 c -7.18805,0 -13.04102,5.851017 -13.04102,13.039063 C 119.45898,64.148985 125.31195,70 132.5,70 c 7.18805,0 13.03906,-5.851015 13.03906,-13.039062 0,-7.188046 -5.85101,-13.039063 -13.03906,-13.039063 z m -2.35743,2.527344 c -0.0499,0.193492 -0.0762,0.396909 -0.0762,0.605469 0,1.338957 1.09464,2.433594 2.4336,2.433594 1.33895,0 2.43359,-1.094637 2.43359,-2.433594 0,-0.20856 -0.0263,-0.411977 -0.0762,-0.605469 4.8225,1.071432 8.41407,5.359843 8.41407,10.511719 0,5.151876 -3.59157,9.440287 -8.41407,10.511719 0.0499,-0.193492 0.0762,-0.396908 0.0762,-0.605469 0,-1.338957 -1.09464,-2.433594 -2.43359,-2.433594 -1.33896,0 -2.4336,1.094637 -2.4336,2.433594 0,0.208561 0.0263,0.411977 0.0762,0.605469 -4.82351,-1.070983 -8.41601,-5.359412 -8.41601,-10.511719 0,-5.152307 3.5925,-9.440736 8.41601,-10.511719 z m -2.94726,8.210938 a 2,2 0 0 0 -2,2 2,2 0 0 0 2,2 2,2 0 0 0 2,-2 2,2 0 0 0 -2,-2 z m 9.90625,0 a 2,2 0 0 0 -2,2 2,2 0 0 0 2,2 2,2 0 0 0 2,-2 2,2 0 0 0 -2,-2 z" /></g></svg>
