<?xml version="1.0" encoding="UTF-8" standalone="no"?>
<!--part of the matt icon theme by sixsixfive released under CC0 (https://creativecommons.org/publicdomain/zero/1.0/) on openclipart-->

<svg
   viewBox="0 0 265 140"
   id="svg3072"
   version="1.1"
   inkscape:version="1.4 (1:1.4+202410161351+e7c3feb100)"
   width="265"
   height="140"
   sodipodi:docname="400v.svg"
   xml:space="preserve"
   inkscape:export-filename="serversetup.png"
   inkscape:export-xdpi="96"
   inkscape:export-ydpi="96"
   xmlns:inkscape="http://www.inkscape.org/namespaces/inkscape"
   xmlns:sodipodi="http://sodipodi.sourceforge.net/DTD/sodipodi-0.dtd"
   xmlns="http://www.w3.org/2000/svg"
   xmlns:svg="http://www.w3.org/2000/svg"><sodipodi:namedview
     pagecolor="#ffffff"
     bordercolor="#666666"
     borderopacity="1"
     objecttolerance="10"
     gridtolerance="10"
     guidetolerance="10"
     inkscape:pageopacity="0"
     inkscape:pageshadow="2"
     inkscape:window-width="1920"
     inkscape:window-height="1002"
     id="namedview3108"
     showgrid="false"
     inkscape:zoom="1.9369712"
     inkscape:cx="132.93951"
     inkscape:cy="105.5772"
     inkscape:window-x="0"
     inkscape:window-y="0"
     inkscape:window-maximized="1"
     inkscape:current-layer="svg3072"
     inkscape:showpageshadow="2"
     inkscape:pagecheckerboard="0"
     inkscape:deskcolor="#d1d1d1" /><metadata
     id="metadata3110" /><defs
     id="0">
	
	
	
	
	
	
	
	
	
	
	
	
	
	
	
</defs><rect
     style="vector-effect:non-scaling-stroke;fill:#3c474d;fill-opacity:1;stroke-width:0.376198;stroke-linecap:round;stroke-linejoin:round;-inkscape-stroke:hairline"
     id="rect2"
     width="265"
     height="140"
     x="0"
     y="0" /><g
     id="g3"
     transform="translate(1.604979,2.845495)"><path
       style="fill:#00d4aa;fill-opacity:1;stroke-width:0.195647"
       d="m 129.36051,82.365476 -0.83208,-6.53667 1.59665,1.85695 2.21221,-11.22549 -7.93649,3.34586 6.50991,-19.07977 5.40578,-0.008 -7.22271,14.42869 8.29546,-3.22201 -5.35267,16.10234 2.20137,-0.27326 -4.87743,4.61091 z"
       id="path2"
       sodipodi:nodetypes="ccccccccccccc" /><path
       style="fill:none;stroke:#00d4aa;stroke-width:6.98276;stroke-linecap:round;stroke-linejoin:round;stroke-dasharray:none;stroke-opacity:1"
       inkscape:label="Triangle"
       d="M 84.707002,107.15451 H 177.08304 L 130.89502,27.1545 Z"
       id="path3" /><text
       xml:space="preserve"
       style="font-weight:300;font-size:21.1244px;font-family:Roboto;-inkscape-font-specification:'Roboto, Light';text-align:start;writing-mode:lr-tb;direction:ltr;text-anchor:start;fill:#00d4aa;fill-opacity:1;stroke:#00d4aa;stroke-width:1.54086;stroke-linecap:round;stroke-linejoin:round;stroke-dasharray:none;stroke-opacity:1"
       x="106.62981"
       y="101.11427"
       id="text3"><tspan
         sodipodi:role="line"
         id="tspan3"
         x="106.62981"
         y="101.11427"
         style="stroke-width:1.54086">400V</tspan></text></g></svg>
