<?xml version="1.0" encoding="UTF-8" standalone="no"?>
<svg
   xmlns:dc="http://purl.org/dc/elements/1.1/"
   xmlns:cc="http://creativecommons.org/ns#"
   xmlns:rdf="http://www.w3.org/1999/02/22-rdf-syntax-ns#"
   xmlns:svg="http://www.w3.org/2000/svg"
   xmlns="http://www.w3.org/2000/svg"
   xmlns:sodipodi="http://sodipodi.sourceforge.net/DTD/sodipodi-0.dtd"
   xmlns:inkscape="http://www.inkscape.org/namespaces/inkscape"
   width="80mm"
   height="120mm"
   viewBox="0 0 80 120"
   version="1.1"
   id="svg945"
   inkscape:version="1.0.1 (3bc2e813f5, 2020-09-07)"
   sodipodi:docname="FabCard_Inkscape.svg">
  <defs
     id="defs939" />
  <sodipodi:namedview
     id="base"
     pagecolor="#ffffff"
     bordercolor="#666666"
     borderopacity="1.0"
     inkscape:pageopacity="0"
     inkscape:pageshadow="2"
     inkscape:zoom="3.2526912"
     inkscape:cx="148.3553"
     inkscape:cy="255.3391"
     inkscape:document-units="mm"
     inkscape:current-layer="layer3"
     showgrid="false"
     inkscape:window-width="2560"
     inkscape:window-height="1330"
     inkscape:window-x="-12"
     inkscape:window-y="-12"
     inkscape:window-maximized="1"
     showguides="true"
     inkscape:guide-bbox="true"
     inkscape:document-rotation="0">
    <sodipodi:guide
       position="36.01353,52.27498"
       orientation="1,0"
       id="guide952"
       inkscape:locked="false" />
    <sodipodi:guide
       position="24.540135,40.198645"
       orientation="0,1"
       id="guide954"
       inkscape:locked="false" />
  </sodipodi:namedview>
  <metadata
     id="metadata942">
    <rdf:RDF>
      <cc:Work
         rdf:about="">
        <dc:format>image/svg+xml</dc:format>
        <dc:type
           rdf:resource="http://purl.org/dc/dcmitype/StillImage" />
        <dc:title />
      </cc:Work>
    </rdf:RDF>
  </metadata>
  <g
     inkscape:groupmode="layer"
     id="layer5"
     inkscape:label="Background"
     transform="translate(0,-177)"
     style="display:inline">
    <rect
       style="display:inline;fill:#3c474d;fill-opacity:1;stroke:none;stroke-width:2.64796782;stroke-linecap:round;stroke-linejoin:miter;stroke-miterlimit:4;stroke-dasharray:none;stroke-opacity:1"
       id="rect1839"
       width="80"
       height="120"
       x="0"
       y="177" />
  </g>
  <g
     inkscape:groupmode="layer"
     id="layer4"
     inkscape:label="Out"
     style="display:inline"
     transform="translate(0,-177)">
    <path
       style="fill:none;fill-opacity:1;stroke:#01cda5;stroke-width:3;stroke-linecap:round;stroke-linejoin:miter;stroke-miterlimit:4;stroke-dasharray:none;stroke-opacity:1"
       id="path1537-1-0"
       sodipodi:type="arc"
       sodipodi:cx="36.010536"
       sodipodi:cy="256.79947"
       sodipodi:rx="25"
       sodipodi:ry="25"
       sodipodi:start="0.61086524"
       sodipodi:end="4.1015237"
       d="m 56.489337,271.13888 a 25,25 0 0 1 -25.53424,10.1441 25,25 0 0 1 -19.428076,-19.42807 25,25 0 0 1 10.144103,-25.53424"
       sodipodi:arc-type="arc"
       sodipodi:open="true" />
    <path
       style="fill:none;fill-opacity:1;stroke:#01cda5;stroke-width:3;stroke-linecap:round;stroke-linejoin:miter;stroke-miterlimit:4;stroke-dasharray:none;stroke-opacity:1"
       id="path1537-33-4"
       sodipodi:type="arc"
       sodipodi:cx="36.010536"
       sodipodi:cy="256.79947"
       sodipodi:rx="30.000002"
       sodipodi:ry="30.000002"
       sodipodi:start="0.52359878"
       sodipodi:end="4.1887902"
       d="M 61.9913,271.79947 A 30.000002,30.000002 0 0 1 30.80109,286.3437 30.000002,30.000002 0 0 1 6.4663017,262.00891 30.000002,30.000002 0 0 1 21.010535,230.81871"
       sodipodi:arc-type="arc"
       sodipodi:open="true" />
    <path
       style="display:inline;fill:none;fill-opacity:1;stroke:#01cda5;stroke-width:3;stroke-linecap:round;stroke-linejoin:miter;stroke-miterlimit:4;stroke-dasharray:none;stroke-opacity:1"
       id="path1537-5"
       sodipodi:type="arc"
       sodipodi:cx="36.02"
       sodipodi:cy="256.79001"
       sodipodi:rx="20"
       sodipodi:ry="20"
       sodipodi:start="0.78539816"
       sodipodi:end="3.9269908"
       d="m 50.162136,270.93214 a 20,20 0 0 1 -28.284271,0 20,20 0 0 1 0,-28.28427"
       sodipodi:arc-type="arc"
       sodipodi:open="true" />
  </g>
  <g
     inkscape:groupmode="layer"
     id="layer3"
     inkscape:label="In"
     style="display:inline"
     transform="translate(0,-177)">
    <circle
       style="fill:none;fill-opacity:1;stroke:#01cda5;stroke-width:3;stroke-linecap:round;stroke-linejoin:miter;stroke-miterlimit:4;stroke-dasharray:none;stroke-opacity:1"
       id="path1537"
       cx="36.010536"
       cy="256.79947"
       r="5" />
    <circle
       style="fill:none;fill-opacity:1;stroke:#01cda5;stroke-width:3;stroke-linecap:round;stroke-linejoin:miter;stroke-miterlimit:4;stroke-dasharray:none;stroke-opacity:1"
       id="path1537-3"
       cx="36.010536"
       cy="256.79947"
       r="10" />
    <path
       style="fill:none;fill-opacity:1;stroke:#01cda5;stroke-width:3;stroke-linecap:round;stroke-linejoin:miter;stroke-miterlimit:4;stroke-dasharray:none;stroke-opacity:1"
       id="path1537-1"
       sodipodi:type="arc"
       sodipodi:cx="36.010536"
       sodipodi:cy="256.79947"
       sodipodi:rx="25"
       sodipodi:ry="25"
       sodipodi:start="4.1669522"
       sodipodi:end="0.54538984"
       d="m 23.040748,235.42695 a 25,25 0 0 1 30.647043,3.69443 25,25 0 0 1 3.695873,30.64687"
       sodipodi:arc-type="arc"
       sodipodi:open="true" />
    <path
       style="fill:none;fill-opacity:1;stroke:#01cda5;stroke-width:3;stroke-linecap:round;stroke-linejoin:miter;stroke-miterlimit:4;stroke-dasharray:none;stroke-opacity:1"
       id="path1537-7"
       sodipodi:type="arc"
       sodipodi:cx="36.010536"
       sodipodi:cy="256.79947"
       sodipodi:rx="20"
       sodipodi:ry="20"
       sodipodi:start="4.0025985"
       sodipodi:end="0.70722936"
       d="m 22.977039,241.6295 a 20,20 0 0 1 27.157511,1.00974 20,20 0 0 1 1.079285,27.15483"
       sodipodi:arc-type="arc"
       sodipodi:open="true" />
    <path
       style="fill:none;fill-opacity:1;stroke:#01cda5;stroke-width:3;stroke-linecap:round;stroke-linejoin:miter;stroke-miterlimit:4;stroke-dasharray:none;stroke-opacity:1"
       id="path1537-33"
       sodipodi:type="arc"
       sodipodi:cx="36.010536"
       sodipodi:cy="256.79947"
       sodipodi:rx="30"
       sodipodi:ry="30"
       sodipodi:start="4.263456"
       sodipodi:end="0.44003635"
       d="m 22.990401,229.77215 a 30,30 0 0 1 34.138766,5.71996 30,30 0 0 1 6.023455,34.08653"
       sodipodi:arc-type="arc"
       sodipodi:open="true" />
  </g>
  <g
     inkscape:groupmode="layer"
     id="layer2"
     inkscape:label="Card"
     style="display:inline"
     transform="translate(0,-177)">
    <path
       style="fill:#3c474d;fill-opacity:1;stroke:none;stroke-width:2.64583325;stroke-linecap:round;stroke-linejoin:miter;stroke-miterlimit:4;stroke-dasharray:none;stroke-opacity:1"
       d="m 21.685344,185.69932 c -1.75895,0 -3.175,1.41605 -3.175,3.175 v 82.25028 c 0,1.75895 1.41605,3.175 3.175,3.175 h 50.629984 c 1.75895,0 3.175,-1.41605 3.175,-3.175 v -82.25028 c 0,-1.75895 -1.41605,-3.175 -3.175,-3.175 z m 6.00015,6.00015 h 38.6302 c 1.75895,0 3.175,1.41605 3.175,3.175 v 70.24998 c 0,1.75895 -1.41605,3.175 -3.175,3.175 h -38.6302 c -1.75895,0 -3.175,-1.41605 -3.175,-3.175 v -70.24998 c 0,-1.75895 1.41605,-3.175 3.175,-3.175 z"
       id="rect1490-8-2-3"
       inkscape:connector-curvature="0" />
    <path
       style="fill:#01cda5;fill-opacity:1;stroke:none;stroke-width:2.64583325;stroke-linecap:round;stroke-linejoin:miter;stroke-miterlimit:4;stroke-dasharray:none;stroke-opacity:1"
       d="m 23.184995,187.19949 c -1.75895,0 -3.175,1.41605 -3.175,3.175 v 79.25046 c 0,1.75895 1.41605,3.175 3.175,3.175 h 47.630166 c 1.75895,0 3.175,-1.41605 3.175,-3.175 v -79.25046 c 0,-1.75895 -1.41605,-3.175 -3.175,-3.175 z m 3.000332,2.99982 h 41.630018 c 1.75895,0 3.175,1.41605 3.175,3.175 v 73.2503 c 0,1.75895 -1.41605,3.175 -3.175,3.175 H 26.185327 c -1.75895,0 -3.175,-1.41605 -3.175,-3.175 v -73.2503 c 0,-1.75895 1.41605,-3.175 3.175,-3.175 z"
       id="rect1490"
       inkscape:connector-curvature="0" />
  </g>
</svg>
