<?xml version="1.0" encoding="UTF-8" standalone="no"?>
<!-- Created with Inkscape (http://www.inkscape.org/) -->

<svg
   xmlns:dc="http://purl.org/dc/elements/1.1/"
   xmlns:cc="http://creativecommons.org/ns#"
   xmlns:rdf="http://www.w3.org/1999/02/22-rdf-syntax-ns#"
   xmlns:svg="http://www.w3.org/2000/svg"
   xmlns="http://www.w3.org/2000/svg"
   xmlns:sodipodi="http://sodipodi.sourceforge.net/DTD/sodipodi-0.dtd"
   xmlns:inkscape="http://www.inkscape.org/namespaces/inkscape"
   width="53.98mm"
   height="85.599998mm"
   viewBox="0 0 53.98 85.599998"
   version="1.1"
   id="svg945"
   inkscape:version="0.92.4 (5da689c313, 2019-01-14)"
   sodipodi:docname="FabCard_Inkscape_Card.svg">
  <defs
     id="defs939" />
  <sodipodi:namedview
     id="base"
     pagecolor="#ffffff"
     bordercolor="#666666"
     borderopacity="1.0"
     inkscape:pageopacity="0"
     inkscape:pageshadow="2"
     inkscape:zoom="2.3"
     inkscape:cx="117.1542"
     inkscape:cy="165.72718"
     inkscape:document-units="mm"
     inkscape:current-layer="layer5"
     showgrid="false"
     inkscape:window-width="2400"
     inkscape:window-height="1271"
     inkscape:window-x="3191"
     inkscape:window-y="1341"
     inkscape:window-maximized="1"
     showguides="true"
     inkscape:guide-bbox="true" />
  <metadata
     id="metadata942">
    <rdf:RDF>
      <cc:Work
         rdf:about="">
        <dc:format>image/svg+xml</dc:format>
        <dc:type
           rdf:resource="http://purl.org/dc/dcmitype/StillImage" />
        <dc:title></dc:title>
      </cc:Work>
    </rdf:RDF>
  </metadata>
  <g
     inkscape:groupmode="layer"
     id="layer5"
     inkscape:label="Background"
     transform="translate(0,-211.4)"
     style="display:inline">
    <rect
       style="display:inline;fill:#3c474d;fill-opacity:1;stroke:none;stroke-width:1.89254224;stroke-linecap:round;stroke-linejoin:miter;stroke-miterlimit:4;stroke-dasharray:none;stroke-opacity:1"
       id="rect1839"
       width="55.98"
       height="87.599998"
       x="-1"
       y="210.39999" />
  </g>
  <g
     inkscape:groupmode="layer"
     id="layer3"
     inkscape:label="In"
     style="display:inline"
     transform="translate(0,-211.4)">
    <ellipse
       style="fill:none;fill-opacity:1;stroke:#01cda5;stroke-width:3;stroke-linecap:round;stroke-linejoin:miter;stroke-miterlimit:4;stroke-dasharray:none;stroke-opacity:1"
       id="path1537"
       cx="16.000189"
       cy="280.99985"
       rx="5.000001"
       ry="5" />
    <ellipse
       style="fill:none;fill-opacity:1;stroke:#01cda5;stroke-width:3;stroke-linecap:round;stroke-linejoin:miter;stroke-miterlimit:4;stroke-dasharray:none;stroke-opacity:1"
       id="path1537-3"
       cx="16.000189"
       cy="280.99985"
       rx="10.000002"
       ry="10" />
    <path
       style="fill:none;fill-opacity:1;stroke:#01cda5;stroke-width:3;stroke-linecap:round;stroke-linejoin:miter;stroke-miterlimit:4;stroke-dasharray:none;stroke-opacity:1"
       id="path1537-1"
       sodipodi:type="arc"
       sodipodi:cx="16.000189"
       sodipodi:cy="280.99985"
       sodipodi:rx="25.000004"
       sodipodi:ry="25"
       sodipodi:start="4.1669522"
       sodipodi:end="0.54538984"
       d="m 3.0303983,259.62733 a 25.000004,25 0 0 1 30.6470477,3.69443 25.000004,25 0 0 1 3.695874,30.64687"
       sodipodi:open="true" />
    <path
       style="fill:none;fill-opacity:1;stroke:#01cda5;stroke-width:3;stroke-linecap:round;stroke-linejoin:miter;stroke-miterlimit:4;stroke-dasharray:none;stroke-opacity:1"
       id="path1537-7"
       sodipodi:type="arc"
       sodipodi:cx="16.000189"
       sodipodi:cy="280.99985"
       sodipodi:rx="20.000004"
       sodipodi:ry="20"
       sodipodi:start="4.0025985"
       sodipodi:end="0.70722936"
       d="m 2.966689,265.82988 a 20.000004,20 0 0 1 27.157517,1.00973 20.000004,20 0 0 1 1.079285,27.15484"
       sodipodi:open="true" />
    <path
       style="fill:none;fill-opacity:1;stroke:#01cda5;stroke-width:3;stroke-linecap:round;stroke-linejoin:miter;stroke-miterlimit:4;stroke-dasharray:none;stroke-opacity:1"
       id="path1537-33"
       sodipodi:type="arc"
       sodipodi:cx="16.000189"
       sodipodi:cy="280.99985"
       sodipodi:rx="30.000004"
       sodipodi:ry="30"
       sodipodi:start="4.263456"
       sodipodi:end="0.44003635"
       d="m 2.9800524,253.97253 a 30.000004,30 0 0 1 34.1387696,5.71996 30.000004,30 0 0 1 6.023456,34.08653"
       sodipodi:open="true" />
  </g>
  <g
     inkscape:groupmode="layer"
     id="layer2"
     inkscape:label="Card"
     style="display:inline"
     transform="translate(0,-211.4)">
    <path
       style="fill:#3c474d;fill-opacity:1;stroke:none;stroke-width:2.64583325;stroke-linecap:round;stroke-linejoin:miter;stroke-miterlimit:4;stroke-dasharray:none;stroke-opacity:1"
       d="m 1.6750005,209.89972 c -1.75895028,0 -3.1750005,1.41605 -3.1750005,3.175 V 295.325 c 0,1.75895 1.41605022,3.175 3.1750005,3.175 H 52.304999 c 1.758951,0 3.175001,-1.41605 3.175001,-3.175 v -82.25028 c 0,-1.75895 -1.41605,-3.175 -3.175001,-3.175 z m 6.0001509,6.00015 H 46.305359 c 1.75895,0 3.175,1.41605 3.175,3.175 v 70.24998 c 0,1.75895 -1.41605,3.175 -3.175,3.175 H 7.6751514 c -1.7589502,0 -3.1750005,-1.41605 -3.1750005,-3.175 v -70.24998 c 0,-1.75895 1.4160503,-3.175 3.1750005,-3.175 z"
       id="rect1490-8-2-3"
       inkscape:connector-curvature="0" />
    <path
       style="fill:#01cda5;fill-opacity:1;stroke:none;stroke-width:2.64583325;stroke-linecap:round;stroke-linejoin:miter;stroke-miterlimit:4;stroke-dasharray:none;stroke-opacity:1"
       d="m 3.1746517,211.39989 c -1.7589502,0 -3.17500046313,1.41605 -3.17500046313,3.175 v 79.25046 c 0,1.75895 1.41605026313,3.175 3.17500046313,3.175 H 50.804829 c 1.758951,0 3.175001,-1.41605 3.175001,-3.175 v -79.25046 c 0,-1.75895 -1.41605,-3.175 -3.175001,-3.175 z m 3.0003325,2.99982 H 47.805009 c 1.75895,0 3.175,1.41605 3.175,3.175 v 73.2503 c 0,1.75895 -1.41605,3.175 -3.175,3.175 H 6.1749842 c -1.7589503,0 -3.1750005,-1.41605 -3.1750005,-3.175 v -73.2503 c 0,-1.75895 1.4160502,-3.175 3.1750005,-3.175 z"
       id="rect1490"
       inkscape:connector-curvature="0" />
  </g>
</svg>
