<?xml version="1.0" encoding="UTF-8" standalone="no"?>
<svg
   width="256"
   height="256"
   viewBox="0 0 67.733331 67.733333"
   version="1.1"
   id="svg1"
   sodipodi:docname="CSharp.svg"
   inkscape:version="1.3.2 (1:1.3.2+202404261509+091e20ef0f)"
   inkscape:export-filename="CSharp.png"
   inkscape:export-xdpi="96"
   inkscape:export-ydpi="96"
   xmlns:inkscape="http://www.inkscape.org/namespaces/inkscape"
   xmlns:sodipodi="http://sodipodi.sourceforge.net/DTD/sodipodi-0.dtd"
   xmlns="http://www.w3.org/2000/svg"
   xmlns:svg="http://www.w3.org/2000/svg">
  <sodipodi:namedview
     id="namedview1"
     pagecolor="#ffffff"
     bordercolor="#000000"
     borderopacity="0.25"
     inkscape:showpageshadow="2"
     inkscape:pageopacity="0.0"
     inkscape:pagecheckerboard="0"
     inkscape:deskcolor="#d1d1d1"
     inkscape:export-bgcolor="#ffffffff"
     inkscape:zoom="0.85571288"
     inkscape:cx="-64.858203"
     inkscape:cy="154.25735"
     inkscape:window-width="1920"
     inkscape:window-height="1002"
     inkscape:window-x="0"
     inkscape:window-y="0"
     inkscape:window-maximized="1"
     inkscape:current-layer="svg1" />
  <defs
     id="defs12">
    <linearGradient
       id="a"
       x1="46.772999"
       x2="69.906998"
       y1="86.461998"
       y2="126.732"
       gradientTransform="matrix(8.78996,0,0,8.78996,-233.983,-518.974)"
       gradientUnits="userSpaceOnUse">
      <stop
         stop-color="#927BE5"
         id="stop1" />
      <stop
         offset="1"
         stop-color="#512BD4"
         id="stop2" />
    </linearGradient>
    <filter
       id="b"
       width="42.845001"
       height="39.136002"
       x="44.629002"
       y="91.889999"
       color-interpolation-filters="sRGB"
       filterUnits="userSpaceOnUse">
      <feFlood
         flood-opacity="0"
         result="BackgroundImageFix"
         id="feFlood2" />
      <feColorMatrix
         in="SourceAlpha"
         result="hardAlpha"
         type="matrix"
         values="0 0 0 0 0 0 0 0 0 0 0 0 0 0 0 0 0 0 127 0"
         id="feColorMatrix2" />
      <feOffset
         id="feOffset2" />
      <feColorMatrix
         type="matrix"
         values="0 0 0 0 0 0 0 0 0 0 0 0 0 0 0 0 0 0 0.1 0"
         id="feColorMatrix3" />
      <feBlend
         in2="BackgroundImageFix"
         mode="normal"
         result="effect1_dropShadow_2037_2800"
         id="feBlend3" />
      <feColorMatrix
         in="SourceAlpha"
         result="hardAlpha"
         type="matrix"
         values="0 0 0 0 0 0 0 0 0 0 0 0 0 0 0 0 0 0 127 0"
         id="feColorMatrix4" />
      <feOffset
         dy="1"
         id="feOffset4" />
      <feGaussianBlur
         stdDeviation="2.499"
         id="feGaussianBlur4" />
      <feColorMatrix
         type="matrix"
         values="0 0 0 0 0 0 0 0 0 0 0 0 0 0 0 0 0 0 0.1 0"
         id="feColorMatrix5" />
      <feBlend
         in2="effect1_dropShadow_2037_2800"
         mode="normal"
         result="effect2_dropShadow_2037_2800"
         id="feBlend5" />
      <feColorMatrix
         in="SourceAlpha"
         result="hardAlpha"
         type="matrix"
         values="0 0 0 0 0 0 0 0 0 0 0 0 0 0 0 0 0 0 127 0"
         id="feColorMatrix6" />
      <feOffset
         dy="4"
         id="feOffset6" />
      <feGaussianBlur
         stdDeviation="2"
         id="feGaussianBlur6" />
      <feColorMatrix
         type="matrix"
         values="0 0 0 0 0 0 0 0 0 0 0 0 0 0 0 0 0 0 0.09 0"
         id="feColorMatrix7" />
      <feBlend
         in2="effect2_dropShadow_2037_2800"
         mode="normal"
         result="effect3_dropShadow_2037_2800"
         id="feBlend7" />
      <feColorMatrix
         in="SourceAlpha"
         result="hardAlpha"
         type="matrix"
         values="0 0 0 0 0 0 0 0 0 0 0 0 0 0 0 0 0 0 127 0"
         id="feColorMatrix8" />
      <feOffset
         dy="9"
         id="feOffset8" />
      <feGaussianBlur
         stdDeviation="2.5"
         id="feGaussianBlur8" />
      <feColorMatrix
         type="matrix"
         values="0 0 0 0 0 0 0 0 0 0 0 0 0 0 0 0 0 0 0.05 0"
         id="feColorMatrix9" />
      <feBlend
         in2="effect3_dropShadow_2037_2800"
         mode="normal"
         result="effect4_dropShadow_2037_2800"
         id="feBlend9" />
      <feColorMatrix
         in="SourceAlpha"
         result="hardAlpha"
         type="matrix"
         values="0 0 0 0 0 0 0 0 0 0 0 0 0 0 0 0 0 0 127 0"
         id="feColorMatrix10" />
      <feOffset
         dy="15"
         id="feOffset10" />
      <feGaussianBlur
         stdDeviation="3"
         id="feGaussianBlur10" />
      <feColorMatrix
         type="matrix"
         values="0 0 0 0 0 0 0 0 0 0 0 0 0 0 0 0 0 0 0.01 0"
         id="feColorMatrix11" />
      <feBlend
         in2="effect4_dropShadow_2037_2800"
         mode="normal"
         result="effect5_dropShadow_2037_2800"
         id="feBlend11" />
      <feBlend
         in="SourceGraphic"
         in2="effect5_dropShadow_2037_2800"
         mode="normal"
         result="shape"
         id="feBlend12" />
    </filter>
  </defs>
  <g
     id="g1"
     transform="matrix(1.4461871,0,0,1.4461871,-5.3154596,-5.3150456)">
    <path
       d="m 135.731,285.85 v 173.93 c 0,21.517 11.478,41.418 30.125,52.168 l 150.624,86.976 a 60.223,60.223 0 0 0 60.25,0 l 150.623,-86.976 a 60.237,60.237 0 0 0 30.124,-52.169 V 285.851 c 0,-21.525 -11.477,-41.423 -30.124,-52.177 L 376.729,146.72 a 60.21,60.21 0 0 0 -60.249,0 l -150.624,86.954 a 60.245,60.245 0 0 0 -30.125,52.177 z"
       fill="url(#a)"
       id="path12"
       transform="matrix(0.1,0,0,0.1,-7.567,-10.189)"
       style="fill:url(#a)" />
    <path
       d="m 54.056,98.03 v 6.855 a 1.711,1.711 0 0 0 1.714,1.714 1.713,1.713 0 0 0 1.714,-1.714 1.7135,1.7135 0 1 1 3.427,0 5.141,5.141 0 1 1 -10.282,0 v -6.854 a 5.141,5.141 0 1 1 10.282,0 1.7135,1.7135 0 1 1 -3.427,0 1.7135,1.7135 0 1 0 -3.427,0 z m 27.418,6.855 a 1.712,1.712 0 0 1 -1.714,1.714 h -1.714 v 1.713 c 0,0.455 -0.18,0.891 -0.502,1.212 a 1.71,1.71 0 0 1 -2.423,0 1.719,1.719 0 0 1 -0.502,-1.212 v -1.713 h -3.427 v 1.713 a 1.71,1.71 0 0 1 -1.714,1.714 1.71,1.71 0 0 1 -1.713,-1.714 v -1.713 H 66.05 a 1.7135,1.7135 0 1 1 0,-3.427 h 1.714 V 99.745 H 66.05 a 1.7135,1.7135 0 1 1 0,-3.427 h 1.714 v -1.714 a 1.7135,1.7135 0 1 1 3.427,0 v 1.713 h 3.427 v -1.713 a 1.7135,1.7135 0 1 1 3.427,0 v 1.713 h 1.714 c 0.454,0 0.89,0.18 1.211,0.502 a 1.71,1.71 0 0 1 0,2.423 1.712,1.712 0 0 1 -1.211,0.503 h -1.714 v 3.427 h 1.714 a 1.718,1.718 0 0 1 1.714,1.713 z m -6.855,-5.14 h -3.427 v 3.427 h 3.427 z"
       fill="#ffffff"
       filter="url(#b)"
       style="mix-blend-mode:screen"
       transform="matrix(0.879,0,0,0.879,-30.965,-62.086)"
       id="path13" />
  </g>
</svg>
