<?xml version="1.0" encoding="UTF-8" standalone="no"?>
<svg
   width="256"
   height="256"
   viewBox="0 0 256 256"
   version="1.1"
   id="svg1"
   sodipodi:docname="Xamarin.svg"
   inkscape:export-filename="Xamarin.png"
   inkscape:export-xdpi="96"
   inkscape:export-ydpi="96"
   inkscape:version="1.3.2 (1:1.3.2+202404261509+091e20ef0f)"
   xmlns:inkscape="http://www.inkscape.org/namespaces/inkscape"
   xmlns:sodipodi="http://sodipodi.sourceforge.net/DTD/sodipodi-0.dtd"
   xmlns="http://www.w3.org/2000/svg"
   xmlns:svg="http://www.w3.org/2000/svg"
   xmlns:rdf="http://www.w3.org/1999/02/22-rdf-syntax-ns#"
   xmlns:cc="http://creativecommons.org/ns#"
   xmlns:dc="http://purl.org/dc/elements/1.1/"
   xmlns:sketch="http://www.bohemiancoding.com/sketch/ns">
  <sodipodi:namedview
     id="namedview1"
     pagecolor="#ffffff"
     bordercolor="#000000"
     borderopacity="0.25"
     inkscape:showpageshadow="2"
     inkscape:pageopacity="0.0"
     inkscape:pagecheckerboard="0"
     inkscape:deskcolor="#d1d1d1"
     inkscape:export-bgcolor="#ffffffff"
     inkscape:zoom="1.0241361"
     inkscape:cx="61.027047"
     inkscape:cy="145.48848"
     inkscape:window-width="1920"
     inkscape:window-height="1002"
     inkscape:window-x="0"
     inkscape:window-y="0"
     inkscape:window-maximized="1"
     inkscape:current-layer="svg1" />
  <!-- Generator: Sketch 3.2 (9961) - http://www.bohemiancoding.com/sketch -->
  <title
     id="title1">xamarin-logo</title>
  <desc
     id="desc1">Created with Sketch.</desc>
  <defs
     id="defs1" />
  <g
     id="Page-1"
     stroke="none"
     stroke-width="1"
     fill="none"
     fill-rule="evenodd"
     sketch:type="MSPage"
     transform="matrix(0.64184615,0,0,0.64184615,-26.958246,62.852616)">
    <g
       id="xamarin-logo"
       sketch:type="MSArtboardGroup"
       fill="#3498db">
      <path
         d="m 201.83034,127.22472 -10.31613,-19.79433 -10.55162,19.79433 h -11.34626 l 16.08736,-25.54678 -14.47767,-25.389497 h 11.50329 l 9.39336,19.289618 10.17875,-19.289618 h 10.52184 l -14.8703,25.232217 15.10578,25.70406 z m 36.78545,0 v -5.54373 h -0.15715 c -2.80059,4.35111 -6.76582,6.52666 -11.89592,6.52666 -3.95221,0 -7.06686,-1.07466 -9.34394,-3.224 -2.27709,-2.17556 -3.41569,-5.08505 -3.41569,-8.72843 0,-7.81104 4.38413,-12.25387 13.15226,-13.32858 l 11.73889,-1.612 c 0,-5.478181 -2.53884,-8.217258 -7.61651,-8.217308 -4.84208,5e-5 -9.29165,1.49409 -13.34858,4.482181 v -8.020732 c 1.51809,-0.917365 3.69045,-1.743029 6.5172,-2.477004 2.85301,-0.733875 5.44415,-1.100831 7.77366,-1.100881 10.36469,5e-5 15.54697,5.242358 15.54709,15.726924 v 25.5169 h -8.95143 z m -8.59809,-18.4398 c -2.69587,0.34077 -4.59346,1.00917 -5.69278,2.00518 -1.07316,0.96983 -1.60968,2.477 -1.60968,4.5215 0,1.67753 0.61509,3.05366 1.84529,4.12832 1.23006,1.04844 2.83975,1.57268 4.82893,1.57268 2.69587,0 4.92065,-0.93052 6.67435,-2.79153 1.75358,-1.86102 2.63043,-4.18072 2.63043,-6.95916 v -3.61719 z m 75.43458,18.4398 v -22.72539 c -1.3e-4,-3.74821 -0.58895,-6.526634 -1.76672,-8.335237 -1.15174,-1.834781 -3.2195,-2.752197 -6.20314,-2.752235 -2.38194,3.8e-5 -4.38413,1.100919 -6.00683,3.302656 -1.62283,2.175598 -2.43424,4.809856 -2.43424,7.902776 v 22.60743 H 279.9723 V 103.713 c -1.2e-4,-6.867399 -2.63055,-10.301104 -7.89141,-10.301142 -2.46026,3.8e-5 -4.48873,1.035395 -6.0854,3.106083 -1.5704,2.070739 -2.35554,4.770509 -2.35554,8.099349 v 22.60743 h -9.06918 V 86.963848 h 9.06918 v 6.212128 h 0.15703 c 2.90532,-4.79667 7.14543,-7.19503 12.72047,-7.19508 2.66959,5e-5 5.02525,0.70776 7.06686,2.123155 2.06763,1.389231 3.52029,3.315776 4.35785,5.779623 3.06235,-5.268473 7.56422,-7.902728 13.50561,-7.902778 8.74185,5e-5 13.11285,5.452051 13.11297,16.356014 v 24.88781 z m 39.25884,0 v -5.54373 h -0.15715 c -2.80059,4.35111 -6.76594,6.52666 -11.89592,6.52666 -3.95221,0 -7.06685,-1.07466 -9.34394,-3.224 -2.27708,-2.17556 -3.41569,-5.08505 -3.41569,-8.72843 0,-7.81104 4.38413,-12.25387 13.15227,-13.32858 l 11.73889,-1.612 c 0,-5.478181 -2.53884,-8.217258 -7.61652,-8.217308 -4.8422,5e-5 -9.29164,1.49409 -13.34858,4.482181 v -8.020732 c 1.5181,-0.917365 3.69046,-1.743029 6.5172,-2.477004 2.85289,-0.733875 5.44416,-1.100831 7.77355,-1.100881 10.3648,5e-5 15.54709,5.242358 15.54721,15.726924 v 25.5169 H 344.711 Z m -8.59809,-18.4398 c -2.69599,0.34077 -4.59346,1.00917 -5.69277,2.00518 -1.07317,0.96983 -1.60969,2.477 -1.60969,4.5215 0,1.67753 0.6151,3.05366 1.84529,4.12832 1.23007,1.04844 2.83976,1.57268 4.82894,1.57268 2.69587,0 4.92065,-0.93052 6.67435,-2.79153 1.75358,-1.86102 2.63043,-4.18072 2.63043,-6.95916 v -3.61719 z m 47.92839,-12.974701 c -1.49182,-0.917378 -3.24552,-1.376061 -5.26086,-1.376086 -2.61741,2.5e-5 -4.75048,1.127121 -6.39946,3.381275 -1.6227,2.254222 -2.43412,5.189912 -2.43412,8.807072 v 20.60224 h -9.06916 V 86.963848 h 9.06916 v 7.824121 h 0.15717 c 1.93674,-5.687845 5.36558,-8.531793 10.28622,-8.531844 1.59655,5.1e-5 2.81361,0.183491 3.65118,0.55046 v 9.003634 z m 9.02839,-17.850017 c -1.54426,2.5e-5 -2.8529,-0.49798 -3.92607,-1.494077 -1.07304,-1.022174 -1.60956,-2.267249 -1.60956,-3.735137 0,-1.520216 0.53652,-2.79148 1.60956,-3.813755 1.07317,-1.022224 2.38181,-1.533336 3.92607,-1.533399 1.5704,6.3e-5 2.89218,0.524308 3.96534,1.572709 1.07305,1.022287 1.60969,2.280444 1.60969,3.774445 0,1.467888 -0.53664,2.712963 -1.60969,3.735137 -1.07316,0.996097 -2.39494,1.494102 -3.96534,1.494077 z m -4.63274,49.264518 V 86.963848 h 9.06916 v 40.260872 z m 43.3453,0 v -22.60743 c 0,-7.470245 -2.68285,-11.205394 -8.04831,-11.205432 -2.69598,3.8e-5 -4.95994,1.035395 -6.79209,3.106083 -1.806,2.044524 -2.709,4.652579 -2.709,7.824119 v 22.88266 h -9.06918 V 86.963848 h 9.06918 v 6.44801 h 0.15715 c 2.93148,-4.953933 7.27619,-7.430912 13.0344,-7.430962 8.95143,5e-5 13.42703,5.504443 13.42716,16.513274 v 24.73055 H 431.7825 Z M 71.431112,56 c -2.754801,0.0059 -5.451442,1.573792 -6.838227,3.965729 L 43.023892,97.534256 c -1.365189,2.398342 -1.365189,5.533144 0,7.931484 l 21.568993,37.56853 c 1.386931,2.39196 4.083426,3.96031 6.838227,3.96573 h 43.137838 c 2.7548,-0.006 5.45129,-1.57377 6.83822,-3.96573 l 21.56899,-37.56853 c 1.36519,-2.39834 1.36505,-5.533142 0,-7.931484 L 121.40717,59.965729 C 120.02024,57.573792 117.32375,56.005418 114.56895,56 Z m 0.391478,21.978043 c 0.05926,-0.0059 0.121413,-0.0059 0.180856,0 h 7.440628 c 0.329363,0.0068 0.648846,0.197691 0.813324,0.484356 l 12.62213,22.553241 c 0.06353,0.11151 0.104471,0.23574 0.120004,0.36326 0.01554,-0.12755 0.05644,-0.25179 0.120004,-0.36326 L 105.71146,78.462399 c 0.16969,-0.295354 0.50414,-0.487265 0.84339,-0.484356 h 7.44063 c 0.65888,0.0059 1.15229,0.837964 0.84354,1.422825 l -12.32072,22.099142 12.32072,22.06886 c 0.33798,0.58822 -0.16758,1.45891 -0.84354,1.45309 h -7.44063 c -0.34518,-0.003 -0.6816,-0.20812 -0.84339,-0.51463 L 93.119536,101.95409 c -0.06353,-0.11151 -0.10447,-0.23576 -0.120004,-0.36327 -0.01554,0.12754 -0.05644,0.25181 -0.120004,0.36327 l -12.62213,22.55324 c -0.156988,0.29784 -0.478171,0.50107 -0.813324,0.51463 h -7.440628 c -0.675959,0.006 -1.18138,-0.86487 -0.8434,-1.45309 L 83.480762,101.50001 71.160046,79.400868 c -0.295342,-0.533618 0.06499,-1.308926 0.662544,-1.422825 z"
         id="Logo"
         sketch:type="MSShapeGroup" />
    </g>
  </g>
  <metadata
     id="metadata1">
    <rdf:RDF>
      <cc:Work
         rdf:about="">
        <dc:title>xamarin-logo</dc:title>
      </cc:Work>
    </rdf:RDF>
  </metadata>
</svg>
