<?xml version="1.0" encoding="UTF-8" standalone="no"?>
<!-- Created with Inkscape (http://www.inkscape.org/) -->

<svg
   version="1.1"
   id="svg1"
   width="512"
   height="512"
   viewBox="0 0 512 512"
   sodipodi:docname="512x512_docker.svg"
   xml:space="preserve"
   inkscape:version="1.4 (1:1.4+202410161351+e7c3feb100)"
   inkscape:export-filename="512x512_docker.png"
   inkscape:export-xdpi="96"
   inkscape:export-ydpi="96"
   xmlns:inkscape="http://www.inkscape.org/namespaces/inkscape"
   xmlns:sodipodi="http://sodipodi.sourceforge.net/DTD/sodipodi-0.dtd"
   xmlns="http://www.w3.org/2000/svg"
   xmlns:svg="http://www.w3.org/2000/svg"><defs
     id="defs1" /><sodipodi:namedview
     id="namedview1"
     pagecolor="#ffffff"
     bordercolor="#000000"
     borderopacity="0.25"
     inkscape:showpageshadow="2"
     inkscape:pageopacity="0.0"
     inkscape:pagecheckerboard="0"
     inkscape:deskcolor="#ffffff"
     showborder="false"
     inkscape:zoom="0.80895757"
     inkscape:cx="305.9493"
     inkscape:cy="203.34812"
     inkscape:window-width="1920"
     inkscape:window-height="1002"
     inkscape:window-x="0"
     inkscape:window-y="0"
     inkscape:window-maximized="1"
     inkscape:current-layer="g1" /><g
     inkscape:groupmode="layer"
     inkscape:label="Image"
     id="g1"><path
       id="rect4"
       style="fill:#3c474d;stroke-width:23.3629;stroke-linecap:round;stroke-linejoin:round"
       d="M 0,0 H 512 V 512 H 0 Z" /><path
       id="path3"
       d="m 243.88011,93.032261 v 20.681619 20.68162 h 45.71727 V 113.71388 93.032261 Z M 137.20646,143.10356 v 20.68162 20.68164 h 44.62878 v -20.68164 -20.68162 z m 53.33682,0 v 20.68162 20.68164 h 45.71728 v -20.68164 -20.68162 z m 53.33683,0 v 20.68162 20.68164 h 45.71727 v -20.68164 -20.68162 z m 148.03688,10.88506 c 0,0 -31.56669,38.09773 -8.70805,80.5495 -6.53104,3.2655 -17.41611,7.61954 -33.7437,7.61954 H 50.12593 c -5.442542,20.68161 -5.442542,157.83343 144.77137,157.83343 107.76215,0 188.31164,-50.07129 226.40937,-141.50583 56.60234,4.35401 68.57591,-42.45175 68.57591,-42.45175 0,0 -19.59312,-18.50463 -59.86786,-11.97358 -4.35402,-31.5667 -38.09773,-50.07131 -38.09773,-50.07131 z M 82.781131,193.17486 v 20.68162 20.68164 h 45.717279 v -20.68164 -20.68162 z m 54.425329,0 v 20.68162 20.68164 h 44.62878 v -20.68164 -20.68162 z m 53.33682,0 v 20.68162 20.68164 h 45.71728 v -20.68164 -20.68162 z m 53.33683,0 v 20.68162 20.68164 h 45.71727 v -20.68164 -20.68162 z m 54.42532,0 v 20.68162 20.68164 h 45.71727 v -20.68164 -20.68162 z"
       style="fill:#00d4aa;fill-opacity:1;stroke-width:1.08851" /></g></svg>
