<?xml version="1.0" encoding="UTF-8" standalone="no"?>
<!-- Created with Inkscape (http://www.inkscape.org/) -->

<svg
   width="512.0px"
   height="512.0px"
   viewBox="0 0 512.0 512.0"
   version="1.1"
   id="svg945"
   inkscape:version="1.2.2 (b0a8486541, 2022-12-01)"
   sodipodi:docname="512x512_fabcard_reader.svg"
   inkscape:export-filename="512x512_fabcard_reader.png"
   inkscape:export-xdpi="96"
   inkscape:export-ydpi="96"
   xmlns:inkscape="http://www.inkscape.org/namespaces/inkscape"
   xmlns:sodipodi="http://sodipodi.sourceforge.net/DTD/sodipodi-0.dtd"
   xmlns="http://www.w3.org/2000/svg"
   xmlns:svg="http://www.w3.org/2000/svg"
   xmlns:rdf="http://www.w3.org/1999/02/22-rdf-syntax-ns#"
   xmlns:cc="http://creativecommons.org/ns#"
   xmlns:dc="http://purl.org/dc/elements/1.1/">
  <defs
     id="defs939" />
  <sodipodi:namedview
     id="base"
     pagecolor="#ffffff"
     bordercolor="#666666"
     borderopacity="1.0"
     inkscape:pageopacity="0"
     inkscape:pageshadow="2"
     inkscape:zoom="1.2232558"
     inkscape:cx="28.612168"
     inkscape:cy="261.18822"
     inkscape:document-units="px"
     inkscape:current-layer="layer2"
     showgrid="false"
     inkscape:window-width="1920"
     inkscape:window-height="1008"
     inkscape:window-x="1920"
     inkscape:window-y="0"
     inkscape:window-maximized="1"
     showguides="true"
     inkscape:guide-bbox="true"
     inkscape:showpageshadow="2"
     inkscape:pagecheckerboard="0"
     inkscape:deskcolor="#ffffff"
     showborder="false" />
  <metadata
     id="metadata942">
    <rdf:RDF>
      <cc:Work
         rdf:about="">
        <dc:format>image/svg+xml</dc:format>
        <dc:type
           rdf:resource="http://purl.org/dc/dcmitype/StillImage" />
      </cc:Work>
    </rdf:RDF>
  </metadata>
  <g
     inkscape:groupmode="layer"
     id="layer5"
     inkscape:label="Background"
     transform="matrix(3.77953 0 0 3.77953 0 -668.976)"
     style="display:inline" />
  <g
     inkscape:groupmode="layer"
     id="layer4"
     inkscape:label="Out"
     style="display:inline"
     transform="matrix(3.77953 0 0 3.77953 0 -668.976)" />
  <g
     inkscape:groupmode="layer"
     id="layer2"
     inkscape:label="Card"
     style="display:inline"
     transform="matrix(3.77953 0 0 3.77953 0 -668.976)">
    <rect
       style="display:inline;fill:#3c474d;fill-opacity:1;stroke:none;stroke-width:3.66108;stroke-linecap:round;stroke-linejoin:miter;stroke-miterlimit:4;stroke-dasharray:none;stroke-opacity:1"
       id="rect1839"
       width="135.46616"
       height="135.46645"
       x="177"
       y="-135.46643"
       transform="rotate(90)" />
    <g
       id="g422"
       transform="translate(-0.84725382,21.73044)">
      <path
         style="display:inline;fill:none;fill-opacity:1;stroke:#01cda5;stroke-width:3.38666;stroke-linecap:round;stroke-linejoin:miter;stroke-miterlimit:4;stroke-dasharray:none;stroke-opacity:1"
         id="path1537-1-0"
         sodipodi:type="arc"
         sodipodi:cx="217.65182"
         sodipodi:cy="-45.381832"
         sodipodi:rx="28.222178"
         sodipodi:ry="28.222178"
         sodipodi:start="0.61086524"
         sodipodi:end="4.1015237"
         d="m 240.77008,-29.194256 a 28.222178,28.222178 0 0 1 -28.82527,11.451549 28.222178,28.222178 0 0 1 -21.93211,-21.932104 28.222178,28.222178 0 0 1 11.45155,-28.825275"
         sodipodi:open="true"
         sodipodi:arc-type="arc"
         transform="rotate(90)" />
      <path
         style="display:inline;fill:none;fill-opacity:1;stroke:#01cda5;stroke-width:3.38666;stroke-linecap:round;stroke-linejoin:miter;stroke-miterlimit:4;stroke-dasharray:none;stroke-opacity:1"
         id="path1537-33-4"
         sodipodi:type="arc"
         sodipodi:cx="217.65182"
         sodipodi:cy="-45.381832"
         sodipodi:rx="33.866615"
         sodipodi:ry="33.866615"
         sodipodi:start="0.52359878"
         sodipodi:end="4.1887902"
         d="m 246.98117,-28.448524 a 33.866615,33.866615 0 0 1 -35.21022,16.418797 33.866615,33.866615 0 0 1 -27.47123,-27.471229 33.866615,33.866615 0 0 1 16.4188,-35.210225"
         sodipodi:open="true"
         sodipodi:arc-type="arc"
         transform="rotate(90)" />
      <path
         style="display:inline;fill:none;fill-opacity:1;stroke:#01cda5;stroke-width:3.38666;stroke-linecap:round;stroke-linejoin:miter;stroke-miterlimit:4;stroke-dasharray:none;stroke-opacity:1"
         id="path1537-5"
         sodipodi:type="arc"
         sodipodi:cx="217.66252"
         sodipodi:cy="-45.392513"
         sodipodi:rx="22.577742"
         sodipodi:ry="22.577742"
         sodipodi:start="0.78539816"
         sodipodi:end="3.9269908"
         d="m 233.6274,-29.427639 a 22.577742,22.577742 0 0 1 -31.92975,0 22.577742,22.577742 0 0 1 0,-31.929748"
         sodipodi:open="true"
         sodipodi:arc-type="arc"
         transform="rotate(90)" />
      <path
         style="fill:#3c474d;fill-opacity:1;stroke:none;stroke-width:2.98684;stroke-linecap:round;stroke-linejoin:miter;stroke-miterlimit:4;stroke-dasharray:none;stroke-opacity:1"
         d="m 125.64587,201.48031 c 0,-1.98566 -1.59856,-3.58422 -3.58421,-3.58422 H 29.210377 c -1.985656,0 -3.584217,1.59856 -3.584217,3.58422 v 57.15553 c 0,1.98566 1.598561,3.58422 3.584217,3.58422 h 92.851283 c 1.98565,0 3.58421,-1.59856 3.58421,-3.58422 z m -6.77349,6.77349 v 43.60913 c 0,1.98566 -1.59856,3.58422 -3.58422,3.58422 H 35.983869 c -1.985656,0 -3.584217,-1.59856 -3.584217,-3.58422 V 208.2538 c 0,-1.98566 1.598561,-3.58422 3.584217,-3.58422 h 79.304291 c 1.98566,0 3.58422,1.59856 3.58422,3.58422 z"
         id="rect1490-8-2-3"
         inkscape:connector-curvature="0" />
      <path
         style="fill:#01cda5;fill-opacity:1;stroke:none;stroke-width:2.98684;stroke-linecap:round;stroke-linejoin:miter;stroke-miterlimit:4;stroke-dasharray:none;stroke-opacity:1"
         d="m 123.95235,203.17324 c 0,-1.98565 -1.59856,-3.58421 -3.58422,-3.58421 H 30.903312 c -1.985656,0 -3.584216,1.59856 -3.584216,3.58421 v 53.76908 c 0,1.98566 1.59856,3.58422 3.584216,3.58422 h 89.464818 c 1.98566,0 3.58422,-1.59856 3.58422,-3.58422 z m -3.38646,3.38704 v 46.99559 c 0,1.98565 -1.59856,3.58421 -3.58421,3.58421 H 34.290357 c -1.985656,0 -3.584216,-1.59856 -3.584216,-3.58421 v -46.99559 c 0,-1.98566 1.59856,-3.58422 3.584216,-3.58422 h 82.691323 c 1.98565,0 3.58421,1.59856 3.58421,3.58422 z"
         id="rect1490"
         inkscape:connector-curvature="0" />
    </g>
  </g>
</svg>
