<?xml version="1.0" encoding="UTF-8" standalone="no"?>
<!-- Created with Inkscape (http://www.inkscape.org/) -->

<svg
   version="1.1"
   id="svg1"
   width="512"
   height="512"
   viewBox="0 0 512 512"
   sodipodi:docname="512x512_relais.svg"
   inkscape:version="1.4 (1:1.4+202410161351+e7c3feb100)"
   inkscape:export-filename="512x512_relais.png"
   inkscape:export-xdpi="96"
   inkscape:export-ydpi="96"
   xmlns:inkscape="http://www.inkscape.org/namespaces/inkscape"
   xmlns:sodipodi="http://sodipodi.sourceforge.net/DTD/sodipodi-0.dtd"
   xmlns="http://www.w3.org/2000/svg"
   xmlns:svg="http://www.w3.org/2000/svg">
  <defs
     id="defs1" />
  <sodipodi:namedview
     id="namedview1"
     pagecolor="#ffffff"
     bordercolor="#000000"
     borderopacity="0.25"
     inkscape:showpageshadow="false"
     inkscape:pageopacity="0.0"
     inkscape:pagecheckerboard="0"
     inkscape:deskcolor="#ffffff"
     inkscape:zoom="1.0325521"
     inkscape:cx="176.74653"
     inkscape:cy="219.3594"
     inkscape:window-width="1920"
     inkscape:window-height="1002"
     inkscape:window-x="0"
     inkscape:window-y="0"
     inkscape:window-maximized="1"
     inkscape:current-layer="g1" />
  <g
     inkscape:groupmode="layer"
     inkscape:label="Image"
     id="g1">
    <path
       id="rect3"
       style="fill:#3c474d;stroke-width:13.3333;stroke-linecap:round;stroke-linejoin:round"
       d="M 0,0 H 512 V 512 H 0 Z" />
    <path
       id="path1"
       style="fill:#00d4aa;stroke-width:5.33333;stroke-linejoin:round;fill-opacity:1"
       d="m 305.71875,185.8125 a 6.6666667,6.6666667 0 0 0 -2.44792,0.86458 l -123.03125,73.3125 h -46.26041 c -3.22358,-20.42693 -20.98829,-36.15625 -42.291671,-36.15625 -23.571664,0 -42.833333,19.25126 -42.833333,42.82292 0,23.57166 19.261669,42.82292 42.833333,42.82292 21.303381,0 39.068091,-15.72931 42.291671,-36.15625 h 48.09375 a 6.6673333,6.6673333 0 0 0 3.41666,-0.9375 l 124.60417,-74.25 a 6.6666667,6.6666667 0 0 0 2.3125,-9.14584 6.6666667,6.6666667 0 0 0 -6.6875,-3.17708 z m 114.60417,38.02083 c -21.30338,0 -39.07687,15.72932 -42.30209,36.15625 h -42.92708 a 6.6666667,6.6666667 0 0 0 -6.66667,6.66667 6.6666667,6.6666667 0 0 0 6.66667,6.66667 h 42.92708 c 3.22522,20.42694 20.99871,36.15625 42.30209,36.15625 23.57166,0 42.82291,-19.25126 42.82291,-42.82292 0,-23.57166 -19.25125,-42.82292 -42.82291,-42.82292 z M 91.687499,237.16667 c 16.365801,0 29.489581,13.12378 29.489581,29.48958 0,16.3658 -13.12378,29.48958 -29.489581,29.48958 -16.365798,0 -29.5,-13.12378 -29.5,-29.48958 0,-16.3658 13.134202,-29.48958 29.5,-29.48958 z m 328.635421,0 c 16.36579,0 29.48958,13.12378 29.48958,29.48958 0,16.3658 -13.12379,29.48958 -29.48958,29.48958 -16.3658,0 -29.5,-13.12378 -29.5,-29.48958 0,-16.3658 13.1342,-29.48958 29.5,-29.48958 z" />
  </g>
</svg>
