<?xml version="1.0" encoding="UTF-8" standalone="no"?>
<!-- Created with Inkscape (http://www.inkscape.org/) -->

<svg
   width="512"
   height="512"
   viewBox="0 0 512 512"
   version="1.1"
   id="svg2051"
   inkscape:version="1.4 (1:1.4+202410161351+e7c3feb100)"
   sodipodi:docname="compass.svg"
   xml:space="preserve"
   inkscape:export-filename="compass.png"
   inkscape:export-xdpi="96"
   inkscape:export-ydpi="96"
   xmlns:inkscape="http://www.inkscape.org/namespaces/inkscape"
   xmlns:sodipodi="http://sodipodi.sourceforge.net/DTD/sodipodi-0.dtd"
   xmlns="http://www.w3.org/2000/svg"
   xmlns:svg="http://www.w3.org/2000/svg"><sodipodi:namedview
     id="namedview2053"
     pagecolor="#ffffff"
     bordercolor="#666666"
     borderopacity="1.0"
     inkscape:pageshadow="2"
     inkscape:pageopacity="0.0"
     inkscape:pagecheckerboard="false"
     inkscape:document-units="px"
     showgrid="false"
     inkscape:showpageshadow="false"
     inkscape:snap-tangential="true"
     inkscape:snap-perpendicular="true"
     inkscape:deskcolor="#ffffff"
     inkscape:lockguides="true"
     inkscape:zoom="0.33352982"
     inkscape:cx="-37.477908"
     inkscape:cy="-166.40191"
     inkscape:window-width="1920"
     inkscape:window-height="1002"
     inkscape:window-x="0"
     inkscape:window-y="0"
     inkscape:window-maximized="1"
     inkscape:current-layer="layer1" /><defs
     id="defs2048" /><g
     inkscape:label="Layer 1"
     inkscape:groupmode="layer"
     id="layer1"><path
       id="rect9"
       style="fill:#3c474d;stroke-linecap:round;stroke-linejoin:round;stroke-width:11.3119821088"
       d="M -0.00405076 0.000427033 L 511.996 0.000427033 L 511.996 0.000427033 L 511.996 512 L 511.996 512 L -0.00405076 512 L -0.00405076 512 L -0.00405076 0.000427033 Z" /><path
       id="path1"
       style="fill:#00d4aa;fill-opacity:1;stroke-width:6.9622344177"
       d="M 256.015 49.8044 C 198.293 49.8044 138.036 77.172 100.991 120.213 C 11.9447 223.675 43.1538 380.147 164.831 440.285 C 240.663 477.763 327.314 466.611 391.847 411.069 C 425.332 382.249 451.613 335.702 458.573 292.887 C 459.808 285.288 461.062 277.828 461.36 276.309 C 462.667 269.637 462.099 241.119 460.423 229.334 C 450.483 159.417 409.722 102.707 347.199 71.8055 C 317.114 56.9366 287.552 49.8044 256.015 49.8044 Z M 257.114 79.2783 C 302.632 79.4158 346.382 97.4195 380.511 131.549 C 407.57 158.607 423.713 189.36 430.107 226.027 C 440.04 282.99 422.068 338.985 380.511 380.541 C 330.869 430.184 260.871 445.71 194.684 421.761 C 148.456 405.034 107.026 363.603 90.2992 317.375 C 75.7341 277.123 75.7341 234.967 90.2992 194.715 C 107.026 148.487 148.456 107.056 194.684 90.3291 C 215.367 82.8449 236.424 79.2158 257.114 79.2783 Z M 255.895 108.969 C 169.85 108.512 98.9982 185.542 110.084 273.317 C 118.738 341.834 170.225 393.322 238.742 401.976 C 315.007 411.608 386.467 358.99 400.651 282.756 C 416.195 199.206 358.4 120.864 273.287 110.114 C 267.435 109.375 261.632 109 255.895 108.969 Z M 167.572 167.603 L 226.527 197.091 L 282.181 224.928 L 263.457 243.653 C 261.136 242.173 258.537 241.308 256.015 241.308 C 252.426 241.308 248.65 242.98 245.8 245.83 C 242.95 248.68 241.278 252.457 241.278 256.046 C 241.278 258.568 242.143 261.166 243.623 263.487 L 224.898 282.211 L 197.061 226.557 Z M 287.131 229.878 L 314.969 285.534 L 344.457 344.487 L 285.504 314.999 L 229.85 287.163 L 248.573 268.438 C 250.894 269.917 253.493 270.782 256.015 270.782 C 259.604 270.782 263.38 269.11 266.23 266.26 C 269.08 263.41 270.752 259.635 270.752 256.046 C 270.752 253.524 269.887 250.924 268.408 248.603 Z" /></g></svg>
