<?xml version="1.0" encoding="UTF-8" standalone="no"?>
<svg
   viewBox="0 0 512 512"
   version="1.1"
   id="svg1"
   sodipodi:docname="512x512-doorlock.svg"
   xml:space="preserve"
   width="512"
   height="512"
   inkscape:version="1.4 (1:1.4+202410161351+e7c3feb100)"
   inkscape:export-filename="512x512-doorlock.png"
   inkscape:export-xdpi="96"
   inkscape:export-ydpi="96"
   xmlns:inkscape="http://www.inkscape.org/namespaces/inkscape"
   xmlns:sodipodi="http://sodipodi.sourceforge.net/DTD/sodipodi-0.dtd"
   xmlns="http://www.w3.org/2000/svg"
   xmlns:svg="http://www.w3.org/2000/svg"><sodipodi:namedview
     id="namedview1"
     pagecolor="#ffffff"
     bordercolor="#000000"
     borderopacity="0.25"
     inkscape:showpageshadow="2"
     inkscape:pageopacity="0.0"
     inkscape:pagecheckerboard="0"
     inkscape:deskcolor="#d1d1d1"
     inkscape:zoom="0.485589"
     inkscape:cx="118.4129"
     inkscape:cy="365.53546"
     inkscape:window-width="1920"
     inkscape:window-height="1008"
     inkscape:window-x="0"
     inkscape:window-y="0"
     inkscape:window-maximized="1"
     inkscape:current-layer="svg1" /><defs
     id="defs1"><style
       id="style1">
      .cls-1 {
        fill: #00d4aa;
      }

      .cls-2 {
        fill: #3c474d;
      }
    </style></defs><path
     id="rect1-5"
     style="fill:#3c474d;stroke-width:13.4033;stroke-linecap:round;stroke-linejoin:round"
     d="M 0,0 H 512 V 512 H 0 Z" /><path
     style="fill:#00d4aa;fill-opacity:1;stroke-width:0"
     inkscape:connector-curvature="0"
     id="path4486"
     d="m 34.126598,34.130513 c 0,0 0,0 0,0 0,0 0,0 0,0 0,0 0,0 0,0 z m 0,0 c 0,0 0,0 0,0 v 0 z m 0,0 v 0 0 0 z m 0,0 v 0 c 0,0 0,0 0,0 0,0 0,0 0,0 0,0 0,0 0,0 0,0 0,0 0,0 0,0 0,0 0,0 0,0 0,0 0,0 0,0 0,0 0,0 0,0 0,0 0,0 0,0 0,0 0,0 0,0 0,0 0,0 0,0 0,0 0,0 0,0 0,0 0,0 0,0 0,0 0,0 0,0 0,0 0,0 0,0 0,0 0,0 0,0 0,0 0,0 v 0 z" /><path
     style="fill:#00d4aa;fill-opacity:1;stroke-width:0.36224"
     d="M 89.587501,477.65723 C 81.181725,476.42202 71.696274,471.4524 65.991325,465.29467 60.160188,459.00071 56.284947,451.18789 54.950564,443.03571 54.497394,440.26671 54.477426,71.84223 54.933924,69.08665 56.632285,58.75477 62.00465,49.53207 70.174743,42.92349 73.972163,39.85176 80.541796,36.52914 85.575477,35.13424 L 89.197342,34.1305 H 281.5469 l 3.60145,1.00607 c 7.29493,2.03793 13.54939,5.66673 18.86923,10.94785 4.71824,4.68385 8.12228,10.10153 10.13082,16.12348 3.49717,16.32637 2.21787,33.64861 2.39204,50.34757 l -69.40633,-0.0166 -3.07906,-3.1236 c -12.13753,-12.31308 -29.1644,-20.84244 -46.84901,-23.46838 -19.98169,-2.96696 -41.23225,1.887 -58.20061,13.29396 -8.68267,5.83696 -17.29051,14.51653 -23.0826,23.27491 -6.79849,10.28036 -10.84834,20.88037 -13.00975,34.05059 -0.98799,6.02056 -0.90068,18.30917 0.17472,24.61106 1.24791,7.31146 2.4018,11.54502 4.82174,17.69138 7.61842,19.34947 22.13505,35.01439 41.05731,44.30527 12.41497,6.09582 25.20751,8.83548 39.11555,8.37709 16.9617,-0.55905 33.18857,-6.18491 46.73536,-16.20318 3.91906,-2.89823 9.94633,-8.22728 11.03588,-9.75741 l 0.78614,-1.10425 h 69.87642 l -0.87573,219.87079 c -0.0649,16.29531 -14.52895,27.84926 -30.29033,32.49755 l -3.44126,1.01485 -192.318828,-0.21355 z M 189.91533,405.26974 c 2.69367,-0.94678 5.23015,-2.88016 6.83449,-5.20979 2.42382,-3.5192 2.39448,-3.20026 2.39392,-26.01257 l -2.7e-4,-20.54551 1.89732,-1.15517 c 7.0862,-4.31421 12.22178,-10.90193 14.4037,-18.47658 1.10109,-3.82254 1.36645,-10.47604 0.57376,-14.388 -2.74559,-13.55012 -13.86439,-23.68321 -27.47397,-25.03817 -15.04923,-1.4984 -28.85283,7.78465 -33.06088,22.23384 -1.14823,3.94297 -1.54777,9.65596 -0.94456,13.50801 1.43112,9.13923 7.32399,17.76315 15.16372,22.19135 l 1.90176,1.07419 v 20.58007 c 0,18.16246 0.0704,20.78974 0.59772,22.36524 1.37427,4.10454 4.72123,7.56904 8.61156,8.91391 2.51485,0.86934 6.56392,0.85121 9.1019,-0.0388 z m -3.56634,-181.35423 c -0.0388,-0.0333 -2.19325,-0.16085 -4.78319,-0.28898 -4.77853,-0.23629 -9.32016,-1.055 -13.58401,-2.44912 -2.90483,-0.94977 -9.29919,-3.92133 -11.75607,-5.46322 -8.09271,-5.07883 -16.21133,-13.86367 -20.25642,-21.91878 -4.19323,-8.35003 -6.02277,-16.1344 -6.02277,-25.62629 0,-19.91074 10.5395,-37.97763 28.07373,-48.12409 15.2568,-8.82861 35.20831,-9.49327 51.38215,-1.71173 9.35682,4.5018 16.54525,10.98368 23.61565,21.2946 l 0.55545,0.81 100.78016,0.0998 100.78017,0.0998 2.17344,0.76695 c 7.01121,2.47402 11.75718,5.97358 15.39657,11.35299 3.2245,4.76627 4.69517,9.7041 4.69517,15.76432 0,9.02041 -3.51615,16.32887 -10.60518,22.04314 -4.69749,3.78649 -10.06076,5.6294 -17.0936,5.87363 -2.39076,0.0832 -47.55483,0.15253 -100.36455,0.15364 l -96.01766,0.003 -1.44627,2.26397 c -8.89133,13.91847 -25.08204,23.51458 -41.90035,24.83415 -1.95163,0.15309 -3.58171,0.25294 -3.62242,0.22243 z"
     id="path1"
     sodipodi:nodetypes="csscssccsssccsssssssssscccsscccsccssssssscsssccssssssssscccsssssscsssss" /></svg>
