<?xml version="1.0" encoding="UTF-8" standalone="no"?>
<!-- Created with Inkscape (http://www.inkscape.org/) -->

<svg
   version="1.1"
   id="svg1"
   width="512"
   height="512"
   viewBox="0 0 512 512"
   sodipodi:docname="512x512_prometheus.svg"
   inkscape:version="1.4 (1:1.4+202410161351+e7c3feb100)"
   inkscape:export-filename="512x512_prometheus.png"
   inkscape:export-xdpi="96"
   inkscape:export-ydpi="96"
   xmlns:inkscape="http://www.inkscape.org/namespaces/inkscape"
   xmlns:sodipodi="http://sodipodi.sourceforge.net/DTD/sodipodi-0.dtd"
   xmlns="http://www.w3.org/2000/svg"
   xmlns:svg="http://www.w3.org/2000/svg">
  <defs
     id="defs1" />
  <sodipodi:namedview
     id="namedview1"
     pagecolor="#ffffff"
     bordercolor="#000000"
     borderopacity="0.25"
     inkscape:showpageshadow="false"
     inkscape:pageopacity="0.0"
     inkscape:pagecheckerboard="0"
     inkscape:deskcolor="#ffffff"
     inkscape:zoom="0.95182293"
     inkscape:cx="226.40766"
     inkscape:cy="247.41997"
     inkscape:window-width="1920"
     inkscape:window-height="1002"
     inkscape:window-x="0"
     inkscape:window-y="0"
     inkscape:window-maximized="1"
     inkscape:current-layer="g1" />
  <g
     inkscape:groupmode="layer"
     inkscape:label="Image"
     id="g1">
    <path
       id="rect1"
       style="fill:#3c474d;stroke-width:13.4033;stroke-linecap:round;stroke-linejoin:round"
       d="M 0,0 H 512 V 512 H 0 Z" />
    <path
       style="fill:#00d4aa;fill-opacity:1;stroke-width:3.91542"
       inkscape:connector-curvature="0"
       id="path4486"
       d="m 256.00196,34.130513 c -122.53321,0 -221.875362,99.330407 -221.875362,221.867537 0,122.53321 99.342152,221.87144 221.875362,221.87144 122.53321,0 221.87144,-99.33823 221.87144,-221.87144 0,-122.53713 -99.34215,-221.867538 -221.87144,-221.867537 z m 0,415.250347 c -34.86294,0 -63.12839,-23.28894 -63.12839,-52.00858 h 126.25678 c 0,28.71572 -28.26545,52.00858 -63.12839,52.00858 z M 360.26971,380.14833 H 151.72246 v -37.81517 h 208.55117 v 37.81517 z m -0.74784,-57.27875 H 152.3176 c -0.68911,-0.79483 -1.39389,-1.57791 -2.05951,-2.38449 -21.3469,-25.92011 -26.3743,-39.45182 -31.25684,-53.24195 -0.0822,-0.45418 25.88487,5.30541 44.29912,9.44792 0,0 9.47533,2.19264 23.32809,4.71809 -13.30069,-15.59122 -21.1981,-35.4111 -21.1981,-55.6695 0,-44.47531 34.11118,-83.33982 21.80499,-114.75327 11.97729,0.97495 24.78856,25.27799 25.65387,63.27718 12.73296,-17.59592 18.06185,-49.72981 18.06185,-69.43222 0,-20.399371 13.44166,-44.09552 26.88722,-44.906011 -11.98511,19.753318 3.10493,36.687531 16.51918,78.696121 5.03132,15.77916 4.38919,42.33357 8.27329,59.17381 1.28817,-34.97649 7.30227,-86.01013 29.49098,-103.629541 -9.78856,22.188711 1.4487,49.952991 9.13468,63.300671 12.40015,21.53483 19.91777,37.85041 19.91777,68.70787 0,20.6891 -7.639,40.16834 -20.52466,55.39542 14.65152,-2.74863 24.76898,-5.22709 24.76898,-5.22709 l 47.58024,-9.28347 c 0.004,-0.004 -6.91073,28.4299 -33.47688,55.81046 z" />
  </g>
</svg>
