<?xml version="1.0" encoding="UTF-8" standalone="no"?>
<!-- Created with Inkscape (http://www.inkscape.org/) -->

<svg
   width="265"
   height="140"
   viewBox="0 0 265 140"
   version="1.1"
   id="svg2051"
   inkscape:version="1.3.2 (1:1.3.2+202404261509+091e20ef0f)"
   sodipodi:docname="makerspace-guetersloh.svg"
   inkscape:export-filename="makerspace-guetersloh.png"
   inkscape:export-xdpi="96"
   inkscape:export-ydpi="96"
   xmlns:inkscape="http://www.inkscape.org/namespaces/inkscape"
   xmlns:sodipodi="http://sodipodi.sourceforge.net/DTD/sodipodi-0.dtd"
   xmlns:xlink="http://www.w3.org/1999/xlink"
   xmlns="http://www.w3.org/2000/svg"
   xmlns:svg="http://www.w3.org/2000/svg"
   xmlns:rdf="http://www.w3.org/1999/02/22-rdf-syntax-ns#"
   xmlns:cc="http://creativecommons.org/ns#">
  <sodipodi:namedview
     id="namedview2053"
     pagecolor="#ffffff"
     bordercolor="#666666"
     borderopacity="1.0"
     inkscape:pageshadow="2"
     inkscape:pageopacity="0.0"
     inkscape:pagecheckerboard="false"
     inkscape:document-units="px"
     showgrid="false"
     inkscape:showpageshadow="false"
     inkscape:snap-tangential="true"
     inkscape:snap-perpendicular="true"
     inkscape:deskcolor="#ffffff"
     inkscape:lockguides="true"
     inkscape:zoom="0.91573428"
     inkscape:cx="75.349369"
     inkscape:cy="244.61244"
     inkscape:window-width="1920"
     inkscape:window-height="1012"
     inkscape:window-x="0"
     inkscape:window-y="0"
     inkscape:window-maximized="1"
     inkscape:current-layer="layer1"
     inkscape:export-bgcolor="#ffffffff" />
  <defs
     id="defs2048" />
  <g
     inkscape:label="Layer 1"
     inkscape:groupmode="layer"
     id="layer1">
    <image
       width="88.105721"
       height="80"
       preserveAspectRatio="none"
       xlink:href="data:image/png;base64,iVBORw0KGgoAAAANSUhEUgAAAPoAAADjCAYAAACsNQluAABlnklEQVR42u2dd3QUVRvGfzOzJZve&#10;KyEhhN57kV4UpKmo2LvYsVKsCOinFMGKigV7FxAVpSsdkRI6ARJCQnrvye7OfH/MErObDQTIhpR9&#10;zskRZ3Z3Zu7c577lvkXAiQYJs6xIQDegDdDC8ucNaAB3y5834AUYAC0gWL6uAOWV/syAEcgHSi3/&#10;Lbb8Oxk4DSQAGyRRKHCOfsOD4ByCBkv0AOBXC9m1Dn6XMpAFjJNEYadz9BseROcQNFgYgGBAVwcL&#10;tgj4AJHOYXcS3Ym6hRugr8PraYCWzmFvmNA4h6DBIhTwrHygvLyc0tJSysvLKC83UlxcTHFREcXF&#10;xZSWlmKWZQAkSUKv0+FicEGj0SAIAhqNBoPBgF7vgl6vw8XFgMHgYqsshDmH3Ul0J+oWkYBL5QOf&#10;fPwRq/5YRUlJCWWlZZSUllBaUorRZMRsNld8ThAERFFEEiVESUQQBCRJwsXFBb1ej8FgoEP7Dsye&#10;PQc3d3crc8EsK4IkCopz+J1Ed6Ju0KKy6aUoCidPnmT//v218uOFhYXk5eXZEj3IYi6UOoffaaM7&#10;4WCYZQXAv/Ixo9FIdk52rV0jNzeXjMwM28NhqNt2TjiJ3qQIpzXLSnOzrOjr+NKSLeGKiopISU6p&#10;tQsUFxfb+71A2wWmDsZYMstKW7Os+FoWOCecRK8baWoheA9gAbAGuMksK3U5lgagmbUEziErO6v2&#10;ntNstqcheAIhday59AaWAz8Bk8yy4uUkvNNGd/TE0wFdgHuBcZZJLwAzgWNmWdkhiXUSg+RlS7i0&#10;1DTy8/Nr9SLFxcXnXWAcjEBgFtDW8tcH2AIsNsvKX0BeHY23k+hNhOB61Ai0W4EbgQCs950iLRPy&#10;NiCjDm4pAPCrfCAlNYXS0tr1kSUlJaEoCoIgVNYAXevKLAIeBIZUOuwKXAlcAawHPjXLykYg30l4&#10;p+p+KZNNY5aVXsA7wC/AoxYpYzurBGAYMKWO7PVm9mx02bJPXls4dSoeo9FoezjI0aqzWVYEYBTw&#10;GGp4ry3cgPHA18APwHizrDidhE6iX/BEk8yy0h54w0Lw+ywEP5929ChwnWWiOlql1VnZ6Dk5lSVv&#10;rSAlJZWiokLbw9GozkBHopVFQzqf488NuMpC+C/NsjLSLCuuzhnsJPp5JYlZViKAF4DfLMQNsSPB&#10;KSwsICsz0/awt2WC9nCw1HOtfE+yLHPq1Klav0h+fh7FxSW2hyMstrqj3oEPMNviC6lAaWkJOdnZ&#10;1Wkt7sA1Fun+oVlWeptlxWmWOolud4J5AncAK4EXsQlIOYu83Fx+/+03Jk++n2nTp5KWmmpPGr2O&#10;g7zTFm0hovKxsrIyEhMTa/9aZjNGY7nt4WDAw0HPprOo69dVHnuj0cj7ixdz2223smTJhyQmnkZR&#10;7C6k3hY/yTJgtllWIupAu2oQ0DgJrkhAD2CGxS60K62KiorYuGE9X3/zNbt376asrAxRFHnzrTeZ&#10;+dJMXAxWXxsMPGWWleclUSh3wDuLstIuCgpIT0+v9bEpLi4mJyeHyMgWlQ+72JoNtbiAjQUer2yX&#10;K4rC6tV/8umnn5JfkM/hI4f54Yfvueaaa7nxxhsJCgq2Z7KEAdOA0cAbZllZBhQ3ZYed2IQJjllW&#10;/IFngB8tql8VkpeWlvL333/xyCMPMXXaVLZt20ZZWVmFyrxixXJ+X/W7rYTRoG7BTXDA/robNltc&#10;ZeVqXLsjiJ6UlGR7WI9jouNaoW5T+lY+eOzYMd58cxH5BfkVY37y5EkWLVrIXXfdyVdffkFWVqa9&#10;35OArsBi4EOgSx3HOjiJXg9IrgUGAd9Z7MHmtna4yWRi7969TJ82lYcffoiNGzfa21emuLiYN99c&#10;xP79MbanfIBXgE61bK+7Y7O1VlZWhslkqvVxMplM9mx/T9TMudp8H94Wkne0NZMWLJjHiRMnqnxH&#10;lmWOHDnCy7Ne5v777mPlyl8oKiy09/MeqNuiPwMPN9WAG00TI/hZG3My6h5tFTtaURQSEk7xzTdf&#10;s2zZMjIyzr8tnpiYyOuvv8bbb79LQECArZSaDdyDWqGlNqC1VZ0zMjIoKiqq9fESBIHU1BR7Er1F&#10;LS+6DwITbe3ypZ8t5a+//qrOHq9YjHbv2c2Ro0cYNHAQ99xzL9179ECrtdqVE1Bz6edbzKr/mWUl&#10;RhIFuanMfbEJkVyPGs32A6qzrQrJCwoK+Pbbb7jv3ntZsmRJjUh+dnHYuXMnHy35sEKtrzTBRgNP&#10;WxxNtQFvbIJWEk+fpqSkxCHjVlJSYks0kVoqQGFZeIcBT1KpiIaiKKxft5ZPPvnY3j5+tWbGn6v/&#10;5IEHJ/Pa/14lMTHR3gLhYllQfgYesWgSTqI3EoILZlmJAuYBXwADbTUZs9lMTMw+nnn6KWbOfInj&#10;J46fU4rYvY7ZzFdff8Vvv660/a4WeBi4sZZsxCoZZKcSEmo9WOYsMjMzKS+v4k/0riX1tx3wGjYx&#10;CidOHGfhwoUXFdKbk5PD0s+Wcu89d7N8+TJ75pZg0Ujmo+6997E4ZJ1Eb+DojJoQ8ahFGlohLy+P&#10;pUs/4YEHJvPn6j/tTeoao6ioiEWLFrFv317bU17Ay6je/QuWemZZ0Vm2ikahbj1ZaQdZWVm1Hixz&#10;FikpKRRWtX07ATeYZaW9WVbcL2YLyyJNZ1scZhXIzc1h/vx5xB6Pveh7lmWZY7HHeP7553h2xnSO&#10;Hjlib+HWA2NQHbHXN3a7vSnY6KUWgou2Enj//hjeffcd/vrrr1pzZiUmJTJ//nzefPMtAgOtBFVL&#10;4GWzrNwhiULWuTQQiwMp0LJIXYG6ndbRIs0NtpO6tLTEYYOXnZ1NTk42fn5W/r9+QE8gEzgGxJpl&#10;JQbYhloeOksSBfM5nlFjscvHUckJajQaWbp0KevWrbtgjao6dX7FLyuI2R/Do48+xtix43BxcbGV&#10;7sHUUfy+k+iORRywFri/8qQ6eOAAjzz8MGeSz9T6BXfs2M6HH7zPtOkz0OutQt9HAo+bZeWVs/vr&#10;FkmiRU1U6WmRcMMsC0MA5ykAWV5eTmZmlsMGr6ioiNzcXHuntBY/Rwhq4okZyLEQfbNZVnYC/6LW&#10;gy85W37KspBdCTxla5dv2LCezz//zKrsVW0gPj6eF198gazMTCY/8KCt9nMMWNvY99gbPdElUTCa&#10;ZeVrYJJFhVaNTB8fW89s7fkFzGa++/47OnXuzPjxExBFsTI5HgMOmmVlBWqEWzfUPfwuFsntckFE&#10;LCy05xmvNciyXFOHmIQam+5v0UQetJD+KLDKLCtbLP8OtqjsAdZ2+QnmzZtLTk6OQ57DZDIRHh5u&#10;S3IZWGG5TyfRGwF2A5tRI68ACA8PZ9jwYXz66acOuWBhYSELFswnKiqKzp2twra9UUNkb7RI8BAu&#10;MNKsrKyMvLw8yspKOXrkKJmZmQ4lemxsLKGhoej1Lnh6emIwGGriE5CAcMvfMCDPIuFdgO5WfpLc&#10;XN54Yz4nT5502HO0a9eO3n362h5OA35qCttsTSIm0KIe3w4sqSwxY/bt48677nCYFAEYPHgwixa9&#10;ZWvj1hhGo5Hi4iISEk4TG3uMpKQk9u3by6lTpygtKaWouIiCgoJasWmrg5ubG+7u7uj1LoSGhNCp&#10;c2ciIyOJjIykdavWeHp5odfrL8ohaDQaee+9d3n33XdqvJV2oRBFkWeefoZHHn3M9tTnwP2SKBid&#10;RG88ZA8BVqN6jFUvXUkJjz8+hT9X/+k4lUmj4b777uOZZ6bVyFRQFIW8vFzSUtPYtesf/t70N8nJ&#10;ySQlJZGXl+dQQl8oDAYDYWFhBAYG0bNnDwYPHkJ4eHP8/PzQaGqmLG7csIEnnny8Oj9ArSA0JJRv&#10;vv2WFi2sUgTygRskUVjTFOZ/U4qMS0PdSul4doFzMRgYN248GzZuuKRttfPZhl9//TXt2rZjwoRr&#10;EETR7meysjLZu3cv+2Ni2LR5E8nJyeTk5Dhsf7w2UFJSwokTJzhx4gTbtm1l6dKl+Pv707tXb3r2&#10;7Em37t0JD29u6+muwPHjx5m/YJ5DSQ4wbNgwmjULtz28F9jVVCZ/k0rnMctKJ9TGhBVpnvl5edx3&#10;/33s3LnDodeOjIzk3Xffo1OnzhW2b2pqKgcPHuD333/n4MEDJCQkOEx9rfOJJQgEBQXRulVrRo0a&#10;Rc9evYhqEYVWp6sY92eeeZrVa1Y79D48PTxZ8tFH9OvX32ptBR4BljSVjLamlqZ6GPgdeOjsIufp&#10;5cXYsWPZvftfhySGnMWpU6d4/bXXmPPKKyQnJ7Nq1Sp27tzB6dOnHaZNXE4oikJqaiqpqals3bYV&#10;X19fevXsxciRI+ndpw8//vgjGzZucPh9DBg4gO7dq8QpHQB+b0ppq00uQdcsK/1Ri0tUeMeSk89w&#10;6y23EBcf59BrS5JESEgIubm59qLNmgR0Oh2BgYHk5OQ4JBHH1ofw5ptvMWrUaKspgLq9N6cptZZq&#10;immqMahbbRUIDg5hzNixjl9kzGaSkpKaLMlBDfBJSkpyOMkB2rZpS5+qW2pngB+aWv+4pkj0IuB7&#10;oCLNTBRFRo4YedFbYE7UTx/B+PET8PH2tj21BjVaEifRGzEsdtl6i5323+rfrh29evV2MqSR4GxA&#10;FNZ7+/kWaV7uJHrTQBZqRltFULVer+eGG26odivIiYYlzYcOGUp41S21XcCOpjgmTZLolpDHXy32&#10;WgV69uxFp46dnExp4PD08GTCNdcgWQftlKPWIyh0Er1p4RiwqvIBb29vxowZU+OoLifqJ/r260eH&#10;Dh1tDx8B1jc1J1yTJ7olX/obwKpl6IiRVxIaGupkSwOFi4sL48ePtzXBZNSOO8lNdVyaegOHGOCf&#10;ygdCQ0O56qqrnIxpoIiKiqJv1S21VNQsNcVJ9KaJfOBboCLuVJIkRo++Gl9fXydrGhgEQWDChGvw&#10;86/Ssm0tENuUx6ZJE92y1bYGNcGhAp07d2Hw4MFO5jQwREREcOWVV9mmyxYDP0uiUOYkehOFpXZZ&#10;XyCo8nGtVsuECdfg5ubmZE8DwvDhw4mMjKyyngM9m3pbZbGeEE6wdNCQ6vCaOuBu4ANsmhYqioK3&#10;tzcGg8HJngYCjUZDs7Bm9urN6VH7sL1macFVV/MLs6x41JeurvVFokcCXwHPm2Wls6V7h6NJfi8w&#10;11aay2YzmzdvYsaM6WRlZTkZ1EBgMpl48603+fyzpfaaWbig1rBbaJaVoDoQWuHAnajNQq6sD6Wk&#10;L3v2mllWXFCbKzxsuZ9U1Eow36F6xHNrM53Qcr1HUHuge1c+V15ezrKff2LBGwtq3KXFifoFg8HA&#10;zTffwpTHpuBT1aFqApYDT0uikOiAedwauBm1NmFr1FqA/wI3SqIQ32SJbin9eyNqLTdPm9P5qEUd&#10;vwf+AM6cq1Z4Da/nitr+ZwY23U6Ki4v57LOlLF78HgUFBU7GNHA1fsSIkbzwwguEhzevMg1QaxI8&#10;AcRfihCxzF8vYABwA2o57yAbTVkG3geekUShtKkSvTVqzPm54k5NwHHUgIcfgYMXk5RgIfl01DbJ&#10;VgX7C/Lzeefdt/n8888pLS11MqURQBAEevfuzezZr9C2bVvb0wqwDnhYEoUTF0nwCNT69LeiduA5&#10;l+c2H7XYybeXay9fuIwkdwfeBe6o4X3IQAZq5tn3wFYguyYDZ5YVg4XkU21JnpmZybx5c1m27OcG&#10;X8ZJEARcXFxwd3dHo9Gg0+pwd3fHy8sLVzc33Nxc0Ugay5jIlJQUU1RURH5+PgUFBZSVlWE2mykq&#10;KqK4uBiz2eywVk91NR7t27dn1qzZ9OzZy15N93UW271Gkt0yj9qh9ggYi9ott6b+pIPA9ZIoHGsy&#10;RLesiHdaiO5W2aFSUlKMh4fn+X6iEDWq7RvgNyCxOsJbHG9TUPtvW6nr6WlpzJr1Mn/8+Uetdwep&#10;C7i5udGsWTNatWqFr68f0S1bEh3diuCQYPR6PVqtFhcXAy56PaIkIUlSRdamoqh168xmM+Xl5ZSW&#10;lFBeXo7RZCQzM5P4uHhijx8jMyOTUwmniIuLq3dVaGuKFi1a8L//vU7//v3tCY/fgAckUUitZv6A&#10;2iJrKHATao36wHNxp7S0FAHQVw3D/Rp4SBKFoqZC9PYWNbx95eMbN27gww8/YOCAgVx99RjCmzc/&#10;X4KJGTiE2m3jJ+B4ZTvIsrVxK7AI8Kn8xYz0dF5+eSar/lhVryutVpZOnp6eBAUF0bt3b9q370B0&#10;dDQtW7bEx8cXSXLMzqSiyBQUFHL6dALHjh3j5MmTbN+2jcSkRLKzsxvMAhkdHc28ufPp3qOHrWQ3&#10;A59ZbOjcSnNHRG2uMdLiRxrMOXq0KYpCVlYmmzdv5tdfV9KxYycee2yKbYnvYlRH8Bd13TRCuAwk&#10;dwPes1XZT58+zWOPPsK+mH2IokhwcDAjRoxk9OjRdO3aDVdX1/Op9amooY7foTb7K7SoV+8DVlkq&#10;WZmZzJz5Er+v+r1ek1wURby8vOjatSvdu3Vn8JAhhIU1w8fHx2HEPj/xFQoKCkhPT2PHjh3s3LGD&#10;PXv2kJqW6tDimrWBNm3aMG/ufLp07WpL9nJgITDH4hNqB1wLXA9Ec47+d0ajkVPx8azfsJ6VK3/h&#10;xIkTlJWV4enpyfx5C7hq1Cjbax0BrpNE4WijJbpFDboJ+Liyyl5aWsqsWS/z7bffVFENPTw86Nat&#10;GzdcfwN9+/UnICDgfHZjAeqWxt+WxcSqan9eXi6zZ89i+fLl9VYaubm50b59e0aPvpq+ffrSMrol&#10;Li4XFrxztmdaaWkppaWllJWVUV5ehsloQlZkNBotOp0WvU6Pi8EFFxcXdDr9BS8gZpOJxKRE9u3b&#10;x8pffiFmf4xDW0RdKtq3b8+8eQvo1KmK/7fYIoCCgOEW4VDtRCsuLmb//hiW/fwzm7dsJiUlpcrc&#10;bdeuHR9+uISIiEhbofQR8ERdeuHrmujNgWXY9An/7bdfmTZt6jkLBup0Olq3as2VV13J1VePISIi&#10;Ep3unC3LFNvnKygo4I0F8/nyqy/rnfQ5q8UMHz6cq64aRbdu3XBzcz+vM6y0tJScnBwK8vM5lXCK&#10;o0eOkJySQmlpCdnZ2WRlZVFYWEhZWRlGoxGz2YyiKEiSpDrsdHrcXF3x8fXB398fN1c3fHx8aNO2&#10;LdEto/Hx9cXLyxN3d4/z3ktZWSmxsbGsX7eO31f9Tnx8fL1zcAqCQOdOnZm/YAFt2rS1ZwqK1fFC&#10;URQyMjLYunULK1f+wj///HPOQp+iKHL7bbfzwgsvorPuqpuL2iLs97rywgt1SHIN8DLqHnaF2Dhz&#10;JonJk+/n4MGDNSZEQEAAQ4cMZdz48XTr1r1GMeklxcUsWrSQT5d+Wq8mnyRJREVFMX78BMaNG0d4&#10;eDgajbZatbmsrIy0tFQOHjxIfFwc/+z6h/j4+ArveXl5+SV7ys8uBB4eHri5uREUFETPnr1o3bo1&#10;7du1JzIyElc3t8pdYqt8Pz09nY0b1vPzsp+JiYmhrKx+5ZT07duXhW8sIqxZs/N+1mQycvLkSdau&#10;WcOvv/5K/Kn4Gj+Ph4cHixa+ycgrr7Q9tRnVC5/e2IjeE3UvPLSy2jdv3lyWfLTkomxld3d3unbp&#10;yk0330z//v3x9fWzO8lNJhOffvoJCxbMrzcTThRFwkLDuPW2Wxk/fgKhoWHVErSosJCkM0ls3LCB&#10;TZs2kXA6gZSUlDo3PQRBwMfHh4iICLp17cbVV48hqmVLfH19EAT7pM/NzWHz5s188snHHDp0qN40&#10;qxBFkbFjxvLq//6Hp6dXNep5EUePHuXbb75h85bNpKakonDhArhXr158+OES/PysQu2NqD3iF9eF&#10;Y06oI5IbLPbPXZWvuWf3biY/cP8lh5u6uLgQ3TKa8RMmMGLECCIiIiu89YqisHr1nzw7YwbZOdn1&#10;QnUMDAzkumuv48YbJxERGWnXLi4vL+dUfDxbtm5h3bq1HDt2jOzs7HrlPPTw8KBZs2YMHz6CgQMH&#10;0qlTZ9zcXKtMK0VRyMnO5s/Vf/LVV19y5MiRevEcWq2WByY/wJTHn0BvUa0VRSEnJ4ctWzazYsUK&#10;du/+95J7w2k0GqZOncbkyQ/YakFHgPEXE7RTX4k+CrXAg3eFlCoq4umnnuSPP/+oVRKFhYUxePAQ&#10;rr32Wjp06Eh8XByPPPow8fHxl31iubq6MmL4CCY/8ADt23ewS/C8vDx27/6XZct+ZteuXaSlpTWI&#10;vWsPDw86duzItddcy4CBgwgNDbWroaQkJ/P9D9/z7bffkJqaWi/eyQsvvMgNN9xI4unTbNiwnpW/&#10;ruTokaOUG2tP+wgPD+fTT5fSunUbW5/AQuDZSw3vvuxEN8uKN2pgi1VfnJUrf2H6tGkUlxQ7RGq6&#10;u7vTvXsPsrIya2z/O1JNbNu2LQ899DAjR47EYHC16+RZu2Y1v6z8hZiYmAYbiqvRaGjRogVXXXkV&#10;1153HS0iW9hWY8VsNnPo4EE++PADNmxYby/brE7h5+dHn959iNkfQ2pKCmYHaBuCIHDLzbfw8qzZ&#10;tk7kFGCiJArbGyzRK0XAfUClvcj0tDQefPABdu/ZTWOHp6cnN944ibvvvoewMGs7XFEUsrOz+GPV&#10;Kr759htiY2MbVTfV0JAQJky4huuvv4EWUVFVnHdFRYX8/ttvvP/++8Sfim+QUXcXNBc8PHn7nXcY&#10;OnSY7akvgQclUShuqEQPsjjg+pw9JssyH37wPvPmz2sQEWmXMtHbtm3L448/wfDhI6psBRYUFLBh&#10;w3qWLv2UAwcOOGy7T1EURFFEFEUkSUISJRDU42azGbPZjCzLKIrikLh2QRBo3rw510+8nonX31BF&#10;pVcUhRMnjvPGggWsW7+u0Sx01WHgwEEsXvw+np5WYd45wA2SKKxvcES3BMfchxrPXiHNExISuOOO&#10;2zh16lSjfZkajYbBgwbz7HPPEx0dbTWxZdnMgf0H+PDDD1i3fl2t7QJotVp0Oh2+vr5ERkQSGBSI&#10;weBKYEAAwcEhamKLqysuLi4Igqo+FxeXUFhUSFZWFinJyeTm5VFYUED8qXiSk5MpscS/14akFUWR&#10;9u3b8/BDjzB8xPAqAUD5eXl89PFHfPbZUvLz8xvt3DAYDMybN5/x4yfYnvoOuNtRQTSOJHqARZr3&#10;qyzNF76xgPcWv9dopbmHhwd33HEn998/GR8fq/B6srOz+e7bb/j8i88v2REliiJBgYE0Cw+nU6fO&#10;9O3Th4DAQIICg/Dz80Pv4nJREtpkMlGQn09KagrZWVkcPHiQ7Tu2k5SUVCu93F1dXRk9ejSPPPIY&#10;UVFRVvdoNJazatUq3liwgITTCY2W7L1792bJko9t50cOcK0kCn83GKJbbPPbUEP9KqT5iRMnuOuu&#10;O0hMTGyULzA0JJSp06Yxduw4K1VdNpuJ2R/Dm4sWsWXLFkzmi1PTdTodISEh9OvXj969+9ClS1dC&#10;Q0NxcXGpNnilNlBeXk5uTg77D+wnJiaGjRs2cCrh1EUX6BAEgaioKB555FGuvnqMVW0+RVE4sH8/&#10;c+bM5t/d/zZKgaDT6Xj9tblcN3Fi5YVOQXVa3+cIqe4oovuiZpQNrDhmNrNw4QIWL17cKF9ey6iW&#10;zJo1m/5XXGG1bVZUVMT333/LkiVLSElJuSjJ7ePtQ9++fbnyqqvo3bsPgYGBl61tlKIo5ObmEBsb&#10;yx+rVlUE8FyMj8HV1ZXrrruORx95jBCb7jhJSYm8+uorrF69ukGmEJ8P3bv34NNPl9pK9UzUhJfN&#10;9Z7oFtv8VtTElYqE3FPx8dxx5+0kJDQulUwQBDp16sQrc16lc5cuVqpoWloqb7zxBitWLL9gW1wU&#10;RaKiorj66jGMumoUrVq3Pl9s/2UgvcyZM8ns2L6NH3/6iZiYfRe8VSaKIt27d2fGjGerFIfIzsri&#10;9ddfY9nyZY3OSafT6Zg7dx7XXTfR9tSXqPnxJfWd6L6oueFDKx9fufIXnnnm6XoX83ypJO/Vsxev&#10;/u9/VoEQiqJw+NAhXnn1FXbs2H5BGowkSrSIasFNk27i6qvHEBIa6lC1vLakfGFhIdu2buGbb7/h&#10;n3/+obj4wnaKwsLCeO7Z5xg1+morbSU3N5eFC9/g22+/qTfhs7UBURSZOPF6/ve/12wX8CyLVN9U&#10;34k+DjUKzirTpLCwgM8++4yPPlpyySGF9YXkvXv15vXX5xLVsqXVpN+9+1+ee/ZZjsVeWNWg4OBg&#10;rr32Om677TbCwpo1yDJOBQUFbNywnk8+/YQDBw5ckNrt4+PDU08+xaSbbq4ISQUoLChgwYL5fPX1&#10;V41Csmu1WkaMGMGzzz5P8+bN7b3nz4DJkijU2sPWevWCmTNf1qNWjomgUjVMnU5P9+49aBUdzbGj&#10;x+pF3PmloGuXrsydN4/o6FZU9kOsW7eW559/jpNxJ2v8WwaDgfHjxvPyy7OYcM0EvL19GmytNr1e&#10;T+s2bRgxYiTe3t6cOhVfY6ddaWkpO3fuxGwy0blLlwpJp9Pr6da9O7m5uRw5crhB+3h8fX15+OFH&#10;ePrpqQQFBdl7z+moqdy7Zs+aZa7PRE9HLbrnDnSkUvE8URSJatmS/v37k5uXx6lT8Q3S0dK6VWvm&#10;zptPu3btrUi+atXvzJr1MmfOnKmxVtCmTRuee+557p/8AGHNmtV7Nb2mz+Xm5kaP7j3o268f2dnZ&#10;JCYm1uhdG41G9u7dS1FREd2796iQ7C4uLnTr1p2U5GRij8c2uCg6QRDo0KEDs2bNZuLE6+1VTJKB&#10;fcDjqNVia1V1ceQ+uhtwP2r11WDb84WFhXz7zdcsfn8x2dkNR7qHhYWxYMFC+vXrV7Eay7KZVb+v&#10;YubLL9W4uoqrqytjx47l4YceoUVUFI0ZhQUF/PTTj7z/wfs1jh/QarXcdtvtPPPMVNzd/6vpmZaW&#10;xtRnnmbT5k0Nhux6vZ6xY8by+ONPEFG1NxxAKWoNxVlAnCOKUTg6BFYDDAFmA71tNQiTycS2bVuZ&#10;P38eBw8erPcqmY+PD6+88ipjxoytRHKZtWvX8MILz5OeXrMaAs3CmvHEk08ybty4Cy4R1VAhyzJ7&#10;9+xh3vy57Nq1q0bSXafTce+99/L4409a7bXHxh7jscce5ejRo/X+uf39/XnooYe5+eZbqiuQkoya&#10;wfaRJAoOCwl0aIXB2bNmyTNnvhyHWovdC7XonqayKh8REcmAAQPIyc4mLi6u3qryOp2OKVOmcOON&#10;N1ntk2/fto0XXni+RnvkgiDQrVs3Xvvf6wwfPgKtVkdTgSAIhIaGMnDgIPLycomNjT3vwm42mzl4&#10;8CCuBgNdu3RFtIy7r68fUS2i2L5je73uqtOlSxdefeVVxo4dh4t16WdQA2S2oVaF/bG2t9PqlOgW&#10;sjN71qzcmTNf3ohaK6sbNh55Ly9vBgwciJenJ4ePHL7grRlHQxRFxo+fwBNPPGn1wg4fPsxzzz9L&#10;XFzc+QdaFBkydCivvzaX9h06NOjGCJcCd3d3+vbti9ls5vDhQ+f1optMJmL2xxAcFESbtm0RRRFB&#10;EAgPD8fDw4Nt27bVO0+8Xqdj7NixzJ41h85dutjzu5SgNiF5HNjXaCrMVFLltagF8OegFogUbV/q&#10;1i1beH3uaxw5cqTe2GBdu3bl3Xffs+rjlZqaypNPPs62bdvO+32NRsPYMWN59rnnCQ4OxgnVw/7t&#10;N1/z5ltv1mi7NTg4mHnz5jN40GDOdqEoLS3lf6++wpdffVlvzD5/f38efuhhJk26CXcPD3sfSQUW&#10;AEskUagzdUSw9CRzqePxiASeA8Zjp6XN6YQEFi5ayMaNGzCZTAh1XH5eQUGWZURRpHl4c16aOZN+&#10;/fpbTdL58+by408/IpvPPcFESeSaa67lqaeextvb28lwm4X9119XMm/eXPLz8+2+Z1mRKxb8Nm3a&#10;8M7b7xLevOqCu2/fvgrtS7gcfUkEiGoRxdPPPMOAAQPtVQ9SUNsyvQJsRK0uU1coE8yy8hRqyGpd&#10;wxVoSTW9q4qLiog/FX9ZiC4rcgXRQ0JCCQwMtFK1y0pLiYuLq5HKeHZL8TwNKJoszGYzcXEnKS4q&#10;tmvOmGUZRZEr7PwWLaKqLJjJyWcqvPmSJF0eolu0jgCbuWJD9CTU/oF1jd8Fs6wsRG0l7IQTTjRO&#10;fCE6x8AJJxo/nER3wokmALtJzUXJyZQ3gsQTJ5xoatB5eeEWVrVtnF2ix372GYmr/nCOmhNONDCE&#10;jRxB9xdfRBBrQHRzWRnGoiLnqDnhRAODuawU7LSNctroTjjRBOAkuhNOOInuhBP1fALrtLiGhjTZ&#10;3AEn0Z1oAiTX0fq22xjwztuEDh2CIDqnc3Woec1gQUDS6SoSCpxwosZQFMzl5VCLSUqSXkf0zTfR&#10;5r570Rhc6TJ9GoIkcmb9RpRaTHARRBHXkGB8O3VCcnFBNhrJPXKEgoTTKLWcUi2IIu7hzfDp0AFR&#10;p0MuLyfn8GEKE5Mu+Vo1JrrG1UCXqU/jEdHCOXGduCCUZmWx93+vUVZLlYREnY7oW26h7f33o5hM&#10;pPy1Ed8uXeg6fTqiVkvi6rW1QkKNq4EW111L+FVXYS4rw1RUhMbVDc1tt5K6eTOxX3yFsbCwVp5J&#10;6+ZGy5smETZ8KKaiYkzFxWhc3Wh1+20krV3Lye++x1Rc4niiC5KEd+vWeLfr4Jy5TlwQilNSkHTa&#10;2iG5RkP0zTfR9r770BgMZMXEsG/efLrOmEHIoEFE33oradt3UJaTe8nXaX3nHYQMGMCh9z8gc/ce&#10;ZJMJQZLw7diB9g89iKjXc+jdxciXmA8vajS0uuN2gvr148Cbb5N94CCyyYSokfDt1In2Dz2IpNNx&#10;5KNPLnoBu6h2H7LRSGFCArLR0p1DFHAPD0dTTYZWaUYGpZmZnI3W0Xl74RoScv7ftaC6z5uKiylM&#10;TAS1aQSCVsKjeQSiToexoICiM2esthQ1rgbcmjWjODUVY34NUoEFcA0NRWMwUJCQgGJzXwgguegx&#10;BASisV8mqEJ1NRYWUpqZgbnciM7DAxd/f0SbhgzqOGVVvQ2NhCEgAJ2XV7WmU3luLsUpqVXuzy0s&#10;DK39vOjKN4ixsIjSjAzMZWVIBhcM/gFVn0lRKDqThLGgqEZj59YsDK27R60tGIIoEjFhHG3vvbdi&#10;rnm3bUu/NxbgHhFJaUY6x7/4kvL8S0/z9mrditAhQziw6E3Sduz874TRSMa/u9n/xkK6v/A8yR3a&#10;k7Uv5pKu5dkyipCBA9i/cBEZ/+624kP6P7swl5XR/fnnyNj1Lxm799Qd0cuystg5fQYllhppgijS&#10;ZdpUmo8ZU3UKmc0c+WgJiX+srjjW/Oqr6frsdGzD9IqSktj+9NOUZedYHQ++oj89Z8+uQoz8EyfY&#10;/vQzmEvVVlUu/n5c8c7bGAKDOPLREk6tWFlhF4oaDW3uvpOWN9/MkSUfkLzh/L3sBEmixwvP492h&#10;AzunTac0o2qGoeSixyMigtChQ4gYPx6th6fVs+fFxpLw26/kHDxE4ZkzyOVGtB7ueLduTeiwoYQN&#10;G15BqFMrVxD72Zd278MtLJTgAQNoeeON6P38qnwmYeVKjnz0cRW/SuennyJywoRqF6Ci5DMk/PIL&#10;Gf/upvD0aczl5Uh6Pe4REQT26kXE+HG4hqjtkmSTiUPvvEvqtu3nHzuNhl5zZhE8YGDtkFyS8G7b&#10;Wl0gKzV4kPR6vNu1pzg1hZi580jZtLlWbPSwYcPIPXqU9H922T2fe/QY2QcP0vHRR0nduhW5Uksq&#10;URIRJPvFm2ST2er+REki6Ir+5B0/QeaevXa/k33wEFkxMQT06V23RFdkGWNRkZV9cmbdOsKGD0Oy&#10;KXZYmHCK1C1brT5rLitVJa2NcErfuZOipDNVXlTGv7spTDyNZ8voKouIsbCwguiSwQXFbCZpzRri&#10;l63AdDa6TxBoNmI4EROuQRAlzCWlNbKtBElENhlRZBmTzfNWLPCFhZRmZpEVs5/8k3F0fvopNG7u&#10;KLJM0prVHHz7HYpT06y/U1BAcXIKadu3k7V3L52efBKthydyWXm191Wel0fusVjyT5yg2wsvoK/U&#10;s8tYWEjyX3/Z/W7a1q00Hz26yiKJopDx77/sX7CAvBMnrcbcWGB5pr37SNm0iS7TpuLXuQugYCot&#10;qdHYiRoNSi32fA8bPozOTz1J4h9/kLFnN8FXDLDShGLmza81kqMo6Ly9KU5Nrfb3FFkm+8ABWky8&#10;Hv8ePS75kkc/WlL9tcxmco/FEtCzB4IoXtQz1lqnvqz9Byg8fRqvSq2JAFK3b68y0e2vdCYy9+yx&#10;+xBlubnkHj1Whej2kHPkMIff/+A/kgO+nTrSccoUdF5ete4prXz/p39fRUDPHoRfPYb8kyc5+M67&#10;VZ9dUSrUb3NZOQm//o5Xmza0vHHS+eef2Uzy35vw6bCcNvfcXbFSFqckU1BNT7vsAwcpyUjHLayZ&#10;1fGCU/HsmzuX/JNx51zQcw4fIWbefPrMm4chMKDO7XtRoyGgdy80BtXj3fKWW6xMqNKMDPa9/jop&#10;f2+qVW+7XF5WrSl6Fi4B/pRmpFOUZL+Ov6TX49WmDYIgkHc8tlpnmmr2up3zWjpPT4wFBRVFOC4b&#10;0ctycjizbj1erVtXTMDy/DzOrFlbo22VwoRTZMXEVD/BN2yg2ZVXImqrd+qYS0o4suQjipKTK44Z&#10;ggLp9PgU3Jo1q/Z7Hi1a4GqnlpsgCrj4+9d4DMzl5aTt2En46NFk7dtrZTOLWg0RY8bg1bo1SevW&#10;kbUvBkWWETQSWftiaHHtdTUTNmYzKZs2EXXDDRW2d9q2bdU6n0qzssjev9+K6IrJxMkffrAiuSCK&#10;uAYHYwgOoiQtneKUlAri5Bw5yunff6fNXXdWMQ28W7dC7+tnVxvS+/pe8rwKGTSQbi+8QN6xo2Ts&#10;2kXktdeBTm3qUJKeRsy8+ST/9XetkhxBIGP3blpOmoSLv59dv4nOy4ugvv04/MGHJP7xp92fcWsW&#10;xsAP3kcQJXa/PLvaxbjZVVcSOW4cel9fuzsTLn5+hAweRNzPP9sLY69boqMopO3cQfStt6Dz8q6w&#10;ofPj4mv09eyY/ZRkVN/8ID8ujrLsbAxBQdV+xlhYhLGwyMp+bnvvPfh17XbO+255w/W0uP76am3D&#10;4gtod1ySloa5rByTTSVbnacn0bfdhmfLlgT07sWeOa+g9/UlYuwY/Lp0PecCVmVRPH2akvQ0tB4e&#10;yEYj2fsPVLuYykYj6Tv/odmoUQiCGlBSmplJ6patVhM7dNgQOk6ZgiEggJK0dGIWzCd1yzYEUcSj&#10;RSRuoSFVJpkgibS99x5ChgytduwuxfEWPKA/Wk8PCuLiCOjdB9lkrLSAZXJg4SKSN/5VuySvZC62&#10;uG4ibe6+i8Pvf2hlrmgMLkTfPAlFlkn5+2/M1TQOlS2xA4oiYy4rrfZzqZs203zUKFrfeTtHl3xs&#10;lVCmcXWl1R23YS4tJW3rtot+nlptsp175BgZu3YRNmIkKDJJa9fWyJ6TjeWk79p1TslflHSGrP37&#10;aTZyZI2dN1ETJxIxbvx5I6YESbogop1TqpeWoZjNVdS+stw8ji1dSvsHJuMR2YK+byxA5+FZ1Xau&#10;kVpprJg0RYmJZB04cO5F9MABSjMyMAQGWSRhOuW5eRXnXUOC6fDQQ7hbqty6R0TQ6fHHMZeVE9S3&#10;D+GjR+MaHGJFtMo7ArU1dv+tOwI+7dvRdcYMFLOZrH378OvWDalCkqcTM2+ew0iu+kTyOfDWW3R5&#10;5ml6v/oKSevXUZhwGrdmYYQOHYprUBD7Fy665G28s6bpgbfeosvUZ+g5+2XObNhIUVJSxbX0Pj7s&#10;X7iI0qzs+kF02Wgk5e9NhAweTGlmJumVtyXOgdKMTLL27z+vDZy1dw9hw4chiNJ5Va/QwYNoc++9&#10;SC4u5/1syt9/U5Jh3WUlsHdvAnr1vuAxcAnwR9Lr8evSBdeQ4Ar1XTGbSVz1B7lHj9Jy0iSajRx5&#10;USQH0Li5orW0KcqLjaX8PJOt6MwZ8k+e/I/oGemYKvUx94qOxi083GbLJ5q+C+ajdfeofqGUFRL/&#10;+IOcw0esNKTgAVfg17X7RUvy0CGD8WwVTcqmTbS4biLhV4+puIfSrCz2v/GGQ0l+Fnmxx9n1wktE&#10;jB9L2PDhaAyumIoKyTtxgoNvv0NhYlLtCcljsex64UWaj7maZiNHoHFzw1RcTM7BgyT8+luN/Fx1&#10;RnSA9H92UZycTM7hw9U6KapuHxyw7LOfG2k7dlKWnXNeu9mnXVs6PvaYlWf6XEjdtr3KlpGo0Vww&#10;0c86jgSNBs/oVnR87DF1JbY8m6Io5J+MI2befBJXr6b17bcTdMUVVttFNYF3m9YYgoKQTUbObFhv&#10;tbVjV8soKyd18xYC+/RVCSObqayHi1pthVpfeQHUeXqdd/clae2GKqaQ1svzooguSBIekc1pddut&#10;eLdrT8a/u1BkuUJjKM3KJGbuPM6s3+BwkleYYunpHP34U0SdDlGrRS4vv+QAmepQnJrG0U+WImq1&#10;SDodZqNRVf9rAbVO9NLMTJLWrCHLEt1zfjVAJm37DuTy8w9eSVo6+SdPnJfoQf36VpFQDocgENS/&#10;H+FXXVUhmZpddSV6X1+Ofvwx2fsPqPHeZ3cYdu8h//gJ2t57Ny1vurnG0l3j6krzMWOQ9C6UpKWR&#10;d/xEjb6XFRODqbAQracn9RGCKBI2fCgRY8dyZsMG3MKbW+3Bl2ZmEDN/QZ2S3Nberi3S1UQzru3F&#10;pNaJrsgyCb/9VuPopJKMDLLPo7afham4mNQtWwns0/ecn0tY+RsBvXqd93PnnnkXpkqHDRtGuwce&#10;qHBEqpNXIrBPH7zbtuXMurWc+PY78uPiKoRpeX4+R5Z8jN7Pj+ZXjzn/dQwGWt1+a4XzK3v//hpr&#10;TQWnEsg9dvSizJELXfCEi/hO8MABdHnmGVwCAvFs2RKNwcVKeMTMX8CZdesvC8kbAzS1+YLPOtMK&#10;TydVe67KBIyPp+hMco0vk3PoEMaCfKsINHuLx4E336L3a8F42G9Ta6VqRowfR2CfPlaHvVq3qvE9&#10;uYeH0+HRRzEEBto9r/PyosV1Ewno2ZNjn31O4qo/KqS7saiIk999bzeCTOvupkaCabV4RrckbPgI&#10;ggcMQNLrUWSZrP0xNdOaLItk9oEDBPTqhajTq4EXli4zpqIiZJMJycaEUGT5nI5MQRRpedON+LSv&#10;lP+ggHf7thciGnALCaX56FGUZmSCKOIaGlZVkq9d1+B6ojdKoruHN1OdEzYvQ+vhjt7b267jQpFl&#10;UrdtrbLtIEhSRSEBRZatVvHco0fJOXSIwL79zuvcOPj2W/R46SV03ue21X07drQbvns+Z1hJmurA&#10;yz8ZR9q2rUROuMYqFl02mShOPkP6zn/w7dgB73bt6TJ1KuU5OST/vanic/lxceSfqKqCB/XvR5ep&#10;UxE1WjTu7la2fFlODmnbd9isp4LVlpZsNlu9j9QtW4m6cRKuwcFo3NwqPO85R4+SfWA/AT17Vdx/&#10;UVIicT/8QGCfvvj36GHfqSkKBPTsQejQ4RfndBs2BP9uXZEMBszl5eQcOYTxnx1EjL+mYk95/xtv&#10;qJLcSfL6QfTQIUM4/fsqSrOsgwv8u3VDY3C1S3RTcRFZe/dZHTMEBtD+wQfQWdruZMXEcPyrbyoi&#10;2kwlpWTt339+tVxRSNm8laMff0yHxx5D0rucw/ZPI/fYUTvau2A3mUZjMBA2bAhxPy5DNpmQjUZO&#10;fv8DwVdcgUtAIIoikx0TQ/yy5WTu3kNRSgq+nTrS+ckn0Xl5YrKE7FY4y0rL7AZKSHo9Ln5+IIh2&#10;NKG4Kp7Y4EEDiBw/HgQBxWQk9suvyT5w8L/vJCRQnJKM3tcPvZd3BdHLc/PYv3AR7SZPxiMygrKc&#10;HI59+imp23YQv/wXgvr1odXtt+Pdpo2tMKbozJnqxy4stNqkFlGvI/qmm/Dv0RNjQT6KrKDz8iLx&#10;j1UUp6oaXsyC+SStXedU1+sT0d2aNcO3cyeSN/7138vWSIQMHED2wUN2v5N37BgFp05ZHQvo1ZOI&#10;8RMqJJNXdCuSVq+xmtSpm7fQ8qab7Kq6bmGh5MaeUAMVTCbily3Ho0ULIq+9zr4aKggc/+ZbTv70&#10;k12p0+OF5/Fq267KuZDBg0nb8Q8F8er958Ue5/SqVbS6/Y4K6Znw2+8VEjX7wEG2PfEkolZbhdQa&#10;NzcMQYHkHY+t8XinbNpsFeYrajQ0v/pqQocNr6T2Zqljb7mHspxc0rZto9VttxM6dDDHPv+y4lzu&#10;0WP88+xzaNzcMJeVquGalqy7M+s34t22Ld424c2K2czhxR8iaD+pSmSNhp6zXq42qUVAAFHAVFzM&#10;vtfnggDdX3wJFIXSzExOfP0NSavXOkleS6i12juSi4tazkcSK0nnQIIqdSGt4gnev986kk2vI3Tw&#10;YCv10xAcTEDvXlbfK0xMovhMVSeUZDDQ/uGH8W7T+j+toaSUI0s+InP37mr9BObSUoz5BVX/Cgqq&#10;9X4aAgMJv3KklRkS//MyihITEUSR5mOuxjOqhZWGUZ6XR2lmptXkPbtvbJsjcC4YCwrIOWgdJOPZ&#10;KpoAm+SKwD59cA0KtLqHrH0xKGYzkddeh7eNH8JcpmoWpqLi/8ZKEAjs05uIceNBrOpmM5WU2B+7&#10;/IIaJbUIGgm38Ga4N2+OIIqYy8s5+PY7avEIJ8nrH9FBDTLxiIj4z8bs26fakFVjUSGpm7dYkyco&#10;CN/OXaxvUKsleMAAK/u0PD/POoSzEjwiI+n85BO4BPy3BVeSnsGBRYvU3PVacz6KhA4fbvV8RWeS&#10;iV++DEWW8YhsQY+XXsSvaxdErX3FSevhTsTYMXR6fMr5A3sqOyQPHyL36DFrTahH9yox5+4RkQT0&#10;7GmzuB6gID4O9/Bwur/wPP5du1S7j68xGGg2cjjdX3gelwDHJLRIOj3tJj9A2/vut+xTG8k/Eeew&#10;5COn6n4hL0evJ6BnD8pycioUMUNgIIbAICImjCd95z8IgkCzESMtwSPRBPX/z3nmGR2NubQU15BQ&#10;ggyGShKot9098oAePWg+5mpKKuWDCxoNWnd3gvr2qfBg67y80BgM+PfoScdHHiFpzVoUy16WIIpk&#10;7NqFW2goXm3aYCwqrpHDyMU/AMnFRX1eS5sqnacnGoMBl/DmtLzxBjJ2/1csoDwvn7LsbFz8/fHt&#10;3IV+CxaQumULWTExlOXkIJvN6DzccfEPIGTQQLzbd0BjGQP35s2txsmrVTT29vnMpWX4detWiSw6&#10;wkePrlKUQpAkwkddRVlOrlXr4bKcXBAEfDp2ou+CBaRs+pusmP2U5eZiLitD6+qK3s+P4AFX4N+9&#10;R0UUniCIeLdth2w6PwlFSapxUouzqKPjYbdt8r8zZ5Kw8ldr6ePpwaAPFqulpBSlikoraDSWLRtz&#10;xWosaDUIgohiMlVRVwVJqvobklR9wr7RaK16WzzMtuqhqNWqzihZrqo6CgKiRqN6o2uoFgoaDYIg&#10;VLnXiuuYTRXbVLZjYesclM0mUBQESWN3clceu4pxsiNtbT9X+X7sOSVrNM6Kgmx5T6Ik2b3u2Z2E&#10;Cxo7UaQ4JYW/77nHys+iMRi44r238e9mbW7E/fADe//3WqMoQuoe3ozBn3wMosime++jIOG0w68Z&#10;Pvoqer3yim2Y+BcX54wThGojuexNIkGjsRtEcSGx3tUlTgjV3YcoVnvuQkNOz3WvgqRBkGo4Zppz&#10;J3+ca6G7mM+d711V+VwNklMuZuzsLhhmE8kb/iL/eBwaN1dChw49b/63E3WgusvlRpLWriP7wCHn&#10;qDlxQSjPy6tSdEExy+Qdj6U0IwO9jw/BV1wBTqJffqKbS0s59ulnzhFz4iKNRMHGCaej3f33qckv&#10;AufPSHSiDp1xzuYNTtQalIq8ekEQ1F0H5/yqJ0R3wolagrmsnANvvY3W3QMXfz+6TJtqtySVE06i&#10;O9GAIWo1hI+6Co+WLZH0ejRu7s5BcRLdiUZnsosSvl06V9lec8JJdCcak4Uuy+TFHgdFjY7zat36&#10;oktrOeEkuhP1FLKxnNjPv0DS6zEEBtDr1Vdx8Q9wDoyT6E40Khtdp6fzU0/i06EjokZC73NxNeAF&#10;QcCjZRR6S1ozKBQmJKLz8Ubn6UlxahqCJGKoEquvUJScgqTVoshyrRZ6/O8SykXXYXcS3YnGYaML&#10;Ano/X7v5/he2YGjp/OST/7VFUhT2zZ1H6NDBBPbpy/GvvkJjMNBi4kQrkuefOMHpVauImng9stnE&#10;3ldeJWv/gVo2T9Sa7gKXP5bfmU3gRD0w2JUadfOpZslAcnFB0usr/s5WUZX0eqTK/9brkXQ68k+e&#10;JGntWlreOAn3yEg8W0bTfeZL+HfrWst7+fWnKo6T6E5cXlu9vJzjX31Jwq8r1cQnQcDF3+/iM9oE&#10;gRbXXYtXK7UmQcjgwQT2/a8aUc6hQ5xZu5aoiRNxCw/n1LKfif38M9zDm9P9xRfx7dSxcZpKzqnm&#10;xOWEqbiYlE2bSdu2HcVkQhAF2txzF6FDBl802b3btq1oLe0eEaH23VMUsvfvJ2ndWqJuvBG38Oag&#10;KJRkZKhdU81m3Jo1w69Tp0Y5zk4b3YnLqLKrNQR6vfoKokZTsb1mCAyky/TpKIpC8l9/X4Ja/x9y&#10;jhzmzIb1tJw0qaLfuyBJtL33PjU1V6Ph1IrlnLJJz3YS3QknLgHm8nKSN2zAWFCAIKnTUDGZyD16&#10;lIjx41WyT30Gc1kZ6Tt2Vt87XJEpSUs7ZyPM4pQUUrdsJur66ytIXqHS6nTIJhOnVqzgwDvvYiwo&#10;cBLdCSdqTZibzRz/5jtOfv8jWnc3ml01EkNgEKFDh+LTrj0AriGhdHt2Bntfe10tbW1HsstGEzHz&#10;5ldfiksQ8O3UgQ6PPopbM7V7j2wyVZTGlk0mElYs5+A772HMr2WSi6KloYUAXN6EHaeN7sRlZLta&#10;1aY8v4Cy7Fwir7mWoP5XYC4rw1yq5q+7NVNr21VrsysKZbm5FKemVvkrSU/Hq1VLOk6ZUtEpFiBt&#10;21ZO//4b5pISEn5ZwYG336U8P7/2nksQcA0JJmLMGPTePmg93Gl21Ujcm4dftgw9p0R34vLzXZY5&#10;s2EDkl5P67vuJHHVKsJHj8YzulWFZO86YwYAKX//jSKf32YXRJHggVfQbcazGIKDVXOhtARFVvDv&#10;1o3YL75gzytzSNm8tVbVdUGSCBs2lFa330Z5bi4H330HZJmAXr0IHTKE2M+/IGnd+jovfukkuhP1&#10;RJWXOf3Hn2QfOkSbu+7EPbIFBfFxuAaHIBkMGAID6Tp9GorZROrmrefs3CKIIiGDBtJ1+vQKkoPa&#10;ESfl77+JuuEG9F7exH7xVa03Tgzo2YN2k+/n+Ndfk7RmnVo6G4hftoLQ4UNpc/ddGIuKqq1i7FTd&#10;nWgSdnvh6USyYmJI3fQ3cT/+oBbUtMAQFEzXZ58lsG+fipZddiX5Ff3p9py1JC/NysS7TRvcmjVj&#10;57TpHP5wSa2TXNLpiL5pEolr1pDw6++Yios5a56bSkpIXPUHp//4g5Y33lBR+ddJdCeaLNlPrfyN&#10;w+9/QMT4axAlDRm7dlWQ0jU4hK4zphPQu2dVe1cQCOzbhy7TpuES8F/jCmN+Ace/+IL8EyfU5heH&#10;j2AsLKz1e9f7+aL39SV54192VXNFVjizYSOGwCDVXneq7k40abKbTBQknObU8mXofHzQurnh17Vr&#10;xXn35hF0f+FF9s2bS9rWbSiyoqrrgwfRZerUivh5c2kJBfGn8GrdmvBRo4iZP5+co8eqNPWsLeg8&#10;PTCXl1GamVntZ8wlJSiKjOSU6E44odbxj/t5GRn//kvzsWMpzczkzNo1KLIqKd2aNaPbc88RdEX/&#10;CpJ3nTHDKklGkRWSN24g4ddfydyzl5yjxypsZkegPL8AUaNF71N9915Jr0cQBMw2jTadRHeiCavx&#10;MtkHDnHkwyXEfvE5Wk9PQKhQi12DQ+g2YwbBA64gdOiQilRUxWzizPp1mEqKibpxEmfWruXgO+86&#10;lOQAZVnZlGVnEzZ8uN26+2cXpOK0NApPJzqJ7oQTFZK9vJyTP/xIeW4uPh06kr5jO2fWra0InnEN&#10;DaPLtKlkHzhA+s6d6nFBRJQ0HPvkE+J++IHMmP0OU9et1PLyck589x3NRo4kYuzVVg43ycWF5mOu&#10;psU11xD344+qo85pozvhRGXRrpC84S81/VSvp83dd1s54tzCmtHq9ts59onavjmgTx+C+vcnZdMm&#10;Tv7wY5WWWY5E5u69xH75BW3uuIPgAQPJ2LULRVEI6NEdj6goYr/6mrTtO+t8CJ1Ed6JBwFxezunf&#10;VtHqtlvQ+/lbLQLleXm4hoTS5p57OP7llyiyWbXpN2yoU5KrfgGZxN//IPvAQYL69CagRw8EjYas&#10;fTEc/nAJBacSaiVJx0l0JxqxYFeI+2kZel8/om+5BVGnoyQtjV0vvkirW28lZMgQWky8nn9nzqQk&#10;LZ3yvPzLdp+FCacpTDhN3LLlCAhqc8rLCCfRnWhQMJWUcOSjjxEkkZaTbkLj5oZ/jx4YggKRjUay&#10;YvZReDqxzr3a1ZLeZK4XdWacRHei4ZG9uJjDHyxBNplodeuttH/wQdVp9/33HPlwSb0heX2Ck+hO&#10;NFiyH/34UwRBJOqG64n7+WeOLPkYU1GRc3CcRHei8ZH9E1I2bSY3NtZJcifRnWisMBYVkbl3r3Mg&#10;LoboOk9PDIGBztFxwokGBp2nF/aq2QhmWVkIPFn5YFlOdp1H7jjhhBO1ILkNruh9q3S9+cKuRNf7&#10;+F50ixwnnHCi/sEZ6+6EE06iO+GEE41CpQcOAZejar0X0BuwW6e3uLiI3Nxcu2HBkihefMseGyiy&#10;jFmuPh5aq9Hg5++PVCntUFEUcnNzKT9fKSJFQZZlvH28MRhcnbPNDswmE5lZmZjNZssYV18lVRDA&#10;29sHnU0f9ZycHIrP4VMSQP3tS67AqmA2y9XWqzMYDPj4+FRX5koGDgOnqPumbPs0wOfAl3V4UQHo&#10;ALwESFW5oXDkyGHeevNNDh8+bHdQJUlCrCWiy7KM+RwVOV0MLkyfPoMRI0ZavcDffl3JF198gekc&#10;McyKomCWzfTt25dnnplGUFCQk9mVUFZWxtdff8VXX36J0WREkiRLDXR7FFNo07oNr7zyKgGVdoSS&#10;EhN59rkZxMfFn3PGaSRNtXXmak5zBbPZXG0VWm9vbx56+GGuvPIqtFqtvXmvBb4DVgJldTjUskYS&#10;hTqLtjfLih64FngZaG27fBuN5axevZr58+eRcOpUvelF+caCBURFRdGyZbRFsgiMHTuOLVu2sHrN&#10;6nNWJAVISkoiMyOTmS+/TGRkCyfDgcLCQj788AM+/vijc0rjswgJCeHW224joFKf86KiIha9uZDN&#10;mzef9x3UBRKTEnl2xgwOHTrEvffeh5+l/1slorcB3gHaAm8BmZJYN3XepTokuR8wDZgNNLMleXZ2&#10;Fovfe49Fby4iLS2tXk3KrKws0lJTGTBgIAZLMQGDwUCnTp3Yt28fqamp59HgFRJOJ3DwwAHad2hP&#10;QEDgJUuXhoysrExef/1/fPnlF5TWIC7dy8uL559/gZEjr6zQ5GRZ5ttvvuaTTz45p1Z1ObSUPXt2&#10;Ext7jFatWhEQEGD7rg1AX6ATcHDmzJczZs+aVSdqtKMJLgDtgDnAOIv6YkWC2GPHmDdvLhv/2nhO&#10;NfpyQpIkJt8/maeefhqdTl9xfM/u3Tz19JPEx8fX6HeiW0bzwosvMmjgICRN0wpMVBSF+Ph45s+b&#10;y+o1q2v0rl1dXZn6zDTuuPNONJbxUhSFDRvWM336NDIyMurt80ZFRfHM088w8sqrqvgVLDhgMWH/&#10;kETBoaq85GCS64EJwLvAYNvrlZeX8+cfq3jxxRfYvWc3sizX60l69OhRAgMCaNe+fYVkCQ4JISoq&#10;ip07d1JQg44f2TnZbN26FZ1WS3SrVuj1+iZBcpPJxKZNf/P888+yfcf2Gr1rFxcXHnrwIe659x4r&#10;ohw8eIDnnn2WpDNJ9fqZc3Jy2LxlM0ajkbZt21Zog5UQBFwJGGbOfPnAzJkvFztKugsOIjhAAPAU&#10;8CDgXWUQsrP55NNP+OyzpTUiSH1BQEAAr732upVzTpZlNqxfzwsvPk/KObp6VoZOp2P48OE8PuUJ&#10;2rZr16hV+azMTD7/4nO+/OILsnOya/QdvV7Pfffex2NTpljtWCQlJvLkk0/wz65/GszzazQaBg0a&#10;xNSp02ln/10bgVXAi8BBSRRq3eEgOYDkEtALeBu4FXCrfF6WZfbHxPDSzBdZtmxZjWy0+oTi4mL2&#10;7t1L+/btadasmdqVUxCIbNGCFpGR7Nm9h/yC81c2MZvNnDx5ki2bN6PTaWnRokWjk+5Go5EdO7bz&#10;0ksv8ssvKygqrll2mcFg4IHJD/DwI4/i6vofyTMy0pk5cyabN29qUOMgyzKnTp1i69at+Hh70SIq&#10;qsIMqcTDNsAQIHHmzJfjZs+aVavqreAAoo9B9Sy2sOeo+O23X1m0aCGJiYkNehJHt4xm/oIFdO/W&#10;vWJ/VpZltmzZzOzZszhx4kSNPcE6nY5BgwYxefIDdO/ew97WTIOb2ImJp/nqyy/56eefyM7OrvF3&#10;PT09efTRR7nzzrtxqdQKOTs7izlzZvPLL7/UWz9OTeDh7sGNkybx0IMPWW0TVkI6qsP6w9rcEXME&#10;0UcB3wOelY9nZGSw+L13+f6H7ylqJHnDbdq05fXX59KtWzcrdezAgf3MnPkSe/bsuaBtH19fX0aN&#10;GsWtt9xGu/btrYJ0GgpSU1L49deVfPPtN8THx1/Q84eEhDB92gzGjhtntdhlZmby2muvsmLFinrl&#10;Yb9oNVqS6NevHzNmPEvHjp1sVXkZeBOYKolCrUn1Wp9JM2e+nGZR3VtXPr52zWrmL5hPWVkZjQVZ&#10;WZns27eXjh06EhwSUvHCgoKC6NOnD0lJSSQkJNR4speUlHDw4EHWrltLfl4eAQEBeHl511pwkKOg&#10;KApZWZms/OUXXnn1FVasWEFWVtYF/UZkZCRz5rzCqFGjrdTazMwMXn31VZYvX96gJbnteJ0+fZqS&#10;klKGDxtmu/uSCkyXRCGlNq/pCIkOcA1qtJ372ePJyWe48447iD0e2+icTVFRLZkzZw5XXDHAanXO&#10;zs7inXfe4bvvvq1RUIgtQkNDGTJkKOPHj6dTp864u7vXq+c2mUzEx8exYcMGVv7yC0ePHb1giStJ&#10;Ev37X8H06TPo2LGj1filpKQwZ85s/vzzj0ZD8rNwcXFh0cJFXD1mrO2pxcCTkiiU12uiW8juCfyI&#10;unVQYbd98MH7LFgwv9G9NICwsDBefPElRo680koilZaW8uvKX3hv8XucOnXqgiO4BEHA1dWVrl27&#10;MnzYcIYMGUpoWJi9rZo6gdlsIiMjk71797BmzWq2bdtGenr6RW2Nuru7c9NNN/Pggw9ZRbwpisLx&#10;2Fhmz5nF1q1b6/W268WiX99+LPnoYzw9PW2l+QRJFGp9S8GR22vXA1+gRgIBkHj6NHfdfScnTpyg&#10;McLf35/HpzzODTdOsiKioigcO3aURYsWsmHDhvMnw1QDURTx9/enU6dODBwwkM6du9CqVStc3dxs&#10;vbi16lgrLS0lJSWZmJgY/v33X7Zt20pKSspF75gIgkC7du2Y8tgUhg0fYbXbIMsy27dvY87s2Rw9&#10;drRehLY6QpovXLiIMWPGVKagAnwKPFzb0txhRLeQ3Qf4CRhWecJ/8P5iFixYgMlsapRkNxgMXD/x&#10;eh597DGCg0OszhXk57N8xXKWLPmwVnYdPD09iYiIoHnzCPr17UfL6Jb4+vgSFBSEh6cHGo32gkld&#10;UlJCZmYGGRkZpKelsWPHDg4fOUxSUhJpaWmXLF09PDyYMGECDzzwEM2bN6/io/jppx955+23SUtP&#10;o7Fi8KDBvPfeYjyspXkmMF4She2OuKYjiQ5wM/Ax4FrZ7rrzjts5Fnus0b5IURTp2bMnLzz/Ip06&#10;d7ZypsmyzPHYWD76+CN+//23i7Ldq7umVqvF1dWVkOAQmkc0x8PDE4OLC/7+/vj6+eHh7oFer0cQ&#10;wCzLlBSXkJefR3p6Gnm5eZSUlpKSnMzpxNPk5eVRXl5ea15uSZLo0rkLDz/yCIMHD6kSEpqens47&#10;77zFjz/+SElJSaOdG+5u7rz51luMHHml7anPgcmOkOYOJbqF7H4WqT6kslT/7LOlzJkzu1Ha6pXR&#10;vHlzpjw2hbHjxlexqYuLi9m6ZTMfffwRe/bswWg0OuQezqq+giAgCkJFHr+iKFZ/jorMEwSByIhI&#10;Jk2axLXXTSQ4ONhaizCb2bt3L2+8sYAdO3c0+jkxcuRI3nrrHdzcrOLIMoBrJVHY6qjrOproADcA&#10;n1WW6jnZ2TzyyMNs3baVxg5XV1fGjh3L/fdPJjq6lfVWmaWAxZ+r/+Trr7/m6NEjF22/1zcIgkBI&#10;SAjXXnst119/I5GRkVW2CXNycvjuu29ZuvTTepex6Aj4+PiwePH79O9/hdVaDHwIPOHIxJa6yF5z&#10;txB9YuXja9eu4YknHqewsNAhqrOfnx/9+vUnIz2dHTt3XFanjiAING/enAcmP8DYcePx8vKq8pnM&#10;zEzWrVvLihXL2bdvX4NVXyVJIiIigquuGsXEidcT1aJFlSw9o9HIju3bWfz+Yv7dtYty4+Vd3EJD&#10;Qhk0eDB79+4hLi7OIdqVIAjcc889PPfcC7aO0wSLNHdocfo6yaQwy8pgiwpf0e+2tLSUZ5+dzrJl&#10;y2rtOhqNhujoaEaNGs2oUaNo1ao1iYmnmfLYY+w/sP+yk0Cn09G3b18emPwAvfv0tZu6mJ+fz+7d&#10;//LzTz+x699dpKWlNQjPs8FgoEP7DkyYMIEhQ4cRHh5exRxQ01Tj+Pzzz/jll1/Iycm57Pft4eHB&#10;nDmvMH78BNLT0tiydQs///QTMftjas1/AmrK6qeffkaLFlaR4SbgVWB2bUbBXU6i64H5wKOVr3no&#10;0EEm33//Jacbenh40LlTZ6699loGDxmCv39AJTVRYfv2HTzxxJTzFoioK3h5eTHqqlHccuutdOjQ&#10;0W5se3l5OXFxJ9m8eTNr16wh9nispYZe/SG9i4sLISEhDB40mCFDh9KzR0/cPTzsEjw1NYXly5bx&#10;/Q/fX1C0oCOh1+t5/PEnmDx5Mlrtf4tuYWEhu3b9w++//camzZtIT0+/pPvV6XS8+OJL3H77HbZj&#10;sxd139zhiR91lhtplpUOwG9AZIUjRpZ57913WLRo4TkLNFYHf39/+vbtx6233kqnTp3x8PCw+zlZ&#10;lvnppx95+eWZ9SrO3t/fn/HjxjPpppto1ap1tbHtBQX5JCQksGb1arZv3078qXgyMzMvC1kMBgMR&#10;ERG0bduWcePG06ljJ/wDAqq994z0dNauXcPSz5YSFxdXb2LVJUnihhtuYOZLL+Nq7RizWmxPnTrF&#10;Tz/9wNq1azl16tRFbS8OGDCAxe+9j5e3d+XDZcAjwKeOSEu9nESXgKmomTkVIiw9PZ2HH36QXbt2&#10;1eh3tFotzZo1Y/Toqxk9ejRt27arrnpHlZf24Qfv895771FSWn/sX0EQCAoKYuTIK5k4cSJt2rS1&#10;Ss20lYwlJcWcPp3IwYMHOHbsKLv+2UVqWiqFhYUUFhYiy3LteNAV0Lvo8fT0xNPTk44dO9Kta3ei&#10;W0XTvn0HvLy8qg3SMZvNpCQn8+eff7BixQqOHD1Sr5JRBEFgxPARvPba69VlkFV5ntSUFDZs3MDy&#10;5cs5evRIjQWGj48P777zHgMGDrQ9tQa4WRKF7Dp55rocYLOsBFtsdSu344YN63n88Snk5+efU5J0&#10;79adMWPGMnTYUIKDQ86X7GHCprdcSUkJ7737Dks+WlIvk2t8vH3o1asXY8eNo3//K/Dz9UU8Rwab&#10;oigUFBSQl5dHRno6R48eITY2loLCQrKzs0hLSyM/P5/i4mLKysqQZetSxZIkodVqMbgYcHd3xz/A&#10;n8CAQFzdXGkW1oz27TvQPKI5np5e+Hh7ozlX+qyiUFxczIGDB1i7Zg1r1q4hKSmp3m2XCYJA3z59&#10;mTd/Ps2bR9ibM9XXnFYUcvPy2LtnD8tXLGPL5i1k52RXq1lJosj9909m6rRptsFLmcCNwMa6Kg5Z&#10;10QHGI8aGutVWdrOnz+Pjz/+qIpqFBgYSL++/bj++hvo1r0bHh6e57tMOvA3sBaYAnSsfLK4uIiF&#10;b7zBZ59/5rC960uFVqulZcuWDLhiACOvvJLWrVvj4+NbY0mtKApGo5GS4mKKiospLCykpKQYk8lU&#10;Mb6CIKDRaHBxccHN1Q1XNzdcXV3R6/UXlC1XWlpKXFwc//67i1W//86hw4fOuWBfbnTv1p358xcQ&#10;3aqV7ak8ix/JHxgDRHGO7E6j0cjRo0dZ9ftvrFm7hvj4+CqLWteuXfng/Q8JCQ21ogFqvYZpkijU&#10;2QSs8/pFZlkxWAb0ISp1iklLTWXK44+xY8cOtFotLSJbMGbsGEaOuJJWrVufTz03om5TLAd+BmIs&#10;NtAQ1Mi8KCubNz+fefPn8c03X9fr/GZBEDAYDERHR9OtazcGDR5M27bt8Pf3tyrKUKfvz2wmJyeb&#10;M2fOsOnvv9mzdy/79u0lLy+vXge7CIJAp06dmD9/AW3btrM9XWwxKd+0EDECuBq4xSIoqk0blGWZ&#10;1NRUNm36mxXLl7P/wH6Kiorw9fXlzTffYvDgIbZf2QtcJ4nCqTp9/ssyWWQlCjW7rXvl49u3beOT&#10;Tz9h5MiRDBk8hIDAwPNJlzJgh4XcvwGnJVEw2/gFJgDvA1bGWF5eHq+//ho//PB9gylm4OLigp+f&#10;H61bt6ZP7z40j4igTZu2hIaGYjAYHBLdZjQayc7O4sSJE8TFxXHo0CH+/XcX6enp5OfnN5ikk44d&#10;OzJ37jw6dOhoO05Gi4R9SRKFokpzRwB8LWbmLcBIy/9Xi/z8fPbs2c2vK1fStm1b7rn3XiTJynrM&#10;B+4DfqoLB1x9IDqoEXMfVVbhZbOZcqPxfNJKAbKBrcC3FqdGdnW2jllWNMC9wOvYFKnMzcnhtdf/&#10;x88//1xv1fhzQSNJ+Pr5Ed0ymtCwUPz9/WndqjWRkZH4+vmj1WrQSBp0ej16nQ6NVlvRlUhRVGlU&#10;Xl5OWVkZRmM5sixTkF/AmTNJHD9+nMTERLKzszl+/DjJKckNNoinQ/sOvD53Lp07d7Fnk38NPHUu&#10;p5hle7iPZc6OQ+1LIJ1L60FRbAOFzMASy7XqvFDiZSs9apYVF2Ah8AA1a/ZoRu1b9Ttqqar9QGFN&#10;nBmWF/UwMLPywqKuwnm8+847fP7F5w2uUKU9iKKIq6srbq5uiJKIRqPBYDDg5uaGwcWApFHnpyIr&#10;lBvLKSoqoriomLLyMmRZoayslMLCwga58NlT13v17MXsOXNo27ZK9VUzqmP4cUkU0mo4Z7WotRCv&#10;tfx1oZregXawG7hBEoX4yzIWl/NFmGWlhWWwu5/L32Oxub+3qOdxldXzC7iWHjVg5yVs6tmVFBfz&#10;yacfs3jx4kZTz66pQ5IkhgwZwsyZs4iIqOJdl4FfgEclUUi+iLkkoJYzHwjcCfQH/M7xlWzgHmBl&#10;Xavs9YXoAmoM/Mc2klZB3YLYCPwA/GVRz5VLvJ4euAs17NDqxZSVlfHDD9+zcOEbF1S11In6B51O&#10;x8SJE3n66alWlWsqqevfAjOA5EvZ3rKYoK4WQXWdxR/UHOttXROq8/llR6Wg1nuiV1Lh56FGCQEk&#10;WyT3F8A+SRRKavl6WuB2i81uNQtMJhPr1q3l9ddeI/5UvJMxDRAeHh7ce8+9TJ78AG5Va+wZLfPq&#10;WUkUMmp5XmlQvfUTLMKrm0Wt/xs1MOayxl/Xi/YgFi/8+8Aui4p+xJFdXi0v5QZgEWpbnP9UCUXh&#10;0KGDzJ49i127djXKemWNFYGBgTzz9DNce91Ee9uxpajO35mSKOQ4cG6Buhffr5K2uqWuAmPqO9EF&#10;VI94QV21cbaQ/VqLNhFpe/7Y0aPcdfedJCcnOxnUAKDVapk9ew6TJt1kL+6+ALVz0FxJFArqaH4B&#10;6AGjozPTaoJ60c7TYnvn1PE1TWZZ+Rk1km4JNnXoExIS6kUapRM1g9Fo5PDhw/ZiCUpRO/m+W9tm&#10;4HnmF6hxHvUCYlOeHJaV9gRqZFQFysvKWL5ieaOuXdYYsWHDeo4fP27v1EmgSb/MJk10i3p1NTbx&#10;8Hv27GHr1i1O5jQwJCcns2b1n7bRei6oCSQGJ9GbLrxRK9VWmDAmk5HffvuVvLw8J3MaGBRFYeWv&#10;K0mvWip6KNDeSfSmi57YBOskJSaxfsN6J2saKE6dOsWWzZttDwcAN5plRXQSvemp7VrUZAWrkNg/&#10;/vyDtHpScsqJC0d5eTm//lalXr6AGqMe7iR600N7YFTlA5mZmfzxx6qLKmvlRP3Brl3/sH9/lWKg&#10;0cBVlq1cJ9GbiDSXUEMWrYJl/vlnJ0eOHHEypYGjsLCQZct+xmSySszRArfZanBOojduBKMGy1Q8&#10;f0lJCT/88H2jaaDQ1LF58ybi46qEMXcHBjiJ3jSkOahFBNpWPn5g/3727NnjZEgjQUpKCuvWrbXd&#10;anMDJlnyK5xEb+TwBG6iUiVas9nM6jWrnVtqjQiKovDrb7+SlZVle2oY0MpJ9MaPXqjVQiqQlJTE&#10;6tV/OvzCWq2WDh064Ofn57CmhvUdbm5utGnTBh9vH4df68SJE/YCn4KBm5qaU65JEd2ypXYrNiWl&#10;Vv/5h8OTVwRBYNjQYSxd+hlffvkVUx6bQs+ePXF1dW30pNfpdLSMasktN9/C++9/wLfffs+jjz7q&#10;8AKXZWVlrFz5i20oswhcg51EpsYMoYkRvSewEgg5eywrK5N77rmbffv2OfTarVu35t13F9OmTZuK&#10;Y3l5uRw9cpQNG9azfcd2Tp486ZCmk5cDWq2WiOYRdOjQgTFjxtKxUydCQv6rxV9cXMSLL77Izz//&#10;5NACk66urnzwwYe21Vhl4AnURBelKcx9TRMiuQRcb1HdKvDXxo0cPHjQodf28fFh2rTptG5tlSCH&#10;l5c3ffr2pVfv3hQWFHD4yGEO7N/Pps2bOX48luzs7HrZaMIeJEnC29ub0NBQBg4cRJfOXejarRv+&#10;/n62zQssBHTjySef5HRCAv/s+sdh91VcXMzKlb/Qr18/dDp9Zal+K/Adam9yp0RvRESPQK0YW8G2&#10;oqIiHnroAf7++2+HSrbHHn2MRx99rEr74HNNzszMDI4dPcrGjRs5FhtLWloqaWlplJWV1QtVXxIl&#10;fHx9CAsLIzQ0jMGDBtGjR08Cg4Lw8vKq8T3+888/PProww7tjx4YGMjXX39ru9AWAbdKovCLk+iN&#10;h+SgNox4E6goPbJzxw7uu/9eh3UWEQSB0aNG8/rcuXh5eV/Ub8iyTGlpKVlZWRw7dpQzZ84QHxfH&#10;ocOHSE1NpaioiOzsbIeqv16eXri5u+Ht7U3rVq1p36EDISEhtGnThtDQUFxcDHY7wtbo3ZjNLF36&#10;KfPmzXWY9iIIAo89NoWnnnradgH6AbhDEoWyxs6BpqK6e6FGwukqT7Bly5c5tH1Qy6iWPPX00/ZI&#10;fgS1Ln0PoA1qCqXdRfds+WZXV1fCw9VQ7bPNFvPz84k9FstjUx4lNzfXMRqJRsuMGTMYPGQIbm7u&#10;eHh4VNs59RwoB1Itz+wJjLaoz0iSxE033cyRw4dZtnyZQ0p3KYrCmjWrufXWWwkODql8agjQAWj0&#10;ARRNxeveA5sttbi4ODY5UGX39vZm2vTpREdX2bLNAJ5BrWd/NaoH+E3gHyAXtQLueSWUq6sbwcEh&#10;tO/QwV6l09qbIJJIVFRLwsKa4e3tfSEkLwUOo9YAvBM1SOlOi2Zltefl7u7Ok08+Rfv2HRz2HCdP&#10;nmTbtm22h/2B65pCVlujf8BKWWrutiqju4e7Q+xdjUbDXXfdzfBhw21/vwy19O9aSRRkSRRSJVFY&#10;i9pO+irUDKvHUWvdn0Rt/HdO4nt6eBDezHFJWRqNBn3NtsFKgUTUqqczgUkWct8BfCeJQqylqWAi&#10;8AKQVPnLzcLDmTF9hsMWLYPBQGFBga2JI1rGPMhJ9IaPcGCwrWrcpk0bFi/+gHHjxtX6fu6wocO4&#10;6867bNsMy8AKYIltF01JFMySKORKorAFtQ/YbRa1cpyFFJ+h9phLt6jB/6nWOh2+vr4OGzxPT097&#10;v2+yLEIHLRJ7noXYQ1G75c6RRGGlJArJkiiUV66Aavn3NtRy21bdMvr3789DDz2MXq+vvQkuinTp&#10;3IU33ljITTffYm9hbwsMctroDR95wB/A3ZWluiAItGrVirlz5zFk8BDeevstTp8+fclOrdatWzNt&#10;+gx8qpLjEGoR/3PG2VYqKphk+dtsUS09UZsD3AA8d3aRFgQBF4PjqiT5+fnj7V3Fx7AGmAWcRm20&#10;YbqQcsaSKJjNsrIUtaXRvRX2ukbDzTffzNEjR/jp558u2V738vLixhsncc899xJq3bq48uK7H7Vu&#10;oFOiN2RIopCF2pXjSYs6bMVkV1c3rr1uIh9/9AnXT7weN1e3i59Ynl489dTTREdH257KtKizxy7y&#10;GWSLxN9vUY2tmsSFBAc7zOseEhKMq6ur7eFE4B+L6WG6mJrlkigUA/8Dttu+j8emPE6nTp0u/p1L&#10;Et27d2fRwjeZNm16dSQvAD60aCJOZ1wjIXsx8ClqQf2fsSnDK4oirdu04ZVXX+WNN96gS5cuF+xZ&#10;1mq03HfffYwYMdKeXb4Q+LWWorCSLZO0AhGRkWg0jlHOvL290Vb97fRaakhwCnjWsnBUoHnz5kyb&#10;Oh0/X78L/sHQ0FCefOJJliz5mOEjRthr5KCgOgkfBp6WRCGuKUTHNZlYd0tp5xjU/tQzgARb6e7i&#10;YmDU6Kv5+ONPeHbGszRv3rxGzjpBEBgyZAh33HmX7X6yYllYFtdiY4oi24UqPDwcNzc3h4ybq6sr&#10;VO1CerKW3klle92q9lO//v14+JFHamyve3l5MWnSTXz88Sc88uij1Tn1ioBPUGsRfF2Xdd6dRK9b&#10;smOxkd+x2Lq/2qrBgiAQGBjEvffdz9JPP+POO+48b7ZZdMtonpk6zZ4tewCYdT67/AJRjk2Ncm9v&#10;HwwOsNMVRSE0NMz2cKllkaytd2JG7Yf2tWURsajfGm6+6WbGXD3mnGPv4uLCsGHDee+9xcyZ8wod&#10;OnREFKXqbPHJwBOWHQClKc39JllhxuLl3oW69fOkxXZWbNX56FatePGlmXzyyadcd+11+PpU9W57&#10;enryzNSptG3b1vZUhsVpdryWb78AsIoX1Wq1FxPEcn5zRKslMiLS9nA+avBLbb6PQtRuKlZB727u&#10;7jz+xBN06NCxynd0Oh09e/ZkwYI3ePvtdxg4cFB10j8TeM9itn0riUKT7IutoQlDEoU8s6wssTi4&#10;pllUOquaYhqNhm7dutOhQ0f+3bWLL778nM2bN1NYWIgkSdx8080MGzbcntR9D1jtAMlRgurtroDB&#10;YMDDw9Nivtce3NzcCAsLPa9GUUtIRHVYfkmlfe2IiEieefoZnn76KbKysypy+ifdOImrx4zBy8u7&#10;OolvtJgFc4H1l7NlsZPo9cd2P2KWlYct9vTTqI3tdbYSpP8VV9C9e3d279nNV199hYuLngcfetie&#10;w+dP4B0HNYysYiO7u7sRHBzMsWNHa/VCLi4ueHp52VtoyhzwHjDLyl8WYv4PtcMKgiAwaPBgHnnk&#10;EdasWcN1EycyfNhw/KsPrFEs4/M+8BW15zh0Er2REL7ELCu/oQamTALuR42DthojF4OBK64YQI8e&#10;PTGZjLi7e9j+VAzwPJDtKD+DWVZSrVVsHZGREdR2RK9Go0FbNcU0BRuvfy0+m9EsKx+hluK+G5BU&#10;e13ijjvv4qabbzlXoQ7FYtJ8i9oe+Vh96GLqJHr9JDtApllWFqMWqLjNMuGizk66ytLOInRs7cEX&#10;gEMOliLFFgdTRdCMI8JgvTy97O2hJ2DjwKxte90sK68A7YArKvsLqsmQO9uJd6VFiu9r6mq6PYjO&#10;IbA72RRJFBItauQY1O2fKsE2NigDFjjILrdFsi3ZXB2wvRYcEmzvd09SyTvuICRYtKKU83wuBzXV&#10;9FrgQUkU/nGS3En0i7LfJVE4bnESjUEN+4y3SFNbqbIC+NA2jt1BqKI+e3l52dtWuiRERkbak6IZ&#10;jrZ5Lb+/FTUBqMzOWOcCn6N60u8GNjWFnHIn0R1PeLMkCseAVyyEfw01Pvos4Q8AL1smYF0gE7Cq&#10;YxwSHILBULvJOWFhzWztYRmbRBQHjrkJWGpRyc9qSFmo5Z+uAx6SRGGjJAolTmeb00avdcKjeuhn&#10;ogZ5TEItojAH1flTV7dSYFHfK1oBBwQE4OnpSVFR7fHQjn1eApypw/HONcvKHNQMxFgL8XcApU5y&#10;O4leV4SPNcvKq6gOoNw6jrQqxWbT3MvbG38/f1JSUmpnYmg09tJT86jtzfrz45DFBs+VRKHUOfuc&#10;qvvlsuEzHbRffs7rYhMb7urqSkhISO1Jc4OB0JAqwTLptiZDHY1xqpPkTqI3VaRX/h+tVmMv1v6i&#10;4eXtbS8o5QwO2kN3wqm6O2Ef8ajbXBZXu0DL6Gi6d+8BioLRZKSoqIjioiKKiosxlhtRUBAEwcrB&#10;JooiOp0Odzd33N3dcXFxQRAFoltG41U1Ki4Nmwo3TjQMOD0aDRRmWRmO6pGu8JgZjUaMRiOKomAy&#10;mSgrK6WoqJiCggIKCwuQzTIarRaNJQFGATSSpMbKe3rganBFq9MhiiKSJNlLEnlXEoXHnKPvlOhO&#10;1B1SgcLKRK8aPeZVm9dTgDjnsDttdCfqFkU4MBTVDsq4yFJYTjiJ7sTFw2ghu5ka1IKvBeRhkx7r&#10;hFN1d8LxyASeQg0m8QECLP/1tizgWovu7mv5c+U/n4yZ/6L6FIsJkGX5K7YcK7UcL7L894yT6A0X&#10;/wcGagXA7T+5ygAAAABJRU5ErkJggg==&#10;"
       id="image1"
       x="88.447144"
       y="30"
       style="stroke-width:2.8375" />
  </g>
  <metadata
     id="metadata2118">
    <rdf:RDF>
      <cc:Work
         rdf:about="" />
    </rdf:RDF>
  </metadata>
</svg>
