<?xml version="1.0" encoding="UTF-8" standalone="no"?>
<!-- Created with Inkscape (http://www.inkscape.org/) -->

<svg
   width="265"
   height="140"
   viewBox="0 0 265 140"
   version="1.1"
   id="svg2051"
   inkscape:version="1.3.2 (1:1.3.2+202404261509+091e20ef0f)"
   sodipodi:docname="offenewerkstattbamberg.svg"
   inkscape:export-filename="offenewerkstattbamberg.png"
   inkscape:export-xdpi="96"
   inkscape:export-ydpi="96"
   xml:space="preserve"
   xmlns:inkscape="http://www.inkscape.org/namespaces/inkscape"
   xmlns:sodipodi="http://sodipodi.sourceforge.net/DTD/sodipodi-0.dtd"
   xmlns:xlink="http://www.w3.org/1999/xlink"
   xmlns="http://www.w3.org/2000/svg"
   xmlns:svg="http://www.w3.org/2000/svg"
   xmlns:rdf="http://www.w3.org/1999/02/22-rdf-syntax-ns#"
   xmlns:cc="http://creativecommons.org/ns#"><sodipodi:namedview
     id="namedview2053"
     pagecolor="#ffffff"
     bordercolor="#666666"
     borderopacity="1.0"
     inkscape:pageshadow="2"
     inkscape:pageopacity="0.0"
     inkscape:pagecheckerboard="false"
     inkscape:document-units="px"
     showgrid="false"
     inkscape:showpageshadow="false"
     inkscape:snap-tangential="true"
     inkscape:snap-perpendicular="true"
     inkscape:deskcolor="#ffffff"
     inkscape:lockguides="true"
     inkscape:zoom="1.2950438"
     inkscape:cx="128.95317"
     inkscape:cy="99.610531"
     inkscape:window-width="1920"
     inkscape:window-height="1012"
     inkscape:window-x="0"
     inkscape:window-y="0"
     inkscape:window-maximized="1"
     inkscape:current-layer="layer1"
     inkscape:export-bgcolor="#ffffffff" /><defs
     id="defs2048" /><g
     inkscape:label="Layer 1"
     inkscape:groupmode="layer"
     id="layer1"><image
       width="80"
       height="80"
       preserveAspectRatio="none"
       xlink:href="data:image/png;base64,iVBORw0KGgoAAAANSUhEUgAAAL4AAAC+CAYAAACLdLWdAAAABHNCSVQICAgIfAhkiAAAIABJREFU&#10;eJztfX+wXVWV5rfOu3kJ4eUJqUwqRmAsOoM0MogGEoPYXFBRSAKtDhkbBCca8qAVLbWtLsqiclNd&#10;jNpMj9NaoIE0aVtGrSDTPU07OoLwVBpIOqEZu2Vi+lUGMzRkUqmQfjwiedx31vxxf527z9p7r33O&#10;ue/e+3K/qvfuOXuvvdY6+6yz9tpr73suAYgwQGbwdTtLOPgvSzFDy0HVMxDTGQCfCWBJ648WAzwK&#10;pgUgLAC41M6FqmC8BuLXAJoE+CiAIwCOgOgwGP+MiF8Al17AEL+Is95wmB7cUJ31i51DIAwMXwUu&#10;Px7h1eeXIJ5eAeAdAL0FiM8FaAUYoyAeYUbJyygHiFAF0xQIkwBPANgH0K8APINoeAKnvvkIjV8e&#10;d1KHuYKB4QuoVCrYMn5ZhN9MLMMMXwrwasRYBcI5zLyk2/pJIKIjYOxHhN0A7cIQPYFTVhzaWv5p&#10;XKlUuq1ez2Fg+Anwmu2noVpdBY7eB+YywBd02ou7QQA4W0tCFaBfAPwYQI9g0fBuGt84Wax+/Yu5&#10;Yvgx7NeRrGuEAREAcIWBR+5fhunXr0CM9WCUASzhudEnTVDtuo+AMI4IDwPzH8XaXx+mk3gkmCuG&#10;rwZXKsAPV4yg+uoVYNwI4FIGL63Vmh7W5nEb5RI9LHVmffq0vQklzrl+XC8gAtimp2uUqNURcBig&#10;J0D4NkqnPoarJqZOtofgpDD8CirYUgHw8BsvBOj3wLieES/vtl69AAK9COLvAPRdrN/87FZsRZ/N&#10;CVyjvbV+zhs+r35gBDO/uRJxfBuIL/HH7Nnj6kJ4Nb05AcTtI0CwXq6RqZ1XbU6AJ0BDd2PolB/T&#10;ro9OBQrrFnyGL7aZk4bPlQrw8BsXg/ARxLiVwed1W6dcKPJZ1Il7DhF9A4zvYf1LR+diGDSnDL9S&#10;qWDLj89eghOv3QLmMQb3dziTMPiibN+cRriYEuhFDNE2zFvwza1XHjjSZyGQE3PG8Pldf7YMr70+&#10;BtCnmLG4XlqvNWeRLvgmtCF0/ommvTzE1H0ytbrLOhDREYDvwYJ52+hvP3FIqVRPo+8NvxbDv/px&#10;MD7LzGfVSvPc/CIMH/Abr9ZYNQ+ChhcEmrCHj4gOAvgTlE798z6aA4joW8OvbSH41TWYoS0MvqBW&#10;mmcCaDvPg4J4JVOZ3dSjzosIz4CiO7Bu04+oQv4mPYi+M/xKpYItf3PGeYhnvsrg97a8WRJmiJMs&#10;a5RrvLXJy8bX5nFtbWwyNG2SNMlPH52J0HWItAwC/QjR0Be2rnvhuX6L//vK8Lm8YxSvvP5pgD/P&#10;jFHdTXPddLOsQa+J3aU2ZGntMySbbOlBtF2D9gFN0rbrLtPJD1kj60rEk0B0F0oLv9ZP4U9fGD5X&#10;KsAPlr8TMX+dmd/RbX36D53PhxJoD4boM1h789P9EP40NOxZ4+fyzoV45eUvgvE5Bg93W58B7CDQ&#10;NAj/GYtOv5PGNxzvtj4u9KzHr3v5CxDH25hplS5LA9iHbSTKpDYmX9+k15Z1IYPClzY04bpOjU4N&#10;Hhreki6a7JBNRj3cI34aUXQr1t78C4X3NzcRauwxS5s29KTh83U7Szjw8k1g3MXAafVS6CaLrkmf&#10;jRaWY9+k0/eQNcoluOJoF00IL59e2tRtskzHi0DHQPgCzj79L3rx22JDsFvHrKOCCh4vf2wU/2/q&#10;HmbcAWBBG4FVU/IROODLXmjauOiKQh5eHUjRUvJcxAIA19CxE2dW3vKhcXr+7SfGMV6QDvnRUx6f&#10;V99/LqrV/8rMF7o9sNYIpMyHLxUJ49znZZO8zDauEQcQtxeLkQ0nzgWeKTWT/C0qpPRJXHuTn1km&#10;KecfXSmiZzE07wba9fF9Gm1mAz1h9Fxh8EX3rkN1+ifM8YVtN5pqB0Rcu5H18tph8q6y8dlgAOOc&#10;hXZaL28e22SRQWPKrNM0dmEm6TlBzyZ98pzFQ1hI3JXG9XNDH0lGsq51P1pE6WvlGBeiOv0Tfse9&#10;V3Ols9klLbru8es7KT8F4CvMvED0sqmizqfnBrAhEepw4lzTkug4QF/A+he/2e0dn101fC7vGMbk&#10;61uB+A9YpYdtEjgb0Mj0ZV3yyNVObl1tO6Rf2/cGvNQxQP8Jo8NbaHzjdE7hmdE1w+fyjlFMTn8d&#10;4Ot1Rp/EwOP3M+rG/x2MDt/WrS/Ad8Xw+cIdo4imv8vgD8y27N5CiAcWZ72OehO+Cbtv1HDp4yuX&#10;kwZE+BuUpm+gXZ+e9a0Os274fMk3luBE9BAzX1oc17xDue2m22g0N13Ds59RzKhLhMcA+ve0d+xo&#10;fp30mF2jX33fcrwW/WWxRg/IGR3p3NXeR5uk0aRRNDznCrKvMTDjCgB/yW//s2XF6eOHz+NnWg6W&#10;wBffvRQzpYcYfEkR/AaYWyDQk1gQf5CevPXIbMjzGXUxRr9m+2mISw+2jF7nIShFG+JZjPy4hXs7&#10;ra9e4mWWZ9VXok/y9vEy6SQ9XNeohet6bTr5weBLcCJ6iMs7RjMoFYyOx/i8ZvtpmJ75LjNf2Tkp&#10;WeLN0ElbFp6D7FMoCPQjxMO/R892NtvTWaMv7xjGiZm7u2P0Pk+sMfpQT55cBc4e957MYPAHMDR9&#10;N5d3dHQLescMnysV4JUTf8Tgj6Rr84QDKUmOcmlLg6+N7VzTPlk3tye3nXysmfl6TE5v5Q6u7nbE&#10;8LnCwMPLbwHjc8Vx1cTqZrn29iS9dJbYuMgHuZfRujbu+HXyH+Dh5bd0yvg7EuPzRfd9ABw/yMwL&#10;i+Yto8hYulfj8iLnHkXqkZe3fWGOiI6Doutoz80/yiHAKrUww6+ggi0r33gOGD/p+7eYDdATqL3U&#10;Fu+hvWP7i+VboOHz6gdGUH318dn9QnhyyNUut9vqfCuvkix5Od7Nr1dHld4EgfZg3on3FLm1oTij&#10;v25nCdWpP60ZfStW7nz0a9vvDkuZq8638irJ0k6iXSu/mrlEaB4/lL+mvFFnzIms5No1FBvvGhh8&#10;Earz/+SXb60U9us0hXz1kCsVYPe8m8B8RxH8BhjABAEX/qvS6P+hsZX/a3x8vAh++b0+r77vfMzE&#10;jzPz4tpITk2nVhvUuTm4pwMI32au1shhf2OBKy8v8daGGq68vm2CpzkOQ28GRrOvFREdBQ1dRns2&#10;PZeXV36jL+9ciOrMNo6xWPo+qDm41wZ804B8Bs11o7cN2dpcvo/eR2cLq7ShTjb0jNGT7cGfHTDz&#10;YsQz27h8d+5sYS7D50oFmHr5dma8s80gkt8bzdVBWXdbNlBk1NXPEVxBunOnjd2vJ4MvwSvz/jBv&#10;fj9XqMPvuG8VwD9lxIM3nA0wayDQNBBdRs/cvDsrj+xGv/qBEUTx1xk8XHtQE08rhXqYvDv8sqze&#10;hpT7si1aXoN9PEWgZnMzf8qrvzaSlUcmw69UKsDrr36KY74I4HoEkpjEBQ+JoWlHLY0r1Aop98X0&#10;oXt/eiZq71swYxWq838/6+vJM4U6fNH288DVv2VgtPWSoaTHh3Fvs2ZVstIn24XKD83EZM0QhfJw&#10;6eXTOXmPtLrCwqdRnkdnVxbOdY3tOhHoGObxu2jXLcEvqgo3+vLjEeKZu5hptOXp24fu5NJDvqxK&#10;Vvo88kMzMVkzRKE8XHr5dA4daVz9FsIrNMPlu0Y2Svg0VHHX4+VKsB2HhzpT/3R17e0I0nBfTz2y&#10;reMGGMCF8LkPM64uH18e/LaOoFCnthfn+M+Z4wtCBQ0wQKdARM+idOplIb/IIhl9bKWuvvofmPkC&#10;e+YjT7ZCynicLFmQTl1fERmtUN6aNnkydWYdgZkvxMyrN4VqovL4fPGOpYind9V+UjN0cpUVLjkD&#10;ZEev9GNxehDRQcw/5WJ68ibVWxpURl+pVID4xKaW0QPtn+YE15cLT9eTpbydXttJrhHJlZN36eBr&#10;42tXhFc3r8HVz67+ZgttUTq6dErqb8sa+XRJr6Mw81l47TebtCu6Ko/PK7ctBvC/mXmJjmUveJMB&#10;TjbUfoEdv615K5vX6GsLBPT77Ubv8pK9ZPR54tAi5PXK3KRX9TKhWTW3lQHMvASMzQqvH3s9fs3b&#10;098zx2f4uA0wQLdBRAcxPPR2emrTMRedJsa/vt3ozXhWm43RxKM23i6+EvReIh+K9KRF66fl16m4&#10;Pg+fUH6JJVPmszA98yFfC7e3X/3ACIBb3SxcE1vbSpw5udGuBuZZJe1ECJZ323QDUoLARaut9yUL&#10;QuZjvvA25EHzGXhIXwjXwHQbl3c69+xbDb+CChBPvRfM56SVkhRl4diGvFsGemkeUQSybgPw8TKz&#10;N1nk2eRmfei12x60fSHRxefjlZffW0HF2tJq+FsqAGboVm6jST5hrjDF90RLqUVbutFs5+MbCpcn&#10;yxNaZdFBK0eTztTw08jS8nLpJt3nUPm2ujQdAxGYPrmlssXKwR7q/PBN5wP4nRTLpjBNOOHy2ObT&#10;KpXZ+OfJ59t4FiEvK7RDuyY0DN1kp0UeXtJ91tDl0YV/Bz/cfr6tVtyywJUKUOWPMVj4ZpVk3OaD&#10;0K1QpIiYu8g2IR63kxv7ZqMfQudrRUGWw+BhVGdutKU2ZY8/ft5CgDfohc21mLsoDPqlu6ANNVtO&#10;IZYNf+rYFcxs5O19acxOxZYDtKPoeUwIj6z3ODS1WowNMPNZmDxWFqqilOFzhSNwfIPABnKMLw1t&#10;RcWDA6QR0j+2PTFZQ5+s9zg0DV3o3OQGKdxJe/xH7l8GRtnOSMo55/EGswVbNqGTy/ndWJTKs3jX&#10;6eyVyUezQJlzMZK4jB/866VmcdrwfzNzKQMpQgdn2PPFvnSm7VzTPhQNj2XLaYfIyfKwFGk0rpBA&#10;k21zLRz5aHz1vjSkq774hUdmLANXU7+ymTZ8iq/zsHJ8amf2tlSmTZa2XIOQxTWt/LzpOS3MlG/W&#10;hcKsC2V5Fxe1+me9Lgvi+MNmUZvh8+oHRsBm7n6AAfodfEV9+00T7R6/+uo7AVj23FPbH4l1WUEp&#10;jnYddPzS9CFhVyhCh/1uz4GKkN8rPFTcliA+vipx3kpn1vfdv5+tq7nc9sdiXVZwiqNdBx2/NH1I&#10;2BWK0CG725mrosKuXuDh58ZAhDh+f+LlUxGhbuhcfjzCK/t3tX7YwTfpM1ObvjJbe7M8eQk+PU5W&#10;aPsl5D4WpYOGZ1b7yEoHEGgPRs9ZQ+OXx0DSu7/6/BKAL0iSypmXdBhB1jY2NC7at2ChzUaY9aGL&#10;aja6kKyOdO2h8kMzKa5MWMj1uvorawYohJdJJ2XfXLwVfIkvxPT/XdwoaRk+Vy9lRqkl2JZ5Sc/M&#10;WawH3E+jLQvka+NC1kU1G11IVkfSPVR+nuuTaHz6u+6XVidNO5veRfSXJsxmMKOE148305oJw4/f&#10;7Wk9wAD9Daamjbfie8ZF7lau0ISEPx9sw6NriOx2NqTT0IQCvvCJLLQaOSGhk+1cG6L4zl38QrNw&#10;dZoYq7j8eIRmVqcW369wN3aFMLYwyKWIbZjOE+r0K7QPtCs0kMqKyDaFhDw+Oo3+QLt9ZL1GkX5F&#10;zdYbm9R45iwO2qbQSSSNILTT+xXu62x/LIowwCKgNeIieOvgcx8MXgo6cQbQiPF5xngJrG+4MsMe&#10;X4hiHruyNVK2IDTECaHXhA9FypPo3e1bPZI1hMyiR2hmLG+7LNC6hIROcXQB0DR8vK2dUJNj12RQ&#10;smRVpPJQDxBCL2WvQpFXvyK9uOve2c6ltqH30GYfUjufQwsJ/bTp8/on89vQjPGJrd9NTDc2j6Xz&#10;AXobnQghQ52Nq00WXmr68wFExNftHMaBl/+p9kLYBmyTz0adJNR88hpPo80DacOdkwGmt3TRmX2u&#10;mSBm1cklK3luu59Z5Wv7I5wvEQ7i7NP/TYQDLy8DY7SdIGRIzRO/JYe8PEO0xM+kz5IeC03lufjm&#10;KbfR+fpMo3/W++dyXDadfOlp372R+IXMOxhgGsXBf1laAg0tA6ojfltvGKcZV2nTTlJ5yEqei5+P&#10;v0uGja4TeuVtrwlRip5fZeXh6kdfv/p0z5FipXgEM6XlEXhmeWurQrPW3Vik9T2Fod47C4oYhTTI&#10;mncvgmcINJPYTuuQFUXrUuNXs/V4WQSC4y3I5pDY+ONETXIEcBm3FB9KD4tmGPZnbDuL4mNPfYai&#10;QR9SZ7svUipaovHJdMmQjosK9Vz6u/jyWSXEODNN6B/+0hTSRCc01HEda/TrV+QYuoPqfPSa8EQr&#10;18XXN7dLttHQ+GDQxTgzAvEyXQNtZ881o+xnhMTSswnt3CmkLADESyMwWbYqmEMItf2RONyYQ49+&#10;SJO/ekjGUZ5QQDOsu4598kL4uuh8ckJ4aem14ZF5P0Jlau0i5B5oQ50kXbS0BOLT5AfI/aS1HyWH&#10;I02ok1SI65QaeZrhzyY3y4iVN/TIm1mx0YVeS/FZHfuZJnumDYFdtNp6kWZxBNBpipZG49RkIaMi&#10;WYesQTg1QB7waRFSi1c+aDIEWYY0zXko8mZJtOVFZSk0dL7+lTJlWhpXyFJEeBWShdHI0/ASMRIB&#10;EN4m6+uwIoafJJ1NnlmvTa1l1SNrecFZBydd48/Wjg1aDT9JDymrY3tIQkKdpEzXfdeEZ5prFLGw&#10;BMICfdvQuC3UcLKkPwcIRxEhZhH3oGv3cWEEcCldPjCsAeYyuBSltyskoUlzJctDQ5EB2qHptywp&#10;Vte8TIsi52MavTTzGK3cdl7MKHl+59bm+SXBZqqxSOOfqw+SKztmQ+h8wEz9atLNUn9nmdf55m5S&#10;yNvQT9JdkhWeRSRQHBFoWqdv8ilkpJ9KU+Fked5szVwNvTQOwjext9Xn8cAuI3Zlgnz8fXW29SCJ&#10;zqWfV5dqBEI1VWe1MymjYFt0MP9UAgLhu+lFhw5Z9XEhb4bMdz/Mh0sypqwLYz7Y+Nr0Sda7bEa7&#10;pmTRiVCNwEh7fElHyrIS12m4hkyp3MWjKLpQ+bPBM2+6dbbaZrnGDG2YpiMQpuTa+pDWDLU03lUK&#10;bUImyKGwPe2aCXgof9d1adY3NOGei8a3aGO7Hy6EjFCaHL5JL12PSy8pfPbJD9G9zpN4sgTmyRSN&#10;dZRJTlwtQysRwL5hsShPGOrJQuW6riPrBMvVRiOjyLWOkDahnjXLfc/S35l0nyyBMCnzzBiXs7Zj&#10;BhigS2CaLAE4mq4xhzLz3DekD4x/gB4G0dEITIfaC+t/SeOlpLGbcViyjOpFtnjfqY3l2EfbzzD7&#10;SRPjm8e2euk+aelc8wjXn093jT6SXj46SU+H7ozDJUQ4hDhR3+as2ShTxFGc1eO74juT51wZUbLG&#10;vL74OTQ+Ns998wjNPXbF4S59bLyzzHcsZREORQBeStGIqctGnUQXZpTh/rp3DF2Tm5n76OT9mIV7&#10;TfTPEUAHLbVo3FZqHlLdo1P62DpkJj9rYK+59G6ok3HK74AtJDHPpeHdl9azlblCCpeetvY23R0h&#10;cYqvi7dGvsTPUkY4WEIUv0gxTTN4uFnBzX+1U2+oYwtFfAtMNmStdw3BtrosoZnZJg/v0BAlJK1n&#10;KyOh3AetfK1ugDuE1YRh2pRpq4wQTWOGX4xAQ4cAHBeoA5CcCOfj1DlInS6VZ+EVEmt2CiEd3yuh&#10;Yzf04ONYUDoU4aw3HAbBWMRydaJtqDTDnyS9xMOFrPUs1NuOG57Pl8Fw6RASikhtfcN01qFeCj8l&#10;vTX3yiZfe40mjU++JnzWhnVmHQDgGJYvOhLRgxuqYOxvo2vENuIDYA415p9E4+Ihoch63/BpW5fw&#10;rVeY9SyUu0YCib82XHDJst0TSW/bNdh0lnT3XaN0HS75Ppvy2ZnX3ibowQ3V+vvx8Zysuy2E0XTQ&#10;AAP0ICL8I5o/DAH8Q1ulz9G70LMx/gADAAD9A9D4KaAhfrZeWPtI7cREIuzxxcS2uM2kDVI2Z/sB&#10;2tEr/dcFPZifRfNXD0t8kAiH5Hiq2QB2A0yUc7IuJFXo6gRJ9lyAb6KYJUmgcVC+e+Jqa9JokgOu&#10;ZETWxIKLr9yPBHoR8095AWh4/OFzjwI04ZBkEaKd/GnSf3ny3bMPzW3xwzdRbCQZpDpfmWvSrtXL&#10;1Tahu/VLSr4JsK1Ok1gQ2pJZb5wTDmD4zKNA3fBp/PIYoN26J9SlqCtLImroKfO19z3xWXjq4L4t&#10;WeT7hBXJMw8vwZuyVN4p+Q59vM80P03jl1eRmNwC4J/rU0J5PW5WT2TSulJpWXkWgSzyZ5NnJ/XL&#10;Iz/LgxAgl6Kfo+bso5bhzz/lSWr74rkrnvctrMBRJvHOCsWcwyvLFV9rJtWuONfVtgiv64uj84yM&#10;vvlGyPXa2vrsw8VD0tGhDaEK5ieB2l7kluEPn3kURM+28/PdeFMBRmJHmwPSU9qJsCREf98EOkmT&#10;vEY2aDSTOkm+T99Qnq76LAaV5Z6ZfVRwaNN27nHARM9i0TnH6gWtUGdr+acxYnqspadvVc1SxlK9&#10;xnMWMVS6Vvls9K6VQNvKoK9vbPxssjVJAOmapLa2NqZc6Vp8E2NJbx+dra1Eo70W3/ULchmPolyO&#10;UQ91CAmvz6vuK6M68wgTotaEpe7Fc4WDoY0b3jV5ruFjtjPb2/RKenObjKQOSX5mO1OWT58i4+wG&#10;76SO0nW5+snWD9I1+nhq5Nr4SqOF61i67iZFjGjoPbTn5p81ytpfIUin7AFwpNUm6cXbmYV5tVBk&#10;5RPipXzXYuNh8jPbhXjDoo0+qYt2JLG1tdWZvF08fTTmg6AZDWzHDo9POIyRN+xJFrUZPu366BSI&#10;Hg2P9VxGoUVRE94B+gedePAlMfQojW9o23qffmlsxA/5vbnGQwZrVyCvAQZIgPBQ4szI6jQx/8na&#10;9gWqxfbJrcnJ/TrJ7E3zmNJ1swJp8qzJmEhZGF/qTzqXeLh0kvj5ZNqyL7b7YJPboJN0dY30Rhuv&#10;+q5+NfW16WrLkEl8Gzq1K1bfptBMY9YRpw1/7a8PA/RYbSbMaNuanIz1k9kbNsIbzhLq5IFrTuCK&#10;c6VY3Rf/SueaUM8Vs9qgGXEd90GU26CTdNXE+HV6r/qKeD1lJ65z1/UjoVNKscdw5Y1H0HLyxgJW&#10;HVSpABF/u63MJHI+7oOQRYfQEVGbM++0LE1qOkRu6CgYCMK3qZLmK/8wxKmLnyDQ843TtClLxi2F&#10;DrMFbXhi1vluoja88fH16WKD77p8cqS0o9TOPGeH7EadjbdJK+lEAo0JW2jos69WHREOAHhCopIN&#10;v/zccQA7EwwS/LLGxJ2E2cHmTbEZgzbNZ5Mj8U/CdYPZoNM+MCZPUxfTaDUPr2aUNuVK+rva+Hg2&#10;+CZ18oWGnoeA6ftY/9JrNsmi8fPq+8/F66//fdtrRwYYoE9AoGkQ3kZ7x/ahZeONCW46xm/iqo37&#10;QBjvsH4DDNApPIb1m/ejZvQxvFmdOrZiKxBF26i9gQKzHd8PMEA7CIhB2LYVWxtFkflnDXUAgMs7&#10;F+KVo08x43x5MpMs08aKjXZZVnYHGaN2hMTn0vzE1T5vf2t5245dfOGkI9AvMHr6u8zV2jpiOEMd&#10;ALWG0TdaTjw5+fBNoEIzPCFprdB6G2+fTBsf1wRfex3SJFOjty+jok0+uGSE0GnucxZ9TL62+yPU&#10;E3/DYvRA3dF7fucWAHgnIXpBXuSQFoGkuhRPT1mWehd/30KQRmbyXLE4Y+Vpo/NlmWzyJL62BSpb&#10;vUuery6L7j5eEq2v72ufRHQQw6WdaMX14p/f8Ne/dBTgu+0XlQWDecAAHQLhbrz/E40vnKRie2hi&#10;/Aa4vGMUkyd+xaClgzh7gF4FEQ5h0fzfpvGNk2hPykTGuSbUAbaWfz0Joq+mV+1sMW/yczagWUCS&#10;YsY8cxDb9YYu6OWZA9nmBZrY2EXrm2+YskL01ciRdFfMr4i+ivKvGy9ATnp4UTuV8fPKbYsB7GLm&#10;s7PP+Bvtis7QFMmvV3mdDMjeXwSaAGEN7R0TfswQQD2b0zhRGT0A0N6xo+DoK7UzaVnc9iQm6ULS&#10;nSHnRRpXN3i5Rh+t97PVhYxqPhQxQvjamXI0fAEQvuIwesCwdbXhAwBG3/AdInqm3XO7EBL2uGjm&#10;stfUphB99CHGneVByCI3RP8Q+e3HBNqDRad/L4RbkOHT+IbjiPiLBK5PFKTUExnntgUv8wKkFFdo&#10;/OuKt5Wew/qwuniFg4gOENEBd+o3PJ3npodRF2LMLj4hKWtfKpYMWtt1NTTlGIQvOharkp/N4zCP&#10;DwBrx34Mor+2E7g6wZXr1fJy8XF1kla2Rtd8IxAR7ccQXQVgLXnfWZoHRfWvWWfL0Yfy9z3sLh0a&#10;oL/C+s2PQjButH/5BIljRR7fQH1T/+0EOmaPxXzxZVExZ/+BiPYBuJZ2b56gvWP7QVhPRPst1MKx&#10;1Ne2zzyxt4vGNocz6W0jr+9aNHUAER0F4YvCF03M3ZjmAlYGjw9g6/qX9iPCl8ShiIRQp6mXGeqE&#10;QjunkM61w7qGzjWhtIOI9mN4aD3tHWsaOu0d248hWk8keX7Nqqom1LGFlOb9cHlvUy+TRko4+EZe&#10;m5ykDUk20wzVvoS9mxt9KdmyzePrFrAk8OoHRlCdeoQZq7K07wwaHdZ7INAESrSWdm8WQxteue0c&#10;MB5m8IqsEsKySHmcT5HpXmTiR4SnsWjx+xx7crySMxk+APBF2y8Cz/yUmRe0s+xN4+sW6uHNB5Oe&#10;XgKv3HYOgP/OzOfMjmb9CSJ6DUP8btp9yzNZeWQ2egDAuk/sAfjOujrIGgKkkXcOoIk7feW2eYuL&#10;Pk1HRPvM8MaqdSvs8dJ2B0WkUosA34mrxzIbPZDT4wOo7dmffPl/MviSPHzmInzhTQLJVcWYV247&#10;N1/YM3dBoCdBeB/tHWt8l7ZtRdaAmd1p0ufz+Kjn9udFtxLRkbpmA6A+kSWs9xi9+O022ju2D/Pm&#10;Xdu7nr87IKIjiIbGaO9YI66XUpiN4+abkWFkdJAlnSniqk3/iIg/S6DYnYZylRVZ313Uw5u1lvDG&#10;uWsQjazDro/XeNTmB8iW0dKkHENhS2eG3GdfCjPNv2Zb+AzWfcL8TWbvUGWGAAAI0ElEQVRr5kY4&#10;b9IWYvhUIeDUt3wPhPvlt2OZyLqwoq3vHgg0gSG6lp7adMBCYva5fQfhU5sOYIiurS1yhfaJLZ3o&#10;aqOBbkVVL9c8tvHHdiw6Z2c9Zy8Zuxa1333L2FhEe4rTljtuiHV1ulSfLGscm3S28mQ9EjQ2/Wwy&#10;zbbt+tRXZH3hTTB41b0rMMMP17I9ph5Sn7S1dlwH4L8XDZj8pWPbGoGkmyRfGiG4lrosjbyfdn10&#10;SqGoCoUZPQBsvWpiCsOlG4johfST64PPEDVlGg9nLpf7luddbVt1zfAmzOidX4+r/4F2b55ohT2+&#10;hSGn14S9z3yQrt01qthGhWS5+bCYunPjq4Q34qobkkaf6iPIMb71r1CP31T/4m9eiRk8yMBI0bzd&#10;KHpxRccrIHuTC7zq3hWo8g+6m+2xjbIdkTQFog/T3rFHi+ZduNEDaGxk+ywFv5MnL7LcANsETGn0&#10;RPtzGL25l0Q6btLS7s21B6yr2Z6sI0YS/kk3ATGi6DOJDWiSRwdkGzPLOpTVMUAVAta/dD+I/thC&#10;kVdCzvbFyCggpjezOrFRnn6b9e7NXV7kKqLvpbmAUR/Rl7Hu5j9PbEAzN565ys1+TeXxOxLqNMDl&#10;HcN4ZfrrzLypUzK6hfqGs7WO7E0IXIswInjN9rMxPfODubi9gUD34rdOv40e3FCF3DfB/ZWW0UHD&#10;BwAu370Qk6VvMfhDnZRjhyvbgUS5JkvB9aPZiel9aI/5bdkcW5kr+yVB20+2tlJWJ50pIsL3sWjx&#10;xqybz7TouOEDAF/41VEMnfIQM65oic2Tzuwe6iHGtZq9N7OB9MY2W3rQlfaVPqU2Xm0Eepecdn0J&#10;9CjmnfrhItOWNsyK4QMAr9l+GqarD7aMv//Q3HBWTHgD+PeZSHWp8nrY8zAzn1uQXrMOAj2K0eHr&#10;6u/ECYG6n5KYFaMHAHpq0zFEMzcQ6Gd+6t6DYkU2C6RvCiU/k7BlKkBPbZporfD2H4gwjgWn3EDj&#10;G48hLB8PgzYJ6fXgTbqiDN+2WagN9HefPIz5Qx8kih4Tai3HLri2Bjc+8+wtqe8TyZeydMFMyyWz&#10;EdI+nmS7Npr2VKd5zSak/kmWm8dmW1sbiU7i2zonoh9juPRhevKmwwYD6dqlSa6EZL+Km9RmLdRJ&#10;gld/bQTV+d9i5t+VKXojngcKz95IsKXntG3aHpZ0tifLgpOLJoSfWxYR/RUWnX4jjW+Ygj1cgVBn&#10;K0/WO+tm3egBgHZ9egqlEx8jou3yIpdrn42Ts0Dr8+w2z0WtPH3njB5Iv9A0tE3yvLGxbX3L87v2&#10;JdmuXcoI+c5N2CbZtcUpAt2L0qkfq2dvbNdt6xNfX3nrumL4QN34Fw3fhoi+XDN+n7FqblhKiuXc&#10;timKkkcTqL8NwSOk51DX+dr6NZi1sPe1q19DMzxJulZ/11Zk6cv4rdNvm43sjQ1dM3wAoPGN01j3&#10;0h0gfJLAiU4I3Thlnts3k6Xp07REtA8lsu2n7wvQ3rH99Zh/n59auzvTVaZY6QZPAdGtWLf5jvri&#10;VNfQlRjfBFcqwP94Uxkz8Q5mPquz0qRccqKWaD94aC0909HwxgXbUnuyXh3buld4pXx9ss4Vu9va&#10;yTyI6CA42ohrNo1ThUKuwfr1QeNYKrPy7gnDb6C2GMPf6tYrS7qwOOW6aeYNN8tdaEuT8spt56KL&#10;b28gwm4MRTfWQzCf/pLR2+hse5tsD4sopOuoDc8j7yOKvilPejsom2gfhkj1NoQC4XsJkvn1OVcb&#10;a3ni7Q3G1xi1sbrZxpUmbmsRE+EeLFr8Hlx9c2O+YU7mtZN7qd6c4Ktpe8rjN/DLt1ZK581ffj2I&#10;72LmJZ2WVzf6fpzIBq1atn+Tq7MgoiOg6PMYWfEdGr88rxPThD9B6DmjB4C3/rJS3XrNi3+BEl/W&#10;6ZXeesqyH40ecKcBU6DdmycwROspamxpdmV4Uq0Tn67FsfpKLPBurNv0QAFGD7i9dybk8fi2yUTu&#10;LaNJ8MptCwD+HEC3M/NCN7V74pqi7v6Gs9B4Xbuy64Q/5g+Z2LZNYI+DcScI/yXxChCbzpn1d/CS&#10;9uZbG+cR7DvODdo79trW9Yf+I0rRGiJ6wk3t+85tgi/RPrD1FSCzBVt864p5bXG/LV5O0dDeMePV&#10;JSZ830NOp4iJ6AmUojW4ZvOX6y97ssXf0vXY9JWuzcfPVt/GoydjfBtqWx0WbAb4D/PE/j3g6ZOQ&#10;0pe+bI8rfef7hlLTU2bL9rSPBrUXifGXsGjxvfVVWF9WCsa5bwTQ0phwynMZfu4JRKfAF9/zZswM&#10;3QXw7zIQ2UOc9JBNiCZQQte/RJKA62bbbpxpAK4hXnpYmryzfoGdgBiE/4Z5879AT288qNQr5GGW&#10;6s1rlGhd5812Po9faLxeJLhSAf76TWUg/iPtezvr4c36Li5O9SRC9/MT0ROg6A6s2/Qz4UcZ+gJ9&#10;FepI4JXbFoDoI4j5dpfXIkQTmB9d1eENZ30LXrP9bJyY+WGrD6XRkiYAuhPEOxMvbe1L9L3hN8Dl&#10;HaOYmv4oYtzO4OXJuk694WyuwZbnJ9CLiPAljAw/kOEbUj2JOWH0AEDjGyex7qV7MH/o3xLh843X&#10;bzRXZAdG70Uzz1/P9hDRfiJ8HqPDb8W6l+6ZK0YPzCGPn0QFFWxZvWIEM8f/Hag0Tn/38ee7rZMD&#10;2jUQ2+TWdQzh3McXfPH9bwZXyxha+H3smpgiVHwbxSQ5tr0zNv2libEmM2TykK4vpfucNPw+hDYd&#10;qV6gEXi4UoLahSXJGJO6uVKNIfprHmyJ3pb5SdUNDL9/oRkduiVDqsuiU8eucWD0vYEsS/c+zzwb&#10;OnQavhXfzBh4/AFOSgyMfoCTEgPD7y7ixKcv1AiljRW0Wj4SbSwca2S5dDJpfHQamZJuccnRyAfX&#10;JqnBAxUOX1ZHorOlAE1eNp6+9Kh5LhmZaw9RCL9IOJaM37b/xpU+TdHn2avTywauzV376lzHLv4h&#10;8Bl6SJssekmGb/LS3usi9TL5+TapBfH6/zslMa/5D97GAAAAAElFTkSuQmCC&#10;"
       id="image1"
       x="92.5"
       y="30"
       style="stroke-width:2.37499" /></g><metadata
     id="metadata2118"><rdf:RDF><cc:Work
         rdf:about="" /></rdf:RDF></metadata></svg>
