<?xml version="1.0" encoding="UTF-8" standalone="no"?>
<!-- Created with Inkscape (http://www.inkscape.org/) -->

<svg
   width="265"
   height="140"
   viewBox="0 0 265 140"
   version="1.1"
   id="svg2051"
   inkscape:version="1.3.2 (1:1.3.2+202404261509+091e20ef0f)"
   sodipodi:docname="stadtfabrikanten.svg"
   inkscape:export-filename="stadtfabrikanten.png"
   inkscape:export-xdpi="96"
   inkscape:export-ydpi="96"
   xml:space="preserve"
   xmlns:inkscape="http://www.inkscape.org/namespaces/inkscape"
   xmlns:sodipodi="http://sodipodi.sourceforge.net/DTD/sodipodi-0.dtd"
   xmlns="http://www.w3.org/2000/svg"
   xmlns:svg="http://www.w3.org/2000/svg"
   xmlns:rdf="http://www.w3.org/1999/02/22-rdf-syntax-ns#"
   xmlns:cc="http://creativecommons.org/ns#"><sodipodi:namedview
     id="namedview2053"
     pagecolor="#ffffff"
     bordercolor="#666666"
     borderopacity="1.0"
     inkscape:pageshadow="2"
     inkscape:pageopacity="0.0"
     inkscape:pagecheckerboard="false"
     inkscape:document-units="px"
     showgrid="false"
     inkscape:showpageshadow="false"
     inkscape:snap-tangential="true"
     inkscape:snap-perpendicular="true"
     inkscape:deskcolor="#ffffff"
     inkscape:lockguides="true"
     inkscape:zoom="1.2950438"
     inkscape:cx="92.660959"
     inkscape:cy="201.53759"
     inkscape:window-width="1920"
     inkscape:window-height="1012"
     inkscape:window-x="0"
     inkscape:window-y="0"
     inkscape:window-maximized="1"
     inkscape:current-layer="layer1"
     inkscape:export-bgcolor="#ffffffff" /><defs
     id="defs2048" /><g
     inkscape:label="Layer 1"
     inkscape:groupmode="layer"
     id="layer1"><g
       id="g2"
       style="display:inline;stroke-width:2.22205"
       transform="matrix(1.7009033,0,0,1.7009033,74.896867,30.000354)"><path
         id="Background"
         style="color:#000000;display:inline;fill:#ffffff;fill-opacity:0.996582;stroke:none;stroke-width:1.35372;stroke-miterlimit:10"
         d="M 21.056388,-2.0724631e-4 V 15.40402 H -2.0766779e-4 V 31.271267 L 5.8903893,31.271786 V 47.033613 H 67.732608 V 8.2621369e-4 h -31.26941 v -0.001033 z"
         sodipodi:nodetypes="ccccccccccc" /><path
         style="color:#000000;clip-rule:evenodd;fill:#4b8c97;fill-opacity:1;fill-rule:evenodd;stroke:none;stroke-width:2.844;stroke-miterlimit:10"
         d="m 52.073528,10.071317 c -3.059767,0 -5.564576,2.506809 -5.564576,5.564575 0,3.058767 2.506809,5.562576 5.564576,5.562576 3.057767,0 5.614572,-2.48681 5.614572,-5.562576 0,-3.074765 -2.555805,-5.564575 -5.614572,-5.564575 z m 0,2.437814 c 1.740867,0 3.176758,1.403893 3.176758,3.126761 0,1.723869 -1.435891,3.127762 -3.176758,3.127762 -1.741867,0 -3.127761,-1.385895 -3.127761,-3.127762 0,-1.739867 1.385894,-3.126761 3.127761,-3.126761 z"
         id="Ring-Innen" /><path
         style="color:#000000;clip-rule:evenodd;fill:#231f1f;fill-opacity:0.996582;fill-rule:evenodd;stroke:none;stroke-width:2.844;stroke-miterlimit:10"
         d="m 52.099026,4.2782587 c -6.258523,0 -11.357134,5.0986111 -11.357134,11.3561333 0,6.257523 5.098611,11.357134 11.357134,11.357134 6.257523,0 11.356134,-5.099611 11.356134,-11.357134 0,-6.2355239 -4.97662,-11.3551334 -11.356134,-11.3561333 z m 0,2.4368141 c 5.093612,9.999e-4 8.91932,3.9606982 8.91932,8.9193192 0,4.940624 -3.978697,8.91932 -8.91932,8.91932 -4.940623,0 -8.91932,-3.978696 -8.91932,-8.91932 0,-4.940623 3.978697,-8.9193192 8.91932,-8.9193192 z"
         id="Ring-Mitte" /><path
         style="color:#000000;fill:#ee3171;fill-opacity:1;stroke:none;stroke-width:2.844;stroke-miterlimit:10"
         d="m 52.098026,1.2769876 c -7.921396,0 -14.355905,6.4335093 -14.355905,14.3569054 0,7.921395 6.434509,14.358904 14.355905,14.358904 7.921396,0 14.356905,-6.436509 14.356905,-14.358904 0,-7.9163967 -6.302519,-14.3569054 -14.356905,-14.3569054 z m 0,1.2179071 c 7.407435,0 13.138998,5.8665525 13.138998,13.1389983 0,7.263445 -5.875552,13.138997 -13.138998,13.138997 -7.262446,0 -13.138998,-5.876551 -13.138998,-13.138997 0,-7.2654463 5.876552,-13.1389983 13.138998,-13.1389983 z"
         id="Ring-Aussen" /><path
         id="Schrift-Stadt"
         style="font-size:7.42543px;font-family:Track;fill:#231f1f;fill-opacity:0.996582;stroke:none;stroke-width:1.35372"
         d="m 33.837851,20.763516 c 0.332975,0 0.370972,-0.066 0.370972,-0.369972 v -0.484963 c 0,-0.189985 -0.019,-0.370971 -0.313976,-0.370971 h -5.065614 c -0.293978,0 -0.303977,0.180986 -0.303977,0.370971 v 0.484963 c 0,0.303977 0.048,0.369972 0.379971,0.369972 h 1.84386 v 6.006542 c 0,0.189986 0.009,0.370972 0.303976,0.370972 h 0.65595 c 0.294978,0 0.303977,-0.180986 0.303977,-0.370972 v -6.006542 z m -9.038311,0.038 c 0.959927,0 1.758866,0.798939 1.758866,1.748867 v 1.57788 c 0,0.949927 -0.798939,1.748866 -1.758866,1.748866 H 23.060673 V 20.801513 Z M 22.110745,19.53761 c -0.180986,0 -0.323975,0.151988 -0.323975,0.303977 l 0.019,6.995466 c 0,0.179986 0.12399,0.303977 0.304976,0.303977 h 2.688795 c 1.663873,0 3.02277,-1.358897 3.02277,-3.01277 v -1.57788 c 0,-1.653874 -1.358897,-3.01277 -3.02277,-3.01277 z m -0.997923,7.299443 c 0,-0.039 0,-0.048 -0.009,-0.113991 L 18.670008,19.784591 C 18.604013,19.6606 18.566016,19.53761 18.37603,19.53761 h -0.836936 c -0.189985,0 -0.236982,0.104992 -0.303977,0.246981 -0.246981,0.598954 -2.422815,7.014465 -2.422815,7.052462 0,0.179986 0.160988,0.303977 0.312976,0.303977 h 0.65595 c 0.227983,0 0.246981,-0.09499 0.313976,-0.246981 l 0.521961,-1.463889 2.338821,-1.035921 0.863934,2.49981 c 0.06699,0.141989 0.104992,0.246981 0.304977,0.246981 h 0.683948 c 0.199985,0 0.303977,-0.104992 0.303977,-0.303977 z m -3.925701,-3.126762 0.769941,-2.157835 c 0.104992,0.294978 0.161988,0.493962 0.227983,0.683948 0.029,0.104992 0.067,0.190985 0.09499,0.294977 0.029,0.104992 0.104992,0.294978 0.218983,0.598955 z m -3.069766,-2.946775 c 0.332975,0 0.370972,-0.066 0.370972,-0.369972 v -0.484963 c 0,-0.189985 -0.019,-0.370971 -0.313976,-0.370971 H 9.1087366 c -0.2939776,0 -0.3039768,0.180986 -0.3039768,0.370971 v 0.484963 c 0,0.303977 0.047996,0.369972 0.379971,0.369972 h 1.8438602 v 6.006542 c 0,0.189986 0.009,0.370972 0.303977,0.370972 h 0.65595 c 0.294977,0 0.303976,-0.180986 0.303976,-0.370972 V 20.763516 Z M 8.1868069,24.78421 c 0,-0.646951 -0.274979,-1.102916 -0.6649492,-1.368896 C 7.3318722,23.292323 7.1128889,23.177332 6.8569084,23.092339 6.6189265,23.006345 6.2109577,22.902353 5.6400012,22.740365 L 4.5470846,22.436389 C 4.4050954,22.398392 4.2621063,22.312398 4.1391157,22.189407 3.9011338,21.951426 3.9581295,21.666447 3.9861274,21.50546 v 0.012 c 0.1049919,-0.483963 0.5519579,-0.835937 1.0359209,-0.835937 h 0.7229449 c 0.6079536,0 0.9409282,0.303977 0.9689261,1.111916 0.009,0.151988 0.1239905,0.303977 0.3039768,0.303977 h 0.6279521 c 0.2939776,0 0.2939776,-0.179987 0.3039768,-0.369972 C 7.9778229,20.995499 7.7118432,20.339549 7.2848757,19.997575 6.8569084,19.654601 6.3149497,19.445617 5.7449932,19.445617 H 5.0220483 c -1.0829174,0 -2.0618427,0.769941 -2.2618274,1.824861 l 0.009,-0.013 c -0.065995,0.25698 -0.056996,0.456965 -0.056996,0.65595 v 0.132989 c 0,1.273903 1.3119,1.644875 2.5288071,1.919854 0.6839479,0.161988 1.2639036,0.25698 1.5298833,0.484963 0.1609878,0.141989 0.1519884,0.427967 0.1419892,0.550958 0,0.067 -0.009,0.12399 -0.018999,0.189985 -0.084994,0.503962 -0.5789559,0.817938 -1.1499123,0.817938 h -0.721945 c -0.4939623,0 -0.9219296,-0.341974 -1.0269216,-0.807938 -0.009,-0.123991 -0.018999,-0.208984 -0.018999,-0.256981 0,-0.151988 0.009,-0.179986 -0.027998,-0.303977 C 3.9101332,24.489232 3.8151404,24.413238 3.663152,24.413238 H 3.0162013 c -0.2939775,0 -0.3039768,0.179986 -0.3039768,0.370972 v -0.02 c 0,0.218983 -0.009,0.380971 0.066995,0.769941 0.037997,0.199985 0.1229906,0.408969 0.2659797,0.617953 0.4089688,0.65595 1.1499123,1.073918 1.9768492,1.073918 h 0.721945 c 0.6849477,0 1.2929014,-0.160987 1.7208687,-0.541958 0.4269674,-0.379971 0.7219449,-1.177911 0.7219449,-1.900855 z" /><path
         id="Schrift-Est"
         style="font-size:2.47514px;font-family:Track;fill:#231f1f;fill-opacity:0.996582;stroke:none;stroke-width:2.43537"
         d="m 31.358236,9.1928838 c 0,-0.117991 0.025,-0.196985 0.160988,-0.2089841 h 0.345973 c 0.201985,0 0.306977,0.046997 0.341974,0.2019846 0.002,0.040997 0.006,0.069995 0.006,0.085994 v 0.012999 c 0,0.078994 0.019,0.1109915 0.104992,0.1109915 h 0.211984 c 0.08899,0 0.100992,-0.031997 0.100992,-0.1109915 v -0.057996 c 0,-0.072994 -0.015,-0.2309824 -0.07599,-0.353973 -0.031,-0.066995 -0.09499,-0.1339898 -0.192985,-0.1999847 -0.09499,-0.066995 -0.259981,-0.1009923 -0.496963,-0.1009923 h -0.354972 c -0.367972,0 -0.572957,0.2939775 -0.572957,0.6079536 v 1.3338981 c 0,0.344974 0.157988,0.588955 0.572957,0.588955 h 0.563957 c 0.686947,0 0.747942,-0.807938 0.328974,-1.086917 C 32.293169,9.9428271 32.216175,9.8918306 32.156179,9.8578332 L 31.35824,9.3988682 Z m 0,0.6679491 c 0.160988,0.1009923 0.306977,0.1899851 0.52596,0.3299751 0.110992,0.07299 0.179986,0.113991 0.205984,0.135989 0.022,0.015 0.041,0.032 0.05,0.047 0.067,0.067 0.08299,0.13299 0.054,0.205984 -0.028,0.067 -0.07599,0.100992 -0.141989,0.100992 h -0.51996 c -0.07599,0 -0.122991,-0.019 -0.145989,-0.053 -0.019,-0.041 -0.028,-0.07999 -0.028,-0.113991 z m -0.78594,1.2419051 c 0.08599,0 0.100992,-0.047 0.100992,-0.12699 V 10.82076 c 0,-0.08599 -0.025,-0.123991 -0.12299,-0.123991 H 30.189325 V 8.691922 c 0,-0.063995 -0.003,-0.1249904 -0.101992,-0.1249904 h -0.629952 c -0.09799,0 -0.12399,0.038997 -0.12399,0.1249904 v 0.1609877 c 0,0.078994 0.016,0.1269904 0.101992,0.1269904 h 0.331974 v 1.7168689 h -0.341973 c -0.09199,0 -0.116992,0.038 -0.116992,0.123991 v 0.154988 c 0,0.07999 0.016,0.12699 0.100993,0.12699 z M 29.010415,9.3378727 c 0,-0.4429662 -0.373971,-0.8039386 -0.816937,-0.8039386 h -0.09199 c -0.417969,0 -0.769942,0.3319746 -0.769942,0.7629418 v 1.0739181 c 0,0.430967 0.351973,0.756942 0.769942,0.756942 h 0.09199 c 0.442966,0 0.816937,-0.353973 0.816937,-0.797939 z m -1.263903,-0.039997 c 0,-0.1939852 0.164987,-0.3489734 0.354973,-0.3489734 h 0.09199 c 0.217983,0 0.398969,0.1739867 0.398969,0.3899703 v 0.9909244 c 0,0.215984 -0.180986,0.38997 -0.398969,0.38997 h -0.09199 c -0.189986,0 -0.354973,-0.154988 -0.354973,-0.348973 z m -0.747943,1.4818873 c 0,-0.054 -0.047,-0.110992 -0.106992,-0.110992 H 25.728666 V 10.395792 L 26.710591,9.6518488 C 27.157557,9.3098749 27.122559,8.5399336 26.400614,8.5399336 h -0.348973 c -0.233982,0 -0.39597,0.031998 -0.480963,0.097993 -0.08899,0.066995 -0.148989,0.1329899 -0.180987,0.1929853 -0.06,0.1249905 -0.07299,0.2819785 -0.07299,0.3549729 v 0.057996 c 0,0.078994 0.013,0.1109915 0.100992,0.1109915 h 0.212984 c 0.08499,0 0.103992,-0.031998 0.103992,-0.1109915 v -0.012999 c 0,-0.014999 0.003,-0.044997 0.007,-0.085993 0.035,-0.1549882 0.106991,-0.1929853 0.309976,-0.1929853 h 0.338974 c 0.104992,0 0.164987,0.037997 0.180986,0.1139913 0.016,0.078994 -0.013,0.1519884 -0.07899,0.2249828 -0.016,0.014999 -0.051,0.044997 -0.101992,0.085993 L 25.50669,10.060819 c -0.186985,0.117991 -0.195985,0.183986 -0.195985,0.351973 l 0.002,0.581955 c 0,0.052 0.038,0.107992 0.09899,0.107992 h 1.478887 c 0.06,0 0.107992,-0.058 0.107992,-0.107992 z m 5.326593,-3.8147094 c 0,-0.050996 -0.044,-0.1009923 -0.103992,-0.1009923 h -0.215983 c -0.06,0 -0.100993,0.051996 -0.100993,0.1009923 v 0.2349821 c 0,0.050996 0.041,0.1009923 0.100993,0.1009923 h 0.215983 c 0.06,0 0.103992,-0.050996 0.103992,-0.1009923 z M 31.524223,5.1761902 c 0.110992,0 0.122991,-0.021998 0.122991,-0.1249905 V 4.890212 c 0,-0.063995 -0.006,-0.1239905 -0.103992,-0.1239905 h -1.688871 c -0.09799,0 -0.100992,0.059995 -0.100992,0.1239905 v 0.1609877 c 0,0.1019922 0.016,0.1249905 0.12699,0.1249905 h 0.613953 v 2.0018473 c 0,0.062995 0.003,0.1229906 0.101992,0.1229906 h 0.217984 c 0.09799,0 0.100992,-0.059995 0.100992,-0.1229906 V 5.1761902 Z M 29.547374,6.516088 c 0,-0.2159835 -0.09199,-0.367972 -0.221983,-0.4569652 -0.063,-0.040997 -0.135989,-0.078994 -0.221983,-0.1069918 C 29.024418,5.924133 28.888425,5.888136 28.698439,5.83414 L 28.334467,5.7331477 c -0.048,-0.012999 -0.09599,-0.040997 -0.13699,-0.081994 -0.07899,-0.078994 -0.06,-0.1739868 -0.05,-0.2279827 v 0 c 0.034,-0.1619876 0.182986,-0.2789787 0.344974,-0.2789787 h 0.240981 c 0.201985,0 0.312976,0.1009923 0.322976,0.3709717 0.002,0.050996 0.041,0.1009923 0.100992,0.1009923 h 0.208984 c 0.09899,0 0.09899,-0.059995 0.101992,-0.1229906 C 29.47738,5.2491846 29.388386,5.0312012 29.246397,4.91621 29.103408,4.8032186 28.923422,4.733224 28.733436,4.733224 h -0.240981 c -0.360973,0 -0.687948,0.2559804 -0.753943,0.6079536 h 0.002 c -0.022,0.085993 -0.018,0.1519884 -0.018,0.2179834 v 0.044997 c 0,0.4249676 0.436967,0.5479582 0.841936,0.6399512 0.227983,0.053996 0.421968,0.085993 0.509961,0.1619877 0.054,0.046996 0.051,0.1419891 0.048,0.1839859 0,0.020998 -0.003,0.040997 -0.007,0.063995 -0.028,0.1679871 -0.192985,0.2719792 -0.382971,0.2719792 h -0.240981 c -0.163988,0 -0.306977,-0.1139913 -0.341974,-0.2689795 -0.002,-0.040997 -0.006,-0.068995 -0.006,-0.085993 0,-0.050996 0.002,-0.059995 -0.009,-0.1009923 -0.013,-0.050996 -0.045,-0.075994 -0.09499,-0.075994 H 27.82351 c -0.09799,0 -0.100993,0.060995 -0.100993,0.1229906 v 0 c 0,0.072994 -0.003,0.1269903 0.022,0.2569804 0.013,0.066995 0.041,0.1359896 0.08899,0.2059843 0.13599,0.2189833 0.382971,0.3579727 0.65895,0.3579727 h 0.239981 c 0.228983,0 0.430968,-0.053996 0.573957,-0.1809862 0.141989,-0.1259904 0.240981,-0.39297 0.240981,-0.6329517 z m -2.214831,0.7849401 c 0.104992,0 0.104992,-0.063995 0.104992,-0.1259904 V 7.0030508 c 0,-0.1129913 -0.016,-0.1219907 -0.12699,-0.1219907 h -1.228906 v -0.706946 h 1.054919 c 0.06,0 0.100992,-0.044997 0.100992,-0.104992 V 5.8531385 c 0,-0.059995 -0.041,-0.103992 -0.100992,-0.103992 H 26.081639 V 5.1881893 h 1.187909 c 0.110992,0 0.12699,-0.012999 0.12699,-0.1239906 V 4.8892121 c 0,-0.063995 0,-0.1239906 -0.104992,-0.1239906 h -1.529883 c -0.05999,0 -0.107992,0.040997 -0.107992,0.1009923 l 0.007,2.3318222 c 0,0.059995 0.041,0.1009923 0.100992,0.1009923 z" /><path
         id="Kasten"
         style="color:#000000;display:inline;fill:#231f1f;fill-opacity:0.996582;stroke:none;stroke-width:5.11643;stroke-miterlimit:10"
         d="M 130.7832,51.199219 V 109.41992 H 51.199219 v 59.9707 l 22.263672,0.002 v 59.57226 H 307.19727 V 51.203125 h -118.1836 v -0.0039 z m 59.95703,1.724609 H 305.4707 V 167.66016 H 190.74023 Z m -58.23046,0.0039 h 56.5039 v 56.492182 h -56.5039 z M 52.927734,111.14648 H 189.01367 v 56.50391 H 52.927734 Z m 135.517576,76.0254 0.0566,0.084 c 0.0265,-0.0491 0.12611,-0.0469 0.33399,-0.0469 h 2.77734 c 0.57063,0 1.02149,0.39016 1.02149,0.95704 0,0.26456 -0.11749,0.50504 -0.35938,0.71289 l -0.32617,0.40429 -8.31641,7.8125 8.84961,12.20313 0.23828,0.33203 c 0.44969,0.57066 0.24324,1.01691 -0.20312,1.3457 -0.18142,0.12095 -0.35678,0.17383 -0.56836,0.17383 h -2.51563 c -0.35905,0 -0.63208,-0.0796 -0.90039,-0.5293 l -7.875,-10.83789 c -0.8389,0.80877 -1.46667,1.37093 -2.33203,2.17969 v 8.23438 c 0,0.62736 -0.32882,0.95312 -0.99023,0.95312 h -2.00586 c -0.62733,0 -0.92188,-0.32197 -0.92188,-0.95312 l -0.0664,-22.03516 c 0,-0.62736 0.32884,-0.95313 0.98632,-0.95313 h 2.00586 c 0.66135,0 0.99024,0.32575 0.99024,0.95313 v 8.37695 z m -101.953122,0.0469 h 0.002 13.896482 c 0.92588,0 0.98633,0.57476 0.98633,1.17187 v 1.63477 c 0,1.07708 -0.12814,1.17578 -1.20507,1.17578 H 89.552734 v 5.62695 h 9.992188 c 0.627288,0 0.962888,0.32966 0.962888,0.95704 v 2.06054 c 0,0.63115 -0.33602,0.94309 -0.962888,0.9668 h -9.992188 v 9.15625 c 0,0.59712 -2.3e-5,1.19531 -0.986328,1.19531 h -2.039062 c -0.479925,0 -0.921875,-0.39014 -0.921875,-0.95703 l -0.0625,-22.0332 c 0,-0.56991 0.473717,-0.95405 0.949219,-0.95508 z m 24.824222,0 h 0.002 2.63281 c 0.59705,0 0.71404,0.38443 0.92188,0.78125 l 7.66015,21.84961 c 0.0302,0.20787 0.0352,0.23651 0.0352,0.35742 0,0.62736 -0.3239,0.95703 -0.95508,0.95703 h -2.1582 c -0.62733,0 -0.74542,-0.32175 -0.95703,-0.77148 l -2.72071,-7.875 -7.36523,3.26367 -1.65039,4.61133 c -0.20788,0.47618 -0.26833,0.77148 -0.98633,0.77148 h -2.06055 c -0.47992,0 -0.99023,-0.39014 -0.99023,-0.95703 0,-0.12094 6.8602,-20.32119 7.63867,-22.20703 0.21138,-0.44916 0.35411,-0.78041 0.95313,-0.78125 z m 14.39453,0 h 0.002 9.81445 c 2.81156,0 5.02344,2.30442 5.02344,5.08594 0,1.05063 -0.17426,1.85519 -0.5332,2.48633 -0.35906,0.62735 -1.16833,1.28199 -2.39649,1.94336 3.26121,0.59712 4.64453,2.21028 4.64453,5.44531 v 2.48437 c 0,3.59406 -2.90619,6.5 -6.5,6.5 h -10.05468 c -0.56686,0 -0.9336,-0.47706 -0.9336,-0.95703 l -0.0508,-22.0332 c 0,-0.56999 0.4148,-0.95416 0.98438,-0.95508 z m 21.0664,0 h 10.6543 c 2.69439,0 5.0625,2.36489 5.0625,5.08594 0,2.2751 -1.23121,3.59784 -2.93555,4.76562 0.62733,1.67422 1.23117,3.22813 1.83203,4.90235 0.95607,2.63412 1.94737,5.29852 2.99415,7.96289 0.32881,0.80874 -0.12512,1.22851 -0.9336,1.22851 h -2.27929 c -0.62729,0 -0.80381,-0.36257 -0.95118,-0.74804 l -4.30859,-11.4043 c -2.0671,1.08086 -3.9007,2.09385 -6.05469,3.20117 v 7.78906 c 0,0.6009 -0.0302,1.16407 -0.95508,1.16407 h -2.125 c -0.57063,0 -0.92187,-0.47707 -0.92187,-0.95704 l -0.0644,-22.0332 c 0,-0.47996 0.41573,-0.95508 0.98632,-0.95508 z m 20.92578,0 h 0.002 2.02734 c 0.57063,0 0.98633,0.47134 0.98633,0.95508 v 22.0332 c 0,0.47997 -0.4157,0.95703 -0.98633,0.95703 h -2.0293 c -0.56685,0 -0.90039,-0.47706 -0.90039,-0.95703 l -0.0508,-22.0332 c 0,-0.47938 0.38544,-0.95394 0.95117,-0.95508 z m 34.77735,0 h 0.004 2.63281 c 0.60083,0 0.71404,0.38443 0.92187,0.78125 l 7.67188,21.84766 c 0.0302,0.20787 0.0195,0.23846 0.0195,0.35937 0,0.62736 -0.3258,0.95703 -0.95313,0.95703 h -2.16211 c -0.62732,0 -0.74329,-0.32175 -0.95117,-0.77148 l -2.72461,-7.875 -7.36523,3.26367 -1.64063,4.61133 c -0.20787,0.47618 -0.28005,0.77148 -0.99804,0.77148 h -2.0586 c -0.47992,0 -0.98633,-0.39014 -0.98633,-0.95703 0,-0.12094 6.85829,-20.32119 7.63672,-22.20703 0.20788,-0.44973 0.32992,-0.76892 0.95313,-0.78125 z m 28.67383,0 h 2.04101 c 0.56686,0 0.98633,0.47134 0.98633,0.95508 v 22.05664 c 0,0.47618 -0.41947,0.95117 -0.98633,0.95117 h -2.04101 c -0.38922,0 -0.65261,-0.15455 -0.83399,-0.45312 -3.59002,-5.35897 -6.71184,-9.95842 -10.39258,-15.4043 v 14.90625 c 0,0.47996 -0.41951,0.95508 -0.98632,0.95508 h -2.06446 c -0.56685,0 -0.89843,-0.47512 -0.89843,-0.95508 l -0.0508,-22.0332 c 0,-0.47997 0.38432,-0.95704 0.95118,-0.95704 h 2.21484 c 0.35906,0 0.6349,0.15168 0.8125,0.48047 v -0.0508 l 10.26367,15.44531 v -14.93945 c 0,-0.47619 0.4157,-0.95117 0.98633,-0.95117 z m 6.46679,0 h 15.95703 c 0.92584,0 0.98633,0.57476 0.98633,1.17187 v 1.51758 c 0,0.95993 -0.12322,1.17188 -1.16992,1.17188 h -5.74805 V 210 c 0,0.6009 -0.0302,1.16406 -0.95703,1.16406 h -2.0625 c -0.92587,0 -0.96484,-0.56316 -0.96484,-1.16406 v -18.91992 h -5.80273 c -1.04678,0 -1.19532,-0.21196 -1.19532,-1.17188 v -1.51758 c 0,-0.59711 0.0303,-1.17187 0.95703,-1.17187 z m 20.34961,0 h 14.46094 c 0.98631,0 0.98633,0.57476 0.98633,1.17187 v 1.63477 c 0,1.07708 -0.15458,1.17578 -1.20117,1.17578 h -11.22071 v 5.29102 h 9.97266 c 0.56682,0 0.95313,0.42335 0.95313,0.99023 v 2.03711 c 0,0.56689 -0.38631,0.99024 -0.95313,0.99024 h -9.97266 v 6.66992 h 11.60938 c 1.04674,0 1.20508,0.0986 1.20508,1.17187 v 1.61719 c 0,0.59712 0.002,1.19531 -0.98828,1.19531 H 257.9707 c -0.56685,0 -0.95312,-0.39014 -0.95312,-0.95703 l -0.0645,-22.0332 c 0,-0.57067 0.45077,-0.95508 1.01758,-0.95508 z m 34.11914,0 h 2.03711 c 0.57064,0 0.99024,0.47134 0.99024,0.95508 v 22.05664 c 0,0.47618 -0.4196,0.95117 -0.99024,0.95117 h -2.03711 c -0.38921,0 -0.65638,-0.15455 -0.83398,-0.45312 -3.5938,-5.35897 -6.70029,-9.95842 -10.38477,-15.4043 v 14.90625 c 0,0.47996 -0.41569,0.95508 -0.98632,0.95508 h -2.07227 c -0.57063,0 -0.88672,-0.47512 -0.88672,-0.95508 l -0.0684,-22.0332 c 0,-0.47997 0.38445,-0.95704 0.95508,-0.95704 h 2.22266 c 0.35905,0 0.6233,0.15168 0.80468,0.48047 v -0.0508 l 10.25977,15.44531 v -14.93945 c 0,-0.47619 0.41964,-0.95117 0.99023,-0.95117 z m -163.38672,3.96094 v 6.58203 c 2.30518,-1.19802 7.08953,-3.79781 7.66016,-4.69727 0.12095,-0.17763 0.18555,-0.44867 0.18555,-0.78125 0,-0.59712 -0.4253,-1.13652 -1.02149,-1.10351 z m 21.1543,0 v 6.52929 c 2.36561,-1.16778 7.69494,-3.80854 8.32227,-4.79492 v 0.0527 c 0.12094,-0.17764 0.18554,-0.39263 0.18554,-0.62696 0,-0.63112 -0.48411,-1.14257 -1.17187,-1.14257 z m -37.23047,2.36523 -2.41797,6.79102 4.12305,-1.82617 c -0.35905,-0.95616 -0.59288,-1.55598 -0.68359,-1.88477 -0.0907,-0.32878 -0.21398,-0.59308 -0.30469,-0.92188 -0.20787,-0.60089 -0.38802,-1.23228 -0.7168,-2.1582 z m 91.16797,0 -2.41797,6.79102 4.13282,-1.82617 c -0.35906,-0.95616 -0.60461,-1.55598 -0.69532,-1.88477 -0.0907,-0.32878 -0.21385,-0.59308 -0.30078,-0.92188 -0.21165,-0.60089 -0.38997,-1.23228 -0.71875,-2.1582 z m -71.41406,6.51953 -3.67774,2.00586 v 5.08789 h 7.0625 c 0.68777,0 1.29258,-0.24163 1.80274,-0.74804 l 0.29102,-0.35938 c 0.47996,-0.56688 0.45703,-1.28923 0.45703,-1.41016 0,-0.32881 0.0195,-0.55987 0.0195,-0.88867 0,-0.27209 0.0352,-0.57359 0.0352,-0.8457 0,-2.15417 -1.04903,-2.8418 -2.15625,-2.8418 z"
         transform="matrix(0.26458333,0,0,0.26458333,-13.546667,-13.546667)" /></g></g><metadata
     id="metadata2118"><rdf:RDF><cc:Work
         rdf:about="" /></rdf:RDF></metadata></svg>
