<?xml version="1.0" encoding="UTF-8" standalone="no"?>
<!--part of the matt icon theme by sixsixfive released under CC0 (https://creativecommons.org/publicdomain/zero/1.0/) on openclipart-->

<svg
   viewBox="0 0 265 140"
   id="svg3072"
   version="1.1"
   inkscape:version="1.4 (1:1.4+202410161351+e7c3feb100)"
   width="265"
   height="140"
   sodipodi:docname="serversetup.svg"
   xml:space="preserve"
   inkscape:export-filename="serversetup.png"
   inkscape:export-xdpi="96"
   inkscape:export-ydpi="96"
   xmlns:inkscape="http://www.inkscape.org/namespaces/inkscape"
   xmlns:sodipodi="http://sodipodi.sourceforge.net/DTD/sodipodi-0.dtd"
   xmlns="http://www.w3.org/2000/svg"
   xmlns:svg="http://www.w3.org/2000/svg"><metadata
     id="metadata3110" /><sodipodi:namedview
     pagecolor="#ffffff"
     bordercolor="#666666"
     borderopacity="1"
     objecttolerance="10"
     gridtolerance="10"
     guidetolerance="10"
     inkscape:pageopacity="0"
     inkscape:pageshadow="2"
     inkscape:window-width="1920"
     inkscape:window-height="1002"
     id="namedview3108"
     showgrid="false"
     inkscape:zoom="1.4576064"
     inkscape:cx="31.558588"
     inkscape:cy="139.61245"
     inkscape:window-x="0"
     inkscape:window-y="0"
     inkscape:window-maximized="1"
     inkscape:current-layer="svg3072"
     inkscape:showpageshadow="2"
     inkscape:pagecheckerboard="0"
     inkscape:deskcolor="#d1d1d1" /><defs
     id="0">
	
	
	
	
	
	
	
	
	
	
	
	
	
	
	
</defs><rect
     style="vector-effect:non-scaling-stroke;fill:#3c474d;fill-opacity:1;stroke-width:0.376198;stroke-linecap:round;stroke-linejoin:round;-inkscape-stroke:hairline"
     id="rect2"
     width="265"
     height="140"
     x="0"
     y="0" /><path
     id="path1"
     style="fill:#00d4aa;fill-opacity:1;stroke-width:0.182347"
     d="m 136.68393,30 c -13.84762,-1.8e-4 -25.07198,11.22471 -25.07198,25.07198 0,13.84708 11.22453,25.07409 25.07198,25.07409 13.84707,3.7e-4 25.07198,-11.22682 25.07198,-25.07409 C 161.75591,41.22471 150.53083,30 136.68393,30 Z m 8.56616,7.14233 c 1.3252,-0.0346 2.62734,0.63773 3.33703,1.8668 1.0319,1.78863 0.41947,4.07295 -1.36899,5.10467 -1.78828,1.03246 -4.0724,0.42176 -5.10468,-1.36688 -1.03226,-1.78773 -0.41947,-4.0724 1.36898,-5.10467 0.55885,-0.32252 1.1653,-0.48419 1.76766,-0.49992 z m -8.3489,3.73781 c 1.09299,-0.0181 2.17996,0.0867 3.24211,0.31007 -0.0474,0.91685 0.16469,1.78628 0.65812,2.64093 1.35996,2.35593 4.36875,3.16383 6.72467,1.80351 0.0791,-0.0458 0.15623,-0.094 0.23204,-0.14343 l 0.0274,0.0148 0.0485,0.0274 0.002,0.002 a 14.62297,14.62297 0 0 1 1.94484,2.63671 c 1.29065,2.23576 1.92078,4.67143 1.95329,7.08116 -0.003,0.009 -0.006,0.0177 -0.008,0.0274 h -5.00765 a 9.5272775,9.5272775 0 0 0 -1.28039,-4.60054 c -2.33167,-4.03863 -7.16034,-5.73276 -11.40958,-4.26304 l -2.53758,-4.39382 c 1.75247,-0.73975 3.58889,-1.11306 5.41053,-1.14327 z m -7.0474,1.95327 2.50594,4.3432 c -4.57856,2.64366 -6.14734,8.49936 -3.50368,13.07809 0.77444,1.34153 1.4895,2.20926 2.70211,3.00375 l -2.51437,4.35163 c -1.95021,-1.223 -3.29972,-2.71689 -4.53093,-4.84945 a 14.605101,14.605101 0 0 1 -1.36898,-3.20624 c 2.24031,-1.39878 2.98488,-4.33029 1.65375,-6.63608 a 4.8963875,4.8963875 0 0 0 -1.60734,-1.68327 c 1.037,-3.42138 3.32344,-6.47275 6.6635,-8.40163 z m -9.71998,8.8467 c 1.32532,-0.0347 2.62734,0.6376 3.33703,1.86679 1.0319,1.78864 0.41948,4.07507 -1.36899,5.10679 -1.78791,1.03246 -4.07258,0.41966 -5.10467,-1.36898 -1.03281,-1.7881 -0.42123,-4.07277 1.36687,-5.10467 0.55888,-0.32259 1.16734,-0.48417 1.76976,-0.49993 z m 26.44518,5.42319 h 5.06038 c -0.32549,2.85739 -1.4876,5.59585 -3.38765,7.82578 -1.3366,-0.51022 -2.8825,-0.43595 -4.21874,0.33538 -1.52862,0.88256 -2.40634,2.46033 -2.46164,4.10273 -3.73283,1.19218 -7.57439,0.88699 -10.94763,-0.84586 l 2.49328,-4.31577 0.0169,-0.0316 c 2.75837,1.33934 5.94164,1.23505 8.8003,-0.41555 2.55796,-1.47665 4.17511,-3.95651 4.64483,-6.65507 z m -0.12445,8.80241 c 1.32526,-0.0347 2.62523,0.63959 3.33492,1.8689 1.03208,1.78847 0.42176,4.07278 -1.36688,5.10468 -1.7881,1.03227 -4.07277,0.41966 -5.10468,-1.36898 -1.03262,-1.78828 -0.42123,-4.07259 1.36687,-5.10468 0.55885,-0.32258 1.16738,-0.48417 1.76977,-0.49992 z m -41.33945,19.0666 -3.04383,0.45563 v 23.568 c 0,0 2.00593,1.00406 6.10874,1.00406 4.1028,0 8.52608,-2.28044 8.52608,-8.98171 0,-6.70125 -5.12541,-8.57036 -7.39545,-8.57036 -2.27005,0 -4.19554,1.32256 -4.19554,1.32257 z m 52.40521,2.93625 -3.0396,0.6075 v 15.31824 c 0,0 0.10598,3.29752 1.42804,4.61953 1.32201,1.32202 3.52721,2.36933 8.51131,0.63703 -0.43508,-1.84863 -0.66867,-2.55234 -0.66867,-2.55234 0,0 -0.62378,0.61158 -3.10077,0.82055 -2.55287,0 -3.14544,-2.16898 -3.13031,-3.13031 v -8.5999 h 6.23108 v -2.49329 h -6.23108 z m -14.34795,3.87913 c -2.38667,0.0627 -4.68558,0.75248 -5.85561,1.01461 v 16.15989 h 3.00797 V 94.92221 c -1e-5,0 1.82468,-0.47976 4.05843,-0.29742 2.07147,0 3.26935,1.83087 3.26952,4.44444 -0.006,1.45405 -0.0105,9.89296 -0.0105,9.89296 h 3.14507 v -9.84655 c 0,0 0.0113,-2.43148 -1.22977,-4.58154 -1.52333,-2.24516 -3.99839,-2.80909 -6.38507,-2.74641 z m -58.045659,0.84586 v 9.84654 c 0,0 -0.009,2.4315 1.23187,4.58156 3.04666,4.4903 9.89851,2.25604 12.23858,1.73179 V 92.63355 h -3.00797 v 14.04208 c 0,0 -1.82467,0.47766 -4.05843,0.29531 -2.07145,0 -3.26935,-1.83085 -3.26953,-4.44444 0.006,-1.45403 0.0105,-9.89295 0.0105,-9.89295 z m 34.644299,0 v 9.84654 c 0,0 -0.009,2.4315 1.23188,4.58156 3.04665,4.4903 9.89851,2.25604 12.23857,1.73179 V 92.63355 h -3.00797 v 14.04208 c 10e-6,0 -1.82256,0.47766 -4.05631,0.29531 -2.07147,0 -3.27145,-1.83085 -3.27164,-4.44444 0.006,-1.45403 0.0105,-9.89295 0.0105,-9.89295 z m 46.63187,0 v 9.84654 c 0,0 -0.0113,2.4315 1.22976,4.58156 3.04666,4.4903 9.90062,2.25604 12.24069,1.73179 V 92.63355 h -3.00797 v 14.04208 c 0,0 -1.82468,0.47766 -4.05843,0.29531 -2.07165,0 -3.26953,-1.83085 -3.26953,-4.44444 0.006,-1.45403 0.0106,-9.89295 0.0106,-9.89295 z m -57.68707,2.6789 c 2.94035,0 3.3516,0.86549 3.6935,1.25297 0.3419,0.38749 1.09266,1.13924 1.09266,3.96561 0.0684,3.23667 -0.61485,6.79217 -5.01398,6.79217 -2.65826,0 -3.14787,-0.11039 -3.37288,-0.43242 V 96.61182 c 0,0 0.66035,-1.29937 3.6007,-1.29937 z" /></svg>
