<?xml version="1.0" encoding="UTF-8" standalone="no"?>
<!-- Created with Inkscape (http://www.inkscape.org/) -->

<svg
   width="440"
   height="250"
   viewBox="0 0 439.99999 250"
   version="1.1"
   id="svg1"
   inkscape:version="1.4 (1:1.4+202410161351+e7c3feb100)"
   sodipodi:docname="FabAccess.svg"
   xml:space="preserve"
   inkscape:export-filename="FabAccess.png"
   inkscape:export-xdpi="96"
   inkscape:export-ydpi="96"
   xmlns:inkscape="http://www.inkscape.org/namespaces/inkscape"
   xmlns:sodipodi="http://sodipodi.sourceforge.net/DTD/sodipodi-0.dtd"
   xmlns="http://www.w3.org/2000/svg"
   xmlns:svg="http://www.w3.org/2000/svg"><sodipodi:namedview
     id="namedview1"
     pagecolor="#ffffff"
     bordercolor="#000000"
     borderopacity="0.25"
     inkscape:showpageshadow="false"
     inkscape:pageopacity="0.0"
     inkscape:pagecheckerboard="0"
     inkscape:deskcolor="#ffffff"
     inkscape:document-units="px"
     inkscape:zoom="0.89735385"
     inkscape:cx="168.27253"
     inkscape:cy="116.4535"
     inkscape:window-width="1920"
     inkscape:window-height="1008"
     inkscape:window-x="0"
     inkscape:window-y="0"
     inkscape:window-maximized="1"
     inkscape:current-layer="layer1"
     showborder="true"
     borderlayer="false" /><defs
     id="defs1"><clipPath
       id="clipPath7195-1"><rect
         width="7331.4937"
         height="6873.1284"
         x="1594.606"
         y="163.35237"
         id="rect7197-7"
         style="fill:#008000;fill-opacity:1;stroke:#ffffff;stroke-width:2.35228;stroke-linejoin:miter;stroke-miterlimit:4;stroke-dasharray:none;stroke-opacity:1" /></clipPath></defs><g
     inkscape:label="Ebene 1"
     inkscape:groupmode="layer"
     id="layer1"
     transform="matrix(3.77953,0,0,3.77953,-322.00011,-44.000024)"><rect
       style="vector-effect:non-scaling-stroke;fill:#3c474d;fill-opacity:1;stroke:none;stroke-width:0.146384;stroke-dasharray:none;stroke-opacity:1;-inkscape-stroke:hairline"
       id="rect1"
       width="116.41659"
       height="66.14579"
       x="-201.6124"
       y="11.641665"
       transform="scale(-1,1)" /><path
       id="path1-0-7"
       clip-path="url(#clipPath2)"
       style="fill:#00d4aa;fill-opacity:1;fill-rule:nonzero;stroke:none;stroke-width:0.108983"
       d="m 133.95429,28.369285 c -3.91399,0 -7.08686,3.173033 -7.08686,7.087022 0.003,3.000497 1.89586,5.67366 4.72478,6.673867 v 16.949601 l 1.88938,1.98005 2.83526,-1.98005 v -1.67801 l -0.70882,-1.82695 0.70882,-0.78529 v -2.082534 l -1.65359,-2.3691 1.65359,-1.576475 v -0.809069 l -0.70882,-1.826791 0.70882,-0.785283 v -3.211057 c 2.82839,-1.000074 4.72078,-3.672944 4.72462,-6.672909 -0.001,-0.02574 -0.002,-0.05104 -0.004,-0.07678 -2.11602,-0.09931 -3.99257,-0.330956 -5.35632,-0.677527 -0.44602,0.479952 -1.07151,0.75312 -1.72687,0.754311 -1.30461,0 -2.36207,-1.057612 -2.36207,-2.362231 0,-1.304751 1.05746,-2.362396 2.36207,-2.362396 1.30476,0 2.36256,1.057645 2.36256,2.362396 -0.001,0.192645 -0.0256,0.384549 -0.0731,0.571358 1.18397,0.266759 2.83272,0.470057 4.68424,0.567375 -0.59384,-3.387771 -3.53433,-5.860077 -6.97368,-5.863524 z m 18.89868,0 c -3.44173,7.15e-4 -6.38545,2.474033 -6.97943,5.864323 1.86227,-0.09772 3.51337,-0.305767 4.68951,-0.569611 -0.0471,-0.186277 -0.0716,-0.377808 -0.0723,-0.569921 0,-1.304619 1.05761,-2.362237 2.36223,-2.362237 1.30475,-1.62e-4 2.36255,1.057456 2.36255,2.362075 v 1.62e-4 c 0,1.304754 -1.05764,2.362392 -2.36239,2.362392 h -1.7e-4 c -0.65456,-5.29e-4 -1.27946,-0.27334 -1.72574,-0.752231 -1.35672,0.346436 -3.22355,0.573834 -5.3584,0.674328 -0.001,0.02585 -0.002,0.05195 -0.002,0.0779 v 14.174043 h 14.17389 V 35.456624 c 0,-3.913991 -3.17289,-7.08734 -7.08687,-7.08734 z m -9.61608,2.384107 c -1.06478,0.0034 -2.12582,0.04119 -3.14115,0.11159 0.25947,0.345513 0.48946,0.712388 0.68726,1.096747 1.70835,-0.0936 3.53244,-0.09335 5.24476,7.94e-4 0.19556,-0.384491 0.42284,-0.751848 0.67992,-1.098023 -1.12206,-0.07756 -2.29797,-0.114635 -3.47079,-0.110793 z m -8.21858,0.921617 c -0.343,0.111903 -0.63291,0.233743 -0.87659,0.373085 -0.38503,0.220223 -0.74525,0.528469 -0.7556,1.026982 -0.0105,0.498651 0.34765,0.825082 0.72749,1.048217 0.24939,0.146637 0.54887,0.273251 0.90486,0.389524 0.32099,-0.240638 0.55648,-0.587841 0.65565,-0.990105 -0.45675,-0.130595 -0.79216,-0.267167 -0.98467,-0.380263 -0.044,-0.02585 -0.0408,-0.02864 -0.0655,-0.04696 0.028,-0.02151 0.029,-0.02941 0.0827,-0.06005 0.19476,-0.111509 0.52434,-0.24312 0.96743,-0.369733 -0.0992,-0.40266 -0.3347,-0.750105 -0.65581,-0.990745 z m 16.7708,1.64e-4 c -0.32085,0.240508 -0.55632,0.587685 -0.6555,0.989943 0.49441,0.140803 0.84796,0.292464 1.02986,0.408206 0.017,0.01087 0.01,0.0076 0.023,0.01659 -0.0275,0.02151 -0.0302,0.03058 -0.0812,0.05985 -0.1945,0.112164 -0.52479,0.24589 -0.9716,0.373564 0.0992,0.401996 0.33443,0.748935 0.65502,0.989305 0.3463,-0.11309 0.63915,-0.236055 0.88442,-0.377392 0.36819,-0.212134 0.70985,-0.496521 0.74617,-0.97302 0.0362,-0.476505 -0.29432,-0.825241 -0.64448,-1.048382 -0.2657,-0.169303 -0.5896,-0.309821 -0.98563,-0.438696 z m -6.51103,2.58542 c -1.23687,0.04735 -2.51323,0.048 -3.74891,5.29e-4 0.0615,0.377462 0.0945,0.759129 0.099,1.141763 1.17401,0.04165 2.37757,0.04074 3.55253,-0.0013 0.004,-0.38244 0.0367,-0.763751 0.0974,-1.141286 z m 2.37787,2.376916 h 10.39435 c 0.39257,0 0.70865,0.31608 0.70865,0.708657 v 10.394338 c 0,0.392582 -0.31608,0.708657 -0.70865,0.708657 h -10.39435 c -0.39271,0 -0.70865,-0.316075 -0.70865,-0.708657 V 37.346132 c 0,-0.392574 0.31594,-0.708652 0.70865,-0.708652 z m 5.19718,2.955788 c -1.51237,-1.6e-5 -3.02459,0.575501 -4.17594,1.726852 -0.2307,0.230563 -0.2307,0.604563 0,0.835255 0.23056,0.230698 0.60469,0.230698 0.83525,0 1.84211,-1.842245 4.83942,-1.84198 6.68153,0 0.11535,0.11535 0.26664,0.17305 0.41778,0.17305 0.15115,0 0.30228,-0.05772 0.41763,-0.17305 0.2307,-0.230692 0.23056,-0.604692 0,-0.835255 -1.15141,-1.151288 -2.6639,-1.726834 -4.17625,-1.726852 z m 0,1.768842 c -1.10429,0 -2.14241,0.429975 -2.92306,1.210893 -0.2307,0.230557 -0.2307,0.604687 0,0.835249 0.23056,0.230695 0.60439,0.230695 0.83509,0 0.55764,-0.557774 1.29909,-0.864943 2.08797,-0.864943 0.7886,0 1.53032,0.307169 2.08797,0.864943 0.11534,0.115348 0.26648,0.173048 0.41762,0.173048 0.15114,0 0.30244,-0.05771 0.41779,-0.173048 0.23056,-0.230562 0.23069,-0.604692 0,-0.835249 -0.78092,-0.780918 -1.8191,-1.210893 -2.92338,-1.210893 z m 0,1.772993 c -0.60495,0 -1.20973,0.230086 -1.67019,0.690615 -0.23082,0.23056 -0.23082,0.604844 0,0.835409 0.23056,0.2307 0.60453,0.2307 0.8351,0 0.46059,-0.460461 1.21004,-0.46059 1.6705,0 0.11547,0.115218 0.26632,0.172867 0.41746,0.172738 0.15115,0 0.30228,-0.05739 0.41763,-0.172738 0.23069,-0.230695 0.23056,-0.604849 0,-0.835409 -0.4606,-0.460529 -1.06556,-0.690615 -1.6705,-0.690615 z m -20.08004,0.589399 h 1.1812 v 14.174084 h -1.1812 z m 20.08004,1.181038 c -0.32616,0 -0.59053,0.264527 -0.59053,0.59068 0,0.326156 0.26437,0.590837 0.59053,0.590837 0.32628,0 0.59067,-0.264681 0.59067,-0.590837 0,-0.326153 -0.26439,-0.59068 -0.59067,-0.59068 z"
       sodipodi:nodetypes="ccccccccccccccccccccsscccccsccccsssscccccssscccccccccccccscccccccccccccscccccsccsssssssscscccssscsscccscsscsscccccscscccccsssss" /></g></svg>
